# 3ds Max Wavefront OBJ Exporter v0.99 - (c)2007 guruware
# File Created: 07.02.2022 12:24:40

#
# object d_3_floor
#

v  -3.196563 0.000001 -0.355791
v  3.402812 0.000001 -0.355791
v  -3.196563 0.000001 -5.541318
v  3.402812 0.000001 -5.541318
v  -3.196563 0.000001 0.058311
v  3.402812 0.000001 0.058311
v  -3.196563 0.000001 1.951611
v  3.402812 0.000001 1.951611
v  -3.196563 0.000001 3.086084
v  3.402812 0.000001 3.086084
v  -3.196563 0.000001 3.772900
v  3.402812 0.000001 3.772900
v  -3.196563 0.000001 8.462997
v  3.402812 0.000001 8.462997
v  -1.060313 0.000001 8.462997
v  -1.060313 0.000001 3.772900
v  -1.060313 0.000001 3.086084
v  -1.060313 0.000001 1.951611
v  -1.060313 0.000001 0.058311
v  -1.060313 0.000001 -0.355791
v  -1.060313 0.000001 -5.541318
v  -0.496562 0.000001 8.462997
v  -0.496562 0.000001 3.772900
v  -0.496562 0.000001 3.086084
v  -0.496562 0.000001 1.951611
v  -0.496562 0.000001 0.058311
v  -0.496562 0.000001 -0.355791
v  -0.496562 0.000001 -5.541318
v  1.425937 0.000001 8.462997
v  1.425937 0.000001 3.772900
v  1.425937 0.000001 3.086084
v  1.425937 0.000001 1.951611
v  1.425937 0.000001 0.058311
v  1.425937 0.000001 -0.355791
v  1.425937 0.000001 -5.541318
v  0.184062 0.000001 8.462997
v  0.184062 0.000001 3.772900
v  0.184062 0.000001 3.086084
v  0.184062 0.000001 1.951611
v  0.184062 0.000001 0.058311
v  0.184062 0.000001 -0.355791
v  0.184062 0.000001 -5.541318
v  -2.797812 0.000001 -5.541318
v  -2.797812 0.000001 -0.355791
v  -2.797812 0.000001 0.058311
v  -2.797812 0.000001 1.951611
v  -2.797812 0.000001 3.086084
v  -2.797812 0.000001 3.772900
v  -2.797812 0.000001 8.462997
v  3.402812 0.000001 -9.295556
v  -1.060313 0.000001 -9.295556
v  -0.496562 0.000001 -9.295556
v  1.425937 0.000001 -9.295556
v  0.184062 0.000001 -9.295556
v  -2.797812 0.000001 -9.295556
# 55 vertices

vt 0.018751 0.591921 0.000000
vt 0.001953 0.591921 0.000000
vt 0.001953 0.373467 0.000000
vt 0.018751 0.373467 0.000000
vt 0.279969 0.356022 0.000000
vt 0.279969 0.373467 0.000000
vt 0.196688 0.373467 0.000000
vt 0.196688 0.356022 0.000000
vt 0.279969 0.276262 0.000000
vt 0.196688 0.276262 0.000000
vt 0.279969 0.228469 0.000000
vt 0.196688 0.228469 0.000000
vt 0.279969 0.199536 0.000000
vt 0.196688 0.199536 0.000000
vt 0.279969 0.001953 0.000000
vt 0.196688 0.001953 0.000000
vt 0.091948 0.591921 0.000000
vt 0.091948 0.373467 0.000000
vt 0.115698 0.373467 0.000000
vt 0.115698 0.591921 0.000000
vt 0.091948 0.356022 0.000000
vt 0.018751 0.356022 0.000000
vt 0.091948 0.276262 0.000000
vt 0.018751 0.276262 0.000000
vt 0.091948 0.228469 0.000000
vt 0.018751 0.228469 0.000000
vt 0.091948 0.199536 0.000000
vt 0.018751 0.199536 0.000000
vt 0.091948 0.001953 0.000000
vt 0.018751 0.001953 0.000000
vt 0.115698 0.356022 0.000000
vt 0.115698 0.276262 0.000000
vt 0.115698 0.228469 0.000000
vt 0.115698 0.199536 0.000000
vt 0.115698 0.001953 0.000000
vt 0.144371 0.373467 0.000000
vt 0.144371 0.591921 0.000000
vt 0.144371 0.356022 0.000000
vt 0.144371 0.276262 0.000000
vt 0.144371 0.228469 0.000000
vt 0.144371 0.199536 0.000000
vt 0.144371 0.001953 0.000000
vt 0.196688 0.591921 0.000000
vt 0.279969 0.591921 0.000000
vt 0.001953 0.356022 0.000000
vt 0.001953 0.276262 0.000000
vt 0.001953 0.228469 0.000000
vt 0.001953 0.199536 0.000000
vt 0.001953 0.001953 0.000000
vt 0.279969 0.750078 0.000000
vt 0.196688 0.750078 0.000000
vt 0.091948 0.750078 0.000000
vt 0.018751 0.750078 0.000000
vt 0.115698 0.750078 0.000000
vt 0.144371 0.750078 0.000000
# 55 texture coords

o d_3_floor
g d_3_floor
f 43/1 3/2 1/3 44/4 
f 6/5 2/6 34/7 33/8 
f 8/9 6/5 33/8 32/10 
f 10/11 8/9 32/10 31/12 
f 12/13 10/11 31/12 30/14 
f 14/15 12/13 30/14 29/16 
f 21/17 20/18 27/19 28/20 
f 19/21 20/18 44/4 45/22 
f 18/23 19/21 45/22 46/24 
f 17/25 18/23 46/24 47/26 
f 16/27 17/25 47/26 48/28 
f 15/29 16/27 48/28 49/30 
f 26/31 27/19 20/18 19/21 
f 25/32 26/31 19/21 18/23 
f 24/33 25/32 18/23 17/25 
f 23/34 24/33 17/25 16/27 
f 22/35 23/34 16/27 15/29 
f 28/20 27/19 41/36 42/37 
f 33/8 34/7 41/36 40/38 
f 32/10 33/8 40/38 39/39 
f 31/12 32/10 39/39 38/40 
f 30/14 31/12 38/40 37/41 
f 29/16 30/14 37/41 36/42 
f 35/43 34/7 2/6 4/44 
f 42/37 41/36 34/7 35/43 
f 40/38 41/36 27/19 26/31 
f 39/39 40/38 26/31 25/32 
f 38/40 39/39 25/32 24/33 
f 37/41 38/40 24/33 23/34 
f 36/42 37/41 23/34 22/35 
f 43/1 44/4 20/18 21/17 
f 45/22 44/4 1/3 5/45 
f 46/24 45/22 5/45 7/46 
f 47/26 46/24 7/46 9/47 
f 48/28 47/26 9/47 11/48 
f 49/30 48/28 11/48 13/49 
f 50/50 53/51 35/43 4/44 
f 51/52 55/53 43/1 21/17 
f 52/54 51/52 21/17 28/20 
f 53/51 54/55 42/37 35/43 
f 54/55 52/54 28/20 42/37 
# 41 polygons

