# 3ds Max Wavefront OBJ Exporter v0.99 - (c)2007 guruware
# File Created: 07.02.2022 12:14:28

#
# object e_22
#

v  -5.883437 0.000004 3.329785
v  4.400938 0.000004 3.329785
v  -5.883437 0.000004 -4.814375
v  4.400938 0.000004 -4.814375
v  -4.067499 0.000004 -4.814375
v  -4.067499 0.000004 3.329785
v  -2.951875 0.000004 -4.814375
v  -2.951875 0.000004 3.329785
v  -2.049375 0.000004 -4.814375
v  -2.049375 0.000004 3.329785
v  0.373125 0.000004 -4.814375
v  0.373125 0.000004 3.329785
v  -0.717500 0.000004 -4.814375
v  -0.717500 0.000004 3.329785
v  4.400938 0.000004 -1.611133
v  0.373125 0.000004 -1.611133
v  -0.717500 0.000004 -1.611133
v  -2.049375 0.000004 -1.611133
v  -2.951874 0.000004 -1.611133
v  -4.067499 0.000004 -1.611133
v  -5.883437 0.000004 -1.611133
v  4.400938 0.000004 -3.197500
v  0.373125 0.000004 -3.197500
v  -0.717500 0.000004 -3.197500
v  -2.049375 0.000004 -3.197500
v  -2.951874 0.000004 -3.197500
v  -4.067499 0.000004 -3.197500
v  -5.883437 0.000004 -3.197500
v  1.485000 0.000004 3.329785
v  1.485000 0.000004 -1.611133
v  1.485000 0.000004 -3.197500
v  1.485000 0.000004 -4.814375
v  4.400938 0.000004 2.005000
v  1.485000 0.000004 2.005000
v  0.373125 0.000004 2.005000
v  -0.717500 0.000004 2.005000
v  -2.049375 0.000004 2.005000
v  -2.951874 0.000004 2.005000
v  -4.067500 0.000004 2.005000
v  -5.883437 0.000004 2.005000
v  5.885313 0.000004 3.329785
v  5.885313 0.000004 2.005000
v  4.400938 0.000004 4.814394
v  1.485000 0.000004 4.814394
v  5.885313 0.000004 4.814394
v  -5.686176 2.600000 -4.338691
v  -5.885017 2.600000 -4.814394
v  -5.686176 2.600000 -4.583735
v  -5.686176 2.600000 -4.227922
v  -5.237187 2.600000 -4.583735
v  -5.116907 2.600000 -4.583735
v  -5.237187 2.600000 -4.338690
v  -5.116907 2.600000 -4.227921
v  -5.686176 2.600000 -1.665487
v  -5.686176 2.600000 -1.556761
v  -3.955774 2.600000 -1.665487
v  -3.955774 2.600000 -1.556761
v  -4.007184 2.600000 -1.665487
v  -4.130653 2.600000 -1.665487
v  -4.007184 2.600000 -2.464832
v  -4.130653 2.600000 -2.464832
v  -4.007184 2.600000 -3.367754
v  -4.130653 2.600000 -3.367754
v  -4.007184 2.600000 -4.583735
v  -4.130653 2.600000 -4.583735
v  -3.224133 2.600000 -4.583735
v  -3.224133 2.600000 -4.814395
v  -2.224335 2.600000 -4.583735
v  -2.224335 2.600000 -4.814395
v  -2.111641 2.600000 -4.583735
v  -1.989416 2.600000 -4.583735
v  -1.540816 2.600000 -4.583735
v  -1.424348 2.600000 -4.583735
v  4.400297 2.600000 -4.814395
v  4.005691 2.600000 -4.583735
v  4.400297 2.600000 -3.854976
v  4.005691 2.600000 -3.854976
v  4.400297 2.600000 -2.697813
v  4.005691 2.600000 -2.697813
v  4.005691 2.600000 -1.691013
v  4.005691 2.600000 -1.571941
v  4.400297 2.600000 -1.093940
v  4.005691 2.600000 -1.093940
v  4.400297 2.600000 -0.243653
v  4.005691 2.600000 -0.243653
v  4.400297 2.600000 3.329783
v  4.005691 2.600000 2.932729
v  3.560125 2.600000 3.329783
v  3.560125 2.600000 2.932729
v  1.814505 2.600000 3.329783
v  1.814505 2.600000 2.932729
v  0.846350 2.600000 3.329783
v  0.846350 2.600000 2.932729
v  -0.305959 2.600000 3.329783
v  -0.305959 2.600000 2.932729
v  -0.669912 2.600000 2.932729
v  -0.767086 2.600000 2.932729
v  -1.682414 2.600000 3.329783
v  -1.682414 2.600000 2.932729
v  -2.827255 2.600000 3.329783
v  -2.827255 2.600000 2.932729
v  -4.210633 2.600000 3.329783
v  -4.210633 2.600000 2.932729
v  -5.351895 2.600000 3.329783
v  -5.351895 2.600000 2.932729
v  -5.686206 2.600000 2.932729
v  -5.884987 2.600000 3.329783
v  -1.989416 2.600000 -4.224509
v  -1.424348 2.600000 -4.224509
v  -1.989416 2.600000 -4.339739
v  -1.540816 2.600000 -4.339739
v  -2.111641 2.600000 -3.138551
v  -1.989416 2.600000 -3.256487
v  -1.346143 2.600000 -3.138551
v  -1.346143 2.600000 -3.256487
v  -0.435299 2.600000 -3.138551
v  -0.435299 2.600000 -3.256487
v  0.319949 2.600000 -3.138551
v  0.319949 2.600000 -3.256487
v  0.423735 2.600000 -3.042839
v  0.319949 2.600000 -3.042839
v  0.423735 2.600000 -4.583735
v  0.319949 2.600000 -4.583735
v  2.597883 2.600000 -1.691013
v  2.483671 2.600000 -1.691013
v  1.732970 2.600000 -1.691013
v  1.624282 2.600000 -1.691013
v  0.319949 2.600000 -1.571941
v  2.597883 2.600000 -2.154551
v  1.624282 2.600000 -2.154551
v  2.483671 2.600000 -2.031310
v  1.732970 2.600000 -2.031310
v  0.423735 2.600000 -1.691013
v  0.319949 2.600000 -2.150948
v  0.423735 2.600000 -2.150948
v  -3.075894 2.600000 -1.665487
v  -3.075894 2.600000 -1.556761
v  -2.814796 2.600000 -1.665487
v  -2.814796 2.600000 -1.556761
v  -1.910879 2.600000 -1.665487
v  -1.910879 2.600000 -1.556761
v  -0.669882 2.600000 -1.665487
v  -3.002696 2.600000 -1.556761
v  -2.903188 2.600000 -1.556761
v  -3.002696 2.600000 2.932729
v  -2.903188 2.600000 2.932729
v  -0.767086 2.600000 -1.556761
v  -5.686176 0.000000 -4.338691
v  -5.885017 0.000000 -4.814394
v  -5.686176 0.000000 -4.583735
v  -5.686176 0.000000 -4.227922
v  -5.237187 0.000000 -4.583735
v  -5.116907 0.000000 -4.583735
v  -5.237187 0.000000 -4.338690
v  -5.116907 0.000000 -4.227921
v  -5.686176 0.000000 -1.665487
v  -5.686176 0.000000 -1.556761
v  -3.955774 0.000000 -1.665487
v  -3.955774 0.000000 -1.556761
v  -4.007184 0.000000 -1.665487
v  -4.130653 0.000000 -1.665487
v  -4.007184 0.000000 -2.464832
v  -4.130653 0.000000 -2.464832
v  -4.007184 0.000000 -3.367754
v  -4.130653 0.000000 -3.367754
v  -4.007184 0.000000 -4.583735
v  -4.130653 0.000000 -4.583735
v  -3.224133 0.000000 -4.583735
v  -3.224133 0.000000 -4.814395
v  -2.224335 0.000000 -4.583735
v  -2.224335 0.000000 -4.814395
v  -2.111641 0.000000 -4.583735
v  -1.989416 0.000000 -4.583735
v  -1.540816 0.000000 -4.583735
v  -1.424348 0.000000 -4.583735
v  4.400297 0.000000 -4.814395
v  4.005691 0.000000 -4.583735
v  4.400297 0.000000 -3.854976
v  4.005691 0.000000 -3.854976
v  4.400297 0.000000 -2.697813
v  4.005691 0.000000 -2.697813
v  4.005691 0.000000 -1.691013
v  4.005691 0.000000 -1.571941
v  4.400297 0.000000 -1.093940
v  4.005691 0.000000 -1.093940
v  4.400297 0.000000 -0.243653
v  4.005691 0.000000 -0.243653
v  4.400297 0.000000 3.329783
v  4.005691 0.000000 2.932729
v  3.560125 0.000000 3.329783
v  3.560125 0.000000 2.932729
v  1.814505 0.000000 3.329783
v  1.814505 0.000000 2.932729
v  0.846350 0.000000 3.329783
v  0.846350 0.000000 2.932729
v  -0.305959 0.000000 3.329783
v  -0.305959 0.000000 2.932729
v  -0.669912 0.000000 2.932729
v  -0.767086 0.000000 2.932729
v  -1.682414 0.000000 3.329783
v  -1.682414 0.000000 2.932729
v  -2.827255 0.000000 3.329783
v  -2.827255 0.000000 2.932729
v  -4.210633 0.000000 3.329783
v  -4.210633 0.000000 2.932729
v  -5.351895 0.000000 3.329783
v  -5.351895 0.000000 2.932729
v  -5.686206 0.000000 2.932729
v  -5.884987 0.000000 3.329783
v  -1.989416 0.000000 -4.224509
v  -1.424348 0.000000 -4.224509
v  -1.989416 0.000000 -4.339739
v  -1.540816 0.000000 -4.339739
v  -2.111641 0.000000 -3.138551
v  -1.989416 0.000000 -3.256487
v  -1.346143 0.000000 -3.138551
v  -1.346143 0.000000 -3.256487
v  -0.435299 0.000000 -3.138551
v  -0.435299 0.000000 -3.256487
v  0.319949 0.000000 -3.138551
v  0.319949 0.000000 -3.256487
v  0.423735 0.000000 -3.042839
v  0.319949 0.000000 -3.042839
v  0.423735 0.000000 -4.583735
v  0.319949 0.000000 -4.583735
v  2.597883 0.000000 -1.691013
v  2.483671 0.000000 -1.691013
v  1.732970 0.000000 -1.691013
v  1.624282 0.000000 -1.691013
v  0.319949 0.000000 -1.571941
v  2.597883 0.000000 -2.154551
v  1.624282 0.000000 -2.154551
v  2.483671 0.000000 -2.031310
v  1.732970 0.000000 -2.031310
v  0.423735 0.000000 -1.691013
v  0.319949 0.000000 -2.150948
v  0.423735 0.000000 -2.150948
v  -3.075894 0.000000 -1.665487
v  -3.075894 0.000000 -1.556761
v  -2.814796 0.000000 -1.665487
v  -2.814796 0.000000 -1.556761
v  -1.910879 0.000000 -1.665487
v  -1.910879 0.000000 -1.556761
v  -0.669882 0.000000 -1.665487
v  -3.002696 0.000000 -1.556761
v  -2.903188 0.000000 -1.556761
v  -3.002696 0.000000 2.932729
v  -2.903188 0.000000 2.932729
v  -0.767086 0.000000 -1.556761
v  -5.885017 0.900000 -4.814394
v  -5.686176 0.900000 -4.338691
v  -5.686176 0.900000 -4.583735
v  -5.237187 0.900000 -4.583735
v  -5.116907 0.900000 -4.583735
v  -5.237187 0.900000 -4.338690
v  -5.116907 0.900000 -4.227921
v  -5.686176 0.900000 -4.227922
v  -5.686176 0.900000 -1.665487
v  -5.686176 0.900000 -1.556761
v  -4.130653 0.900000 -1.665487
v  -3.955774 0.900000 -1.556761
v  -3.955774 0.900000 -1.665487
v  -4.007184 0.900000 -1.665487
v  -4.007184 0.900000 -2.464832
v  -4.130653 0.900000 -2.464832
v  -4.130653 0.900000 -3.367754
v  -4.007184 0.900000 -3.367754
v  -4.007184 0.900000 -4.583735
v  -4.130653 0.900000 -4.583735
v  -3.224133 0.900000 -4.583735
v  -3.224133 0.900000 -4.814395
v  -2.224335 0.900000 -4.814395
v  -2.224335 0.900000 -4.583735
v  -2.111641 0.900000 -4.583735
v  -1.989416 0.900000 -4.583735
v  -1.540816 0.900000 -4.583735
v  -1.424348 0.900000 -4.583735
v  0.319949 0.900000 -4.583735
v  0.423735 0.900000 -4.583735
v  4.005691 0.900000 -4.583735
v  4.400297 0.900000 -4.814395
v  4.005691 0.900000 -3.854976
v  4.400297 0.900000 -3.854976
v  4.400297 0.900000 -2.697813
v  4.005691 0.900000 -2.697813
v  4.005691 0.900000 -1.691013
v  4.005691 0.900000 -1.571941
v  4.005691 0.900000 -1.093940
v  4.400297 0.900000 -1.093940
v  4.005691 0.900000 -0.243653
v  4.005691 0.900000 2.932729
v  4.400297 0.900000 -0.243653
v  4.400297 0.900000 3.329783
v  3.560125 0.900000 2.932729
v  3.560125 0.900000 3.329783
v  1.814505 0.900000 3.329783
v  1.814505 0.900000 2.932729
v  0.846350 0.900000 2.932729
v  0.846350 0.900000 3.329783
v  -0.305959 0.900000 3.329783
v  -0.305959 0.900000 2.932729
v  -0.669912 0.900000 2.932729
v  -0.767086 0.900000 2.932729
v  -1.682414 0.900000 2.932729
v  -1.682414 0.900000 3.329783
v  -2.827255 0.900000 3.329783
v  -2.827255 0.900000 2.932729
v  -2.903188 0.900000 2.932729
v  -3.002696 0.900000 2.932729
v  -4.210633 0.900000 2.932729
v  -4.210633 0.900000 3.329783
v  -5.351895 0.900000 3.329783
v  -5.351895 0.900000 2.932729
v  -5.686206 0.900000 2.932729
v  -5.884987 0.900000 3.329783
v  -1.989416 0.900000 -4.339739
v  -1.540816 0.900000 -4.339739
v  -1.424348 0.900000 -4.224509
v  -1.989416 0.900000 -4.224509
v  -1.989416 0.900000 -3.256487
v  -2.111641 0.900000 -3.138551
v  -1.346143 0.900000 -3.138551
v  -1.346143 0.900000 -3.256487
v  -0.435299 0.900000 -3.138551
v  0.319949 0.900000 -3.138551
v  0.319949 0.900000 -3.256487
v  -0.435299 0.900000 -3.256487
v  0.319949 0.900000 -3.042839
v  0.423735 0.900000 -3.042839
v  2.597883 0.900000 -1.691013
v  2.483671 0.900000 -1.691013
v  1.732970 0.900000 -1.691013
v  1.624282 0.900000 -1.691013
v  0.423735 0.900000 -1.691013
v  2.483671 0.900000 -2.031310
v  1.732970 0.900000 -2.031310
v  2.597883 0.900000 -2.154551
v  1.624282 0.900000 -2.154551
v  0.319949 0.900000 -1.571941
v  0.423735 0.900000 -2.150948
v  0.319949 0.900000 -2.150948
v  -3.075894 0.900000 -1.556761
v  -3.002696 0.900000 -1.556761
v  -3.075894 0.900000 -1.665487
v  -1.910879 0.900000 -1.556761
v  -0.767086 0.900000 -1.556761
v  -1.910879 0.900000 -1.665487
v  -2.814796 0.900000 -1.556761
v  -2.814796 0.900000 -1.665487
v  -2.903188 0.900000 -1.556761
v  -0.669882 0.900000 -1.665487
v  -5.686176 2.100000 -4.338691
v  -5.116907 2.100000 -4.583735
v  -5.686176 2.100000 -4.227922
v  -5.686176 2.100000 -1.665487
v  -5.686176 2.100000 -1.556761
v  -4.130653 2.100000 -1.665487
v  -3.955774 2.100000 -1.556761
v  -4.130653 2.100000 -3.367754
v  -4.130653 2.100000 -4.583735
v  -2.224335 2.100000 -4.814395
v  -1.989416 2.100000 -4.583735
v  -1.424348 2.100000 -4.583735
v  0.423735 2.100000 -4.583735
v  4.400297 2.100000 -2.697813
v  4.005691 2.100000 -1.571941
v  4.005691 2.100000 -0.243653
v  1.814505 2.100000 3.329783
v  -0.305959 2.100000 3.329783
v  -0.767086 2.100000 2.932729
v  -2.827255 2.100000 3.329783
v  -3.002696 2.100000 2.932729
v  -5.351895 2.100000 3.329783
v  -1.989416 2.100000 -4.339739
v  -1.989416 2.100000 -4.224509
v  -1.989416 2.100000 -3.256487
v  -2.111641 2.100000 -3.138551
v  -0.435299 2.100000 -3.138551
v  0.319949 2.100000 -3.256487
v  2.483671 2.100000 -1.691013
v  1.624282 2.100000 -1.691013
v  2.483671 2.100000 -2.031310
v  2.597883 2.100000 -2.154551
v  -3.075894 2.100000 -1.556761
v  -1.910879 2.100000 -1.556761
v  -2.814796 2.100000 -1.556761
v  -2.903188 2.100000 -1.556761
v  -5.885017 2.100000 -4.814394
v  -5.686176 2.100000 -4.583735
v  -5.237187 2.100000 -4.583735
v  -5.237187 2.100000 -4.338690
v  -5.116907 2.100000 -4.227921
v  -3.955774 2.100000 -1.665487
v  -4.007184 2.100000 -1.665487
v  -4.007184 2.100000 -2.464832
v  -4.130653 2.100000 -2.464832
v  -4.007184 2.100000 -3.367754
v  -4.007184 2.100000 -4.583735
v  -3.224133 2.100000 -4.583735
v  -3.224133 2.100000 -4.814395
v  -2.224335 2.100000 -4.583735
v  -2.111641 2.100000 -4.583735
v  -1.540816 2.100000 -4.583735
v  0.319949 2.100000 -4.583735
v  4.005691 2.100000 -4.583735
v  4.400297 2.100000 -4.814395
v  4.005691 2.100000 -3.854976
v  4.400297 2.100000 -3.854976
v  4.005691 2.100000 -2.697813
v  4.005691 2.100000 -1.691013
v  4.005691 2.100000 -1.093940
v  4.400297 2.100000 -1.093940
v  4.005691 2.100000 2.932729
v  4.400297 2.100000 -0.243653
v  4.400297 2.100000 3.329783
v  3.560125 2.100000 2.932729
v  3.560125 2.100000 3.329783
v  1.814505 2.100000 2.932729
v  0.846350 2.100000 2.932729
v  0.846350 2.100000 3.329783
v  -0.305959 2.100000 2.932729
v  -0.669912 2.100000 2.932729
v  -1.682414 2.100000 2.932729
v  -1.682414 2.100000 3.329783
v  -2.827255 2.100000 2.932729
v  -2.903188 2.100000 2.932729
v  -4.210633 2.100000 2.932729
v  -4.210633 2.100000 3.329783
v  -5.351895 2.100000 2.932729
v  -5.686206 2.100000 2.932729
v  -5.884987 2.100000 3.329783
v  -1.540816 2.100000 -4.339739
v  -1.424348 2.100000 -4.224509
v  -1.346143 2.100000 -3.138551
v  -1.346143 2.100000 -3.256487
v  0.319949 2.100000 -3.138551
v  -0.435299 2.100000 -3.256487
v  0.319949 2.100000 -3.042839
v  0.423735 2.100000 -3.042839
v  2.597883 2.100000 -1.691013
v  1.732970 2.100000 -1.691013
v  0.423735 2.100000 -1.691013
v  1.732970 2.100000 -2.031310
v  1.624282 2.100000 -2.154551
v  0.319949 2.100000 -1.571941
v  0.423735 2.100000 -2.150948
v  0.319949 2.100000 -2.150948
v  -3.002696 2.100000 -1.556761
v  -3.075894 2.100000 -1.665487
v  -0.767086 2.100000 -1.556761
v  -1.910879 2.100000 -1.665487
v  -2.814796 2.100000 -1.665487
v  -0.669882 2.100000 -1.665487
v  -5.686176 2.400000 -4.338691
v  -5.116907 2.400000 -4.583735
v  -5.686176 2.400000 -4.227922
v  -5.686176 2.400000 -1.665487
v  -5.686176 2.400000 -1.556761
v  -4.130653 2.400000 -1.665487
v  -3.955774 2.400000 -1.556761
v  -4.130653 2.400000 -3.367754
v  -4.130653 2.400000 -4.583735
v  -2.224335 2.400000 -4.814395
v  -1.989416 2.400000 -4.583735
v  -1.424348 2.400000 -4.583735
v  0.423735 2.400000 -4.583735
v  4.400297 2.400000 -2.697813
v  4.005691 2.400000 -1.571941
v  4.005691 2.400000 -0.243653
v  1.814505 2.400000 3.329783
v  -0.305959 2.400000 3.329783
v  -0.767086 2.400000 2.932729
v  -2.827255 2.400000 3.329783
v  -3.002696 2.400000 2.932729
v  -5.351895 2.400000 3.329783
v  -1.989416 2.400000 -4.339739
v  -1.989416 2.400000 -4.224509
v  -1.989416 2.400000 -3.256487
v  -2.111641 2.400000 -3.138551
v  -0.435299 2.400000 -3.138551
v  0.319949 2.400000 -3.256487
v  2.483671 2.400000 -1.691013
v  1.624282 2.400000 -1.691013
v  2.483671 2.400000 -2.031310
v  2.597883 2.400000 -2.154551
v  -3.075894 2.400000 -1.556761
v  -1.910879 2.400000 -1.556761
v  -2.814796 2.400000 -1.556761
v  -2.903188 2.400000 -1.556761
v  -5.885017 2.400000 -4.814394
v  -5.686176 2.400000 -4.583735
v  -5.237187 2.400000 -4.583735
v  -5.237187 2.400000 -4.338690
v  -5.116907 2.400000 -4.227921
v  -3.955774 2.400000 -1.665487
v  -4.007184 2.400000 -1.665487
v  -4.007184 2.400000 -2.464832
v  -4.130653 2.400000 -2.464832
v  -4.007184 2.400000 -3.367754
v  -4.007184 2.400000 -4.583735
v  -3.224133 2.400000 -4.583735
v  -3.224133 2.400000 -4.814395
v  -2.224335 2.400000 -4.583735
v  -2.111641 2.400000 -4.583735
v  -1.540816 2.400000 -4.583735
v  0.319949 2.400000 -4.583735
v  4.005691 2.400000 -4.583735
v  4.400297 2.400000 -4.814395
v  4.005691 2.400000 -3.854976
v  4.400297 2.400000 -3.854976
v  4.005691 2.400000 -2.697813
v  4.005691 2.400000 -1.691013
v  4.005691 2.400000 -1.093940
v  4.400297 2.400000 -1.093940
v  4.005691 2.400000 2.932729
v  4.400297 2.400000 -0.243653
v  4.400297 2.400000 3.329783
v  3.560125 2.400000 2.932729
v  3.560125 2.400000 3.329783
v  1.814505 2.400000 2.932729
v  0.846350 2.400000 2.932729
v  0.846350 2.400000 3.329783
v  -0.305959 2.400000 2.932729
v  -0.669912 2.400000 2.932729
v  -1.682414 2.400000 2.932729
v  -1.682414 2.400000 3.329783
v  -2.827255 2.400000 2.932729
v  -2.903188 2.400000 2.932729
v  -4.210633 2.400000 2.932729
v  -4.210633 2.400000 3.329783
v  -5.351895 2.400000 2.932729
v  -5.686206 2.400000 2.932729
v  -5.884987 2.400000 3.329783
v  -1.540816 2.400000 -4.339739
v  -1.424348 2.400000 -4.224509
v  -1.346143 2.400000 -3.138551
v  -1.346143 2.400000 -3.256487
v  0.319949 2.400000 -3.138551
v  -0.435299 2.400000 -3.256487
v  0.319949 2.400000 -3.042839
v  0.423735 2.400000 -3.042839
v  2.597883 2.400000 -1.691013
v  1.732970 2.400000 -1.691013
v  0.423735 2.400000 -1.691013
v  1.732970 2.400000 -2.031310
v  1.624282 2.400000 -2.154551
v  0.319949 2.400000 -1.571941
v  0.423735 2.400000 -2.150948
v  0.319949 2.400000 -2.150948
v  -3.002696 2.400000 -1.556761
v  -3.075894 2.400000 -1.665487
v  -0.767086 2.400000 -1.556761
v  -1.910879 2.400000 -1.665487
v  -2.814796 2.400000 -1.665487
v  -0.669882 2.400000 -1.665487
v  -5.885313 2.600373 3.329785
v  4.400312 2.600373 3.329785
v  -5.885313 2.600373 -4.814375
v  4.400312 2.600373 -4.814375
# 559 vertices

vt 0.419449 0.433499 0.000000
vt 0.419449 0.512236 0.000000
vt 0.349342 0.512236 0.000000
vt 0.349342 0.433499 0.000000
vt 0.123766 0.433499 0.000000
vt 0.066325 0.433499 0.000000
vt 0.066325 0.385126 0.000000
vt 0.123766 0.385126 0.000000
vt 0.066325 0.345995 0.000000
vt 0.123766 0.345995 0.000000
vt 0.066325 0.288246 0.000000
vt 0.123766 0.288246 0.000000
vt 0.123766 0.240957 0.000000
vt 0.066325 0.240957 0.000000
vt 0.066325 0.192747 0.000000
vt 0.123766 0.192747 0.000000
vt 0.280559 0.433499 0.000000
vt 0.280559 0.512236 0.000000
vt 0.123766 0.512236 0.000000
vt 0.280559 0.385126 0.000000
vt 0.349342 0.385126 0.000000
vt 0.280559 0.345995 0.000000
vt 0.349342 0.345995 0.000000
vt 0.280559 0.288246 0.000000
vt 0.349342 0.288246 0.000000
vt 0.280559 0.192747 0.000000
vt 0.280559 0.066314 0.000000
vt 0.349342 0.066314 0.000000
vt 0.349342 0.192747 0.000000
vt 0.280559 0.240957 0.000000
vt 0.349342 0.240957 0.000000
vt 0.419449 0.385126 0.000000
vt 0.419449 0.345995 0.000000
vt 0.419449 0.288246 0.000000
vt 0.419449 0.066314 0.000000
vt 0.419449 0.192747 0.000000
vt 0.419449 0.240957 0.000000
vt 0.066325 0.066314 0.000000
vt 0.123766 0.066314 0.000000
vt 0.066325 0.512236 0.000000
vt 0.066325 0.001953 0.000000
vt 0.123766 0.001953 0.000000
vt 0.001953 0.192747 0.000000
vt 0.001953 0.066314 0.000000
vt 0.001953 0.001953 0.000000
vt 0.972997 0.799097 0.000000
vt 0.972997 0.790426 0.000000
vt 0.983621 0.790426 0.000000
vt 0.983621 0.799097 0.000000
vt 0.641669 0.957989 0.000000
vt 0.641669 0.966661 0.000000
vt 0.622201 0.966661 0.000000
vt 0.622201 0.957989 0.000000
vt 0.954752 0.348130 0.000000
vt 0.911989 0.348130 0.000000
vt 0.911989 0.339458 0.000000
vt 0.954752 0.339458 0.000000
vt 0.973453 0.339458 0.000000
vt 0.973453 0.348130 0.000000
vt 0.962829 0.348130 0.000000
vt 0.962829 0.339458 0.000000
vt 0.225825 0.967624 0.000000
vt 0.225825 0.976296 0.000000
vt 0.210397 0.976296 0.000000
vt 0.210397 0.967624 0.000000
vt 0.368001 0.524896 0.000000
vt 0.368001 0.516224 0.000000
vt 0.392684 0.516224 0.000000
vt 0.392684 0.524896 0.000000
vt 0.896737 0.827674 0.000000
vt 0.896737 0.819002 0.000000
vt 0.916204 0.819002 0.000000
vt 0.916204 0.827674 0.000000
vt 0.357090 0.818934 0.000000
vt 0.357090 0.827605 0.000000
vt 0.245985 0.827605 0.000000
vt 0.245985 0.818934 0.000000
vt 0.545941 0.862599 0.000000
vt 0.545941 0.853927 0.000000
vt 0.613387 0.853927 0.000000
vt 0.613387 0.862599 0.000000
vt 0.132641 0.859574 0.000000
vt 0.123969 0.859574 0.000000
vt 0.123969 0.857345 0.000000
vt 0.132641 0.857345 0.000000
vt 0.803729 0.466329 0.000000
vt 0.795057 0.466329 0.000000
vt 0.795057 0.391300 0.000000
vt 0.803729 0.391300 0.000000
vt 0.798644 0.036612 0.000000
vt 0.789973 0.036612 0.000000
vt 0.789973 0.001953 0.000000
vt 0.798644 0.001953 0.000000
vt 0.010625 0.842063 0.000000
vt 0.001953 0.842063 0.000000
vt 0.001953 0.807404 0.000000
vt 0.010625 0.807404 0.000000
vt 0.798644 0.128486 0.000000
vt 0.789973 0.128486 0.000000
vt 0.789973 0.075762 0.000000
vt 0.798644 0.075762 0.000000
vt 0.010625 0.768254 0.000000
vt 0.001953 0.768254 0.000000
vt 0.001953 0.715530 0.000000
vt 0.010625 0.715530 0.000000
vt 0.947577 0.684005 0.000000
vt 0.947577 0.658537 0.000000
vt 0.949491 0.658537 0.000000
vt 0.949491 0.684005 0.000000
vt 0.294222 0.840265 0.000000
vt 0.294222 0.831593 0.000000
vt 0.328174 0.831593 0.000000
vt 0.328174 0.840265 0.000000
vt 0.245985 0.840265 0.000000
vt 0.245985 0.831593 0.000000
vt 0.250871 0.831593 0.000000
vt 0.250871 0.840265 0.000000
vt 0.949491 0.648967 0.000000
vt 0.947577 0.648967 0.000000
vt 0.947577 0.585559 0.000000
vt 0.949491 0.585559 0.000000
vt 0.103633 0.872234 0.000000
vt 0.103633 0.863562 0.000000
vt 0.123084 0.863562 0.000000
vt 0.123084 0.872234 0.000000
vt 0.464597 0.831104 0.000000
vt 0.464597 0.822432 0.000000
vt 0.540228 0.822432 0.000000
vt 0.540228 0.831104 0.000000
vt 0.681713 0.805875 0.000000
vt 0.673041 0.805875 0.000000
vt 0.673041 0.650565 0.000000
vt 0.681713 0.650565 0.000000
vt 0.003867 0.508129 0.000000
vt 0.001953 0.508129 0.000000
vt 0.001953 0.498946 0.000000
vt 0.003867 0.498946 0.000000
vt 0.798644 0.164072 0.000000
vt 0.789973 0.164072 0.000000
vt 0.789973 0.132473 0.000000
vt 0.798644 0.132473 0.000000
vt 0.798644 0.257899 0.000000
vt 0.789973 0.257899 0.000000
vt 0.789973 0.214245 0.000000
vt 0.798644 0.214245 0.000000
vt 0.003867 0.487870 0.000000
vt 0.001953 0.487870 0.000000
vt 0.001953 0.472519 0.000000
vt 0.003867 0.472519 0.000000
vt 0.010625 0.536949 0.000000
vt 0.001953 0.536949 0.000000
vt 0.001953 0.516224 0.000000
vt 0.010625 0.516224 0.000000
vt 0.010625 0.711542 0.000000
vt 0.001953 0.711542 0.000000
vt 0.001953 0.573817 0.000000
vt 0.010625 0.573817 0.000000
vt 0.003867 0.464380 0.000000
vt 0.001953 0.464380 0.000000
vt 0.001953 0.430177 0.000000
vt 0.003867 0.430177 0.000000
vt 0.949491 0.786438 0.000000
vt 0.947577 0.786438 0.000000
vt 0.947577 0.778396 0.000000
vt 0.949491 0.778396 0.000000
vt 0.437681 0.471236 0.000000
vt 0.429009 0.471236 0.000000
vt 0.429009 0.451917 0.000000
vt 0.437681 0.451917 0.000000
vt 0.437681 0.588903 0.000000
vt 0.429009 0.588903 0.000000
vt 0.429009 0.546925 0.000000
vt 0.437681 0.546925 0.000000
vt 0.949491 0.761688 0.000000
vt 0.947577 0.761688 0.000000
vt 0.947577 0.752421 0.000000
vt 0.949491 0.752421 0.000000
vt 0.437681 0.654647 0.000000
vt 0.429009 0.654647 0.000000
vt 0.429009 0.638866 0.000000
vt 0.437681 0.638866 0.000000
vt 0.949491 0.741392 0.000000
vt 0.947577 0.741392 0.000000
vt 0.947577 0.728217 0.000000
vt 0.949491 0.728217 0.000000
vt 0.415849 0.831104 0.000000
vt 0.415849 0.822432 0.000000
vt 0.455537 0.822432 0.000000
vt 0.455537 0.831104 0.000000
vt 0.362917 0.831104 0.000000
vt 0.362917 0.822432 0.000000
vt 0.366209 0.822432 0.000000
vt 0.366209 0.831104 0.000000
vt 0.949491 0.717260 0.000000
vt 0.947577 0.717260 0.000000
vt 0.947577 0.704019 0.000000
vt 0.949491 0.704019 0.000000
vt 0.681713 0.862238 0.000000
vt 0.673041 0.862238 0.000000
vt 0.673041 0.809863 0.000000
vt 0.681713 0.809863 0.000000
vt 0.681713 0.926217 0.000000
vt 0.673041 0.926217 0.000000
vt 0.673041 0.911722 0.000000
vt 0.681713 0.911722 0.000000
vt 0.949491 0.693095 0.000000
vt 0.947577 0.693095 0.000000
vt 0.947577 0.687993 0.000000
vt 0.949491 0.687993 0.000000
vt 0.130967 0.941514 0.000000
vt 0.129053 0.941514 0.000000
vt 0.129053 0.863562 0.000000
vt 0.130967 0.863562 0.000000
vt 0.132641 0.710884 0.000000
vt 0.123969 0.710884 0.000000
vt 0.123969 0.516224 0.000000
vt 0.132641 0.516224 0.000000
vt 0.857719 0.974539 0.000000
vt 0.795057 0.974539 0.000000
vt 0.795057 0.965867 0.000000
vt 0.857719 0.965867 0.000000
vt 0.988660 0.222736 0.000000
vt 0.988660 0.231408 0.000000
vt 0.978081 0.231408 0.000000
vt 0.978081 0.222736 0.000000
vt 0.978081 0.360789 0.000000
vt 0.978081 0.352117 0.000000
vt 0.988660 0.352117 0.000000
vt 0.988660 0.360789 0.000000
vt 0.184977 0.872234 0.000000
vt 0.184977 0.863562 0.000000
vt 0.200553 0.863562 0.000000
vt 0.200553 0.872234 0.000000
vt 0.514518 0.762696 0.000000
vt 0.514518 0.771368 0.000000
vt 0.490017 0.771368 0.000000
vt 0.490017 0.762696 0.000000
vt 0.078213 0.854722 0.000000
vt 0.078213 0.846050 0.000000
vt 0.097664 0.846050 0.000000
vt 0.097664 0.854722 0.000000
vt 0.917073 0.360789 0.000000
vt 0.917073 0.352117 0.000000
vt 0.959045 0.352117 0.000000
vt 0.959045 0.360789 0.000000
vt 0.828248 0.624375 0.000000
vt 0.795057 0.624375 0.000000
vt 0.795057 0.615703 0.000000
vt 0.828248 0.615703 0.000000
vt 0.895189 0.732424 0.000000
vt 0.895189 0.741096 0.000000
vt 0.867297 0.741096 0.000000
vt 0.867297 0.732424 0.000000
vt 0.900488 0.615703 0.000000
vt 0.900488 0.624375 0.000000
vt 0.867742 0.624375 0.000000
vt 0.867742 0.615703 0.000000
vt 0.827804 0.732424 0.000000
vt 0.827804 0.741096 0.000000
vt 0.795057 0.741096 0.000000
vt 0.795057 0.732424 0.000000
vt 0.902707 0.261887 0.000000
vt 0.902707 0.328699 0.000000
vt 0.894035 0.328699 0.000000
vt 0.894035 0.261887 0.000000
vt 0.065730 0.854722 0.000000
vt 0.065730 0.846050 0.000000
vt 0.069880 0.846050 0.000000
vt 0.069880 0.854722 0.000000
vt 0.911989 0.127346 0.000000
vt 0.911989 0.118674 0.000000
vt 0.969537 0.118674 0.000000
vt 0.969537 0.127346 0.000000
vt 0.911989 0.010625 0.000000
vt 0.911989 0.001953 0.000000
vt 0.973030 0.001953 0.000000
vt 0.973030 0.010625 0.000000
vt 0.376673 0.818445 0.000000
vt 0.368001 0.818445 0.000000
vt 0.368001 0.658634 0.000000
vt 0.376673 0.658634 0.000000
vt 0.939454 0.689621 0.000000
vt 0.939454 0.698293 0.000000
vt 0.906905 0.698293 0.000000
vt 0.906905 0.689621 0.000000
vt 0.001953 0.205406 0.000000
vt 0.001953 0.196734 0.000000
vt 0.054008 0.196734 0.000000
vt 0.054008 0.205406 0.000000
vt 0.921919 0.815015 0.000000
vt 0.901821 0.815015 0.000000
vt 0.901821 0.806343 0.000000
vt 0.921919 0.806343 0.000000
vt 0.952661 0.799097 0.000000
vt 0.952661 0.790426 0.000000
vt 0.967416 0.790426 0.000000
vt 0.967416 0.799097 0.000000
vt 0.957745 0.477510 0.000000
vt 0.957745 0.468838 0.000000
vt 0.972500 0.468838 0.000000
vt 0.972500 0.477510 0.000000
vt 0.927241 0.799097 0.000000
vt 0.927241 0.790426 0.000000
vt 0.947339 0.790426 0.000000
vt 0.947339 0.799097 0.000000
vt 0.001953 0.322128 0.000000
vt 0.001953 0.313456 0.000000
vt 0.044168 0.313456 0.000000
vt 0.044168 0.322128 0.000000
vt 0.949622 0.572900 0.000000
vt 0.949622 0.581572 0.000000
vt 0.917073 0.581572 0.000000
vt 0.917073 0.572900 0.000000
vt 0.001953 0.854722 0.000000
vt 0.001953 0.846050 0.000000
vt 0.027058 0.846050 0.000000
vt 0.027058 0.854722 0.000000
vt 0.894035 0.367370 0.000000
vt 0.902707 0.367370 0.000000
vt 0.902707 0.387313 0.000000
vt 0.894035 0.387313 0.000000
vt 0.803729 0.507654 0.000000
vt 0.795057 0.507654 0.000000
vt 0.795057 0.504480 0.000000
vt 0.803729 0.504480 0.000000
vt 0.132641 0.819194 0.000000
vt 0.123969 0.819194 0.000000
vt 0.123969 0.807873 0.000000
vt 0.132641 0.807873 0.000000
vt 0.795057 0.753755 0.000000
vt 0.795057 0.745084 0.000000
vt 0.844651 0.745084 0.000000
vt 0.844651 0.753755 0.000000
vt 0.132641 0.768680 0.000000
vt 0.123969 0.768680 0.000000
vt 0.123969 0.714872 0.000000
vt 0.132641 0.714872 0.000000
vt 0.883844 0.753755 0.000000
vt 0.883844 0.745084 0.000000
vt 0.887676 0.745084 0.000000
vt 0.887676 0.753755 0.000000
vt 0.681713 0.646577 0.000000
vt 0.673041 0.646577 0.000000
vt 0.673041 0.451917 0.000000
vt 0.681713 0.451917 0.000000
vt 0.559697 0.849939 0.000000
vt 0.551025 0.849939 0.000000
vt 0.551025 0.655279 0.000000
vt 0.559697 0.655279 0.000000
vt 0.551025 0.651291 0.000000
vt 0.551025 0.451917 0.000000
vt 0.559697 0.451917 0.000000
vt 0.559697 0.651291 0.000000
vt 0.254657 0.710884 0.000000
vt 0.245985 0.710884 0.000000
vt 0.245985 0.516224 0.000000
vt 0.254657 0.516224 0.000000
vt 0.972997 0.864136 0.000000
vt 0.983621 0.864136 0.000000
vt 0.983621 0.903159 0.000000
vt 0.972997 0.903159 0.000000
vt 0.641669 0.892950 0.000000
vt 0.622201 0.892950 0.000000
vt 0.622201 0.853927 0.000000
vt 0.641669 0.853927 0.000000
vt 0.954752 0.274419 0.000000
vt 0.911989 0.274419 0.000000
vt 0.911989 0.235396 0.000000
vt 0.954752 0.235396 0.000000
vt 0.973453 0.274419 0.000000
vt 0.962829 0.274419 0.000000
vt 0.962829 0.235396 0.000000
vt 0.973453 0.235396 0.000000
vt 0.225825 0.902585 0.000000
vt 0.210397 0.902585 0.000000
vt 0.210397 0.863562 0.000000
vt 0.225825 0.863562 0.000000
vt 0.368001 0.589934 0.000000
vt 0.392684 0.589934 0.000000
vt 0.392684 0.628958 0.000000
vt 0.368001 0.628958 0.000000
vt 0.896737 0.892713 0.000000
vt 0.916204 0.892713 0.000000
vt 0.916204 0.931736 0.000000
vt 0.896737 0.931736 0.000000
vt 0.357090 0.753895 0.000000
vt 0.245985 0.753895 0.000000
vt 0.245985 0.714872 0.000000
vt 0.357090 0.714872 0.000000
vt 0.545941 0.927637 0.000000
vt 0.613387 0.927637 0.000000
vt 0.613387 0.966661 0.000000
vt 0.545941 0.966661 0.000000
vt 0.998047 0.507861 0.000000
vt 0.993333 0.507861 0.000000
vt 0.993333 0.468838 0.000000
vt 0.998047 0.468838 0.000000
vt 0.197680 0.859574 0.000000
vt 0.197680 0.857345 0.000000
vt 0.236703 0.857345 0.000000
vt 0.236703 0.859574 0.000000
vt 0.868767 0.466329 0.000000
vt 0.868767 0.391300 0.000000
vt 0.907791 0.391300 0.000000
vt 0.907791 0.466329 0.000000
vt 0.863683 0.036612 0.000000
vt 0.863683 0.001953 0.000000
vt 0.902707 0.001953 0.000000
vt 0.902707 0.036612 0.000000
vt 0.988518 0.274419 0.000000
vt 0.983165 0.274419 0.000000
vt 0.983165 0.235396 0.000000
vt 0.988518 0.235396 0.000000
vt 0.075664 0.842063 0.000000
vt 0.075664 0.807404 0.000000
vt 0.114687 0.807404 0.000000
vt 0.114687 0.842063 0.000000
vt 0.988518 0.040976 0.000000
vt 0.983165 0.040976 0.000000
vt 0.983165 0.001953 0.000000
vt 0.988518 0.001953 0.000000
vt 0.863683 0.128486 0.000000
vt 0.863683 0.075762 0.000000
vt 0.902707 0.075762 0.000000
vt 0.902707 0.128486 0.000000
vt 0.075664 0.768254 0.000000
vt 0.075664 0.715530 0.000000
vt 0.114687 0.715530 0.000000
vt 0.114687 0.768254 0.000000
vt 0.963848 0.684005 0.000000
vt 0.963848 0.658537 0.000000
vt 0.972462 0.658537 0.000000
vt 0.972462 0.684005 0.000000
vt 0.294222 0.905304 0.000000
vt 0.328174 0.905304 0.000000
vt 0.328174 0.944327 0.000000
vt 0.294222 0.944327 0.000000
vt 0.520521 0.710665 0.000000
vt 0.530522 0.710665 0.000000
vt 0.530522 0.749689 0.000000
vt 0.520521 0.749689 0.000000
vt 0.545774 0.697658 0.000000
vt 0.535773 0.697658 0.000000
vt 0.535773 0.658634 0.000000
vt 0.545774 0.658634 0.000000
vt 0.245985 0.905304 0.000000
vt 0.250871 0.905304 0.000000
vt 0.250871 0.944327 0.000000
vt 0.245985 0.944327 0.000000
vt 0.963848 0.648967 0.000000
vt 0.963848 0.585559 0.000000
vt 0.972462 0.585559 0.000000
vt 0.972462 0.648967 0.000000
vt 0.103633 0.937272 0.000000
vt 0.123084 0.937272 0.000000
vt 0.123084 0.976296 0.000000
vt 0.103633 0.976296 0.000000
vt 0.464597 0.896143 0.000000
vt 0.540228 0.896143 0.000000
vt 0.540228 0.935166 0.000000
vt 0.464597 0.935166 0.000000
vt 0.746751 0.805875 0.000000
vt 0.746751 0.650565 0.000000
vt 0.785775 0.650565 0.000000
vt 0.785775 0.805875 0.000000
vt 0.018225 0.508129 0.000000
vt 0.018225 0.498946 0.000000
vt 0.026839 0.498946 0.000000
vt 0.026839 0.508129 0.000000
vt 0.863683 0.164072 0.000000
vt 0.863683 0.132473 0.000000
vt 0.902707 0.132473 0.000000
vt 0.902707 0.164072 0.000000
vt 0.863683 0.257899 0.000000
vt 0.863683 0.214245 0.000000
vt 0.902707 0.214245 0.000000
vt 0.902707 0.257899 0.000000
vt 0.018225 0.487870 0.000000
vt 0.018225 0.472519 0.000000
vt 0.026839 0.472519 0.000000
vt 0.026839 0.487870 0.000000
vt 0.075664 0.536949 0.000000
vt 0.075664 0.516224 0.000000
vt 0.114687 0.516224 0.000000
vt 0.114687 0.536949 0.000000
vt 0.075664 0.711542 0.000000
vt 0.075664 0.573817 0.000000
vt 0.114687 0.573817 0.000000
vt 0.114687 0.711542 0.000000
vt 0.018225 0.464380 0.000000
vt 0.018225 0.430177 0.000000
vt 0.026839 0.430177 0.000000
vt 0.026839 0.464380 0.000000
vt 0.963848 0.786438 0.000000
vt 0.963848 0.778396 0.000000
vt 0.972462 0.778396 0.000000
vt 0.972462 0.786438 0.000000
vt 0.502719 0.471236 0.000000
vt 0.502719 0.451917 0.000000
vt 0.541743 0.451917 0.000000
vt 0.541743 0.471236 0.000000
vt 0.032457 0.936756 0.000000
vt 0.049673 0.936756 0.000000
vt 0.049673 0.975779 0.000000
vt 0.032457 0.975779 0.000000
vt 0.176773 0.902585 0.000000
vt 0.159557 0.902585 0.000000
vt 0.159557 0.863562 0.000000
vt 0.176773 0.863562 0.000000
vt 0.502719 0.588903 0.000000
vt 0.502719 0.546925 0.000000
vt 0.541743 0.546925 0.000000
vt 0.541743 0.588903 0.000000
vt 0.963848 0.761688 0.000000
vt 0.963848 0.752421 0.000000
vt 0.972462 0.752421 0.000000
vt 0.972462 0.761688 0.000000
vt 0.502719 0.654647 0.000000
vt 0.502719 0.638866 0.000000
vt 0.541743 0.638866 0.000000
vt 0.541743 0.654647 0.000000
vt 0.963848 0.741392 0.000000
vt 0.963848 0.728217 0.000000
vt 0.972462 0.728217 0.000000
vt 0.972462 0.741392 0.000000
vt 0.415849 0.896143 0.000000
vt 0.455537 0.896143 0.000000
vt 0.455537 0.935166 0.000000
vt 0.415849 0.935166 0.000000
vt 0.362917 0.896143 0.000000
vt 0.366209 0.896143 0.000000
vt 0.366209 0.935166 0.000000
vt 0.362917 0.935166 0.000000
vt 0.963848 0.717260 0.000000
vt 0.963848 0.704019 0.000000
vt 0.972462 0.704019 0.000000
vt 0.972462 0.717260 0.000000
vt 0.746751 0.862238 0.000000
vt 0.746751 0.809863 0.000000
vt 0.785775 0.809863 0.000000
vt 0.785775 0.862238 0.000000
vt 0.746751 0.926217 0.000000
vt 0.746751 0.911722 0.000000
vt 0.785775 0.911722 0.000000
vt 0.785775 0.926217 0.000000
vt 0.963848 0.693095 0.000000
vt 0.963848 0.687993 0.000000
vt 0.972462 0.687993 0.000000
vt 0.972462 0.693095 0.000000
vt 0.145325 0.941514 0.000000
vt 0.145325 0.863562 0.000000
vt 0.153939 0.863562 0.000000
vt 0.153939 0.941514 0.000000
vt 0.197680 0.710884 0.000000
vt 0.197680 0.516224 0.000000
vt 0.236703 0.516224 0.000000
vt 0.236703 0.710884 0.000000
vt 0.857719 0.900828 0.000000
vt 0.795057 0.900828 0.000000
vt 0.795057 0.861805 0.000000
vt 0.857719 0.861805 0.000000
vt 0.988660 0.157698 0.000000
vt 0.978081 0.157698 0.000000
vt 0.978081 0.118674 0.000000
vt 0.988660 0.118674 0.000000
vt 0.978081 0.425828 0.000000
vt 0.988660 0.425828 0.000000
vt 0.988660 0.464851 0.000000
vt 0.978081 0.464851 0.000000
vt 0.184977 0.937272 0.000000
vt 0.200553 0.937272 0.000000
vt 0.200553 0.976296 0.000000
vt 0.184977 0.976296 0.000000
vt 0.514518 0.697658 0.000000
vt 0.490017 0.697658 0.000000
vt 0.490017 0.658634 0.000000
vt 0.514518 0.658634 0.000000
vt 0.078213 0.919761 0.000000
vt 0.097664 0.919761 0.000000
vt 0.097664 0.958784 0.000000
vt 0.078213 0.958784 0.000000
vt 0.917073 0.425827 0.000000
vt 0.959045 0.425827 0.000000
vt 0.959045 0.464851 0.000000
vt 0.917073 0.464851 0.000000
vt 0.828248 0.550664 0.000000
vt 0.795057 0.550664 0.000000
vt 0.795057 0.511641 0.000000
vt 0.828248 0.511641 0.000000
vt 0.983194 0.602903 0.000000
vt 0.978081 0.602903 0.000000
vt 0.978081 0.563880 0.000000
vt 0.983194 0.563880 0.000000
vt 0.895189 0.667386 0.000000
vt 0.867297 0.667386 0.000000
vt 0.867297 0.628362 0.000000
vt 0.895189 0.628362 0.000000
vt 0.900488 0.550664 0.000000
vt 0.867742 0.550664 0.000000
vt 0.867742 0.511641 0.000000
vt 0.900488 0.511641 0.000000
vt 0.827804 0.667386 0.000000
vt 0.795057 0.667386 0.000000
vt 0.795057 0.628362 0.000000
vt 0.827804 0.628362 0.000000
vt 0.978081 0.520869 0.000000
vt 0.983194 0.520869 0.000000
vt 0.983194 0.559892 0.000000
vt 0.978081 0.559892 0.000000
vt 0.828996 0.261887 0.000000
vt 0.828996 0.328699 0.000000
vt 0.789973 0.328699 0.000000
vt 0.789973 0.261887 0.000000
vt 0.065730 0.919761 0.000000
vt 0.069880 0.919761 0.000000
vt 0.069880 0.958784 0.000000
vt 0.065730 0.958784 0.000000
vt 0.993333 0.615911 0.000000
vt 0.997833 0.615911 0.000000
vt 0.997833 0.654934 0.000000
vt 0.993333 0.654934 0.000000
vt 0.911989 0.192385 0.000000
vt 0.969537 0.192385 0.000000
vt 0.969537 0.231408 0.000000
vt 0.911989 0.231408 0.000000
vt 0.911989 0.075664 0.000000
vt 0.973030 0.075664 0.000000
vt 0.973030 0.114687 0.000000
vt 0.911989 0.114687 0.000000
vt 0.441712 0.818445 0.000000
vt 0.441712 0.658634 0.000000
vt 0.480735 0.658634 0.000000
vt 0.480735 0.818445 0.000000
vt 0.939454 0.624583 0.000000
vt 0.906905 0.624583 0.000000
vt 0.906905 0.585559 0.000000
vt 0.939454 0.585559 0.000000
vt 0.001953 0.270445 0.000000
vt 0.054008 0.270445 0.000000
vt 0.054008 0.309468 0.000000
vt 0.001953 0.309468 0.000000
vt 0.921919 0.741304 0.000000
vt 0.901821 0.741304 0.000000
vt 0.901821 0.702281 0.000000
vt 0.921919 0.702281 0.000000
vt 0.952661 0.864136 0.000000
vt 0.967416 0.864136 0.000000
vt 0.967416 0.903159 0.000000
vt 0.952661 0.903159 0.000000
vt 0.957745 0.542549 0.000000
vt 0.972500 0.542549 0.000000
vt 0.972500 0.581572 0.000000
vt 0.957745 0.581572 0.000000
vt 0.927241 0.864136 0.000000
vt 0.947339 0.864136 0.000000
vt 0.947339 0.903159 0.000000
vt 0.927241 0.903159 0.000000
vt 0.001953 0.387166 0.000000
vt 0.044168 0.387166 0.000000
vt 0.044168 0.426190 0.000000
vt 0.001953 0.426190 0.000000
vt 0.949622 0.507861 0.000000
vt 0.917073 0.507861 0.000000
vt 0.917073 0.468838 0.000000
vt 0.949622 0.468838 0.000000
vt 0.001953 0.919761 0.000000
vt 0.027058 0.919761 0.000000
vt 0.027058 0.958784 0.000000
vt 0.001953 0.958784 0.000000
vt 0.828996 0.367370 0.000000
vt 0.828996 0.387313 0.000000
vt 0.789973 0.387313 0.000000
vt 0.789973 0.367370 0.000000
vt 0.993333 0.805994 0.000000
vt 0.997833 0.805994 0.000000
vt 0.997833 0.845018 0.000000
vt 0.993333 0.845018 0.000000
vt 0.868767 0.507654 0.000000
vt 0.868767 0.504480 0.000000
vt 0.907791 0.504480 0.000000
vt 0.907791 0.507654 0.000000
vt 0.197680 0.819194 0.000000
vt 0.197680 0.807873 0.000000
vt 0.236703 0.807873 0.000000
vt 0.236703 0.819194 0.000000
vt 0.967913 0.404148 0.000000
vt 0.972627 0.404148 0.000000
vt 0.972627 0.443171 0.000000
vt 0.967913 0.443171 0.000000
vt 0.795057 0.818794 0.000000
vt 0.844651 0.818794 0.000000
vt 0.844651 0.857817 0.000000
vt 0.795057 0.857817 0.000000
vt 0.197680 0.768680 0.000000
vt 0.197680 0.714872 0.000000
vt 0.236703 0.714872 0.000000
vt 0.236703 0.768680 0.000000
vt 0.988249 0.710953 0.000000
vt 0.992963 0.710953 0.000000
vt 0.992963 0.749976 0.000000
vt 0.988249 0.749976 0.000000
vt 0.978081 0.710953 0.000000
vt 0.982795 0.710953 0.000000
vt 0.982795 0.749976 0.000000
vt 0.978081 0.749976 0.000000
vt 0.883844 0.818794 0.000000
vt 0.887676 0.818794 0.000000
vt 0.887676 0.857817 0.000000
vt 0.883844 0.857817 0.000000
vt 0.746751 0.646577 0.000000
vt 0.746751 0.451917 0.000000
vt 0.785775 0.451917 0.000000
vt 0.785775 0.646577 0.000000
vt 0.624735 0.849939 0.000000
vt 0.624735 0.655279 0.000000
vt 0.663759 0.655279 0.000000
vt 0.663759 0.849939 0.000000
vt 0.624735 0.651291 0.000000
vt 0.624735 0.451917 0.000000
vt 0.663759 0.451917 0.000000
vt 0.663759 0.651291 0.000000
vt 0.319696 0.710884 0.000000
vt 0.319696 0.516224 0.000000
vt 0.358719 0.516224 0.000000
vt 0.358719 0.710884 0.000000
vt 0.972997 0.812105 0.000000
vt 0.983621 0.812105 0.000000
vt 0.641669 0.944981 0.000000
vt 0.622201 0.944981 0.000000
vt 0.954752 0.326450 0.000000
vt 0.911989 0.326450 0.000000
vt 0.973453 0.326450 0.000000
vt 0.962829 0.326450 0.000000
vt 0.225825 0.954616 0.000000
vt 0.210397 0.954616 0.000000
vt 0.368001 0.537903 0.000000
vt 0.392684 0.537903 0.000000
vt 0.896737 0.840682 0.000000
vt 0.916204 0.840682 0.000000
vt 0.357090 0.805926 0.000000
vt 0.245985 0.805926 0.000000
vt 0.545941 0.875606 0.000000
vt 0.613387 0.875606 0.000000
vt 0.998047 0.559892 0.000000
vt 0.993333 0.559892 0.000000
vt 0.145649 0.859574 0.000000
vt 0.145649 0.857345 0.000000
vt 0.816736 0.466329 0.000000
vt 0.816736 0.391300 0.000000
vt 0.811652 0.036612 0.000000
vt 0.811652 0.001953 0.000000
vt 0.988518 0.326450 0.000000
vt 0.983165 0.326450 0.000000
vt 0.023633 0.842063 0.000000
vt 0.023633 0.807404 0.000000
vt 0.988518 0.093007 0.000000
vt 0.983165 0.093007 0.000000
vt 0.811652 0.128486 0.000000
vt 0.811652 0.075762 0.000000
vt 0.023633 0.768254 0.000000
vt 0.023633 0.715530 0.000000
vt 0.952362 0.684005 0.000000
vt 0.952362 0.658537 0.000000
vt 0.294222 0.853273 0.000000
vt 0.328174 0.853273 0.000000
vt 0.520521 0.658634 0.000000
vt 0.530522 0.658634 0.000000
vt 0.545774 0.749689 0.000000
vt 0.535773 0.749689 0.000000
vt 0.245985 0.853273 0.000000
vt 0.250871 0.853273 0.000000
vt 0.952362 0.648967 0.000000
vt 0.952362 0.585559 0.000000
vt 0.103633 0.885241 0.000000
vt 0.123084 0.885241 0.000000
vt 0.464597 0.844112 0.000000
vt 0.540228 0.844112 0.000000
vt 0.694720 0.805875 0.000000
vt 0.694720 0.650565 0.000000
vt 0.006739 0.508129 0.000000
vt 0.006739 0.498946 0.000000
vt 0.811652 0.164072 0.000000
vt 0.811652 0.132473 0.000000
vt 0.647621 0.935961 0.000000
vt 0.664731 0.935961 0.000000
vt 0.664731 0.987992 0.000000
vt 0.647621 0.987992 0.000000
vt 0.939266 0.959178 0.000000
vt 0.922157 0.959178 0.000000
vt 0.922157 0.907147 0.000000
vt 0.939266 0.907147 0.000000
vt 0.811652 0.257899 0.000000
vt 0.811652 0.214245 0.000000
vt 0.006739 0.487870 0.000000
vt 0.006739 0.472519 0.000000
vt 0.023633 0.536949 0.000000
vt 0.023633 0.516224 0.000000
vt 0.947577 0.920155 0.000000
vt 0.964686 0.920155 0.000000
vt 0.964686 0.972186 0.000000
vt 0.947577 0.972186 0.000000
vt 0.023633 0.711542 0.000000
vt 0.023633 0.573817 0.000000
vt 0.006739 0.464380 0.000000
vt 0.006739 0.430177 0.000000
vt 0.647621 0.866935 0.000000
vt 0.664731 0.866935 0.000000
vt 0.664731 0.918966 0.000000
vt 0.647621 0.918966 0.000000
vt 0.952362 0.786438 0.000000
vt 0.952362 0.778396 0.000000
vt 0.450688 0.471236 0.000000
vt 0.450688 0.451917 0.000000
vt 0.032457 0.884725 0.000000
vt 0.049673 0.884725 0.000000
vt 0.176773 0.954616 0.000000
vt 0.159557 0.954616 0.000000
vt 0.450688 0.588903 0.000000
vt 0.450688 0.546925 0.000000
vt 0.486897 0.527254 0.000000
vt 0.469681 0.527254 0.000000
vt 0.469681 0.475223 0.000000
vt 0.486897 0.475223 0.000000
vt 0.952362 0.761688 0.000000
vt 0.952362 0.752421 0.000000
vt 0.852945 0.563672 0.000000
vt 0.835729 0.563672 0.000000
vt 0.835729 0.511641 0.000000
vt 0.852945 0.511641 0.000000
vt 0.450688 0.654647 0.000000
vt 0.450688 0.638866 0.000000
vt 0.952362 0.741392 0.000000
vt 0.952362 0.728217 0.000000
vt 0.415849 0.844112 0.000000
vt 0.455537 0.844112 0.000000
vt 0.444261 0.488231 0.000000
vt 0.461477 0.488231 0.000000
vt 0.461477 0.540262 0.000000
vt 0.444261 0.540262 0.000000
vt 0.868197 0.822782 0.000000
vt 0.850981 0.822782 0.000000
vt 0.850981 0.770751 0.000000
vt 0.868197 0.770751 0.000000
vt 0.362917 0.844112 0.000000
vt 0.366209 0.844112 0.000000
vt 0.952362 0.717260 0.000000
vt 0.952362 0.704019 0.000000
vt 0.694720 0.862238 0.000000
vt 0.694720 0.809863 0.000000
vt 0.835729 0.641370 0.000000
vt 0.852945 0.641370 0.000000
vt 0.852945 0.693401 0.000000
vt 0.835729 0.693401 0.000000
vt 0.512317 0.527254 0.000000
vt 0.495101 0.527254 0.000000
vt 0.495101 0.475223 0.000000
vt 0.512317 0.475223 0.000000
vt 0.694720 0.926217 0.000000
vt 0.694720 0.911722 0.000000
vt 0.952362 0.693095 0.000000
vt 0.952362 0.687993 0.000000
vt 0.133839 0.941514 0.000000
vt 0.133839 0.863562 0.000000
vt 0.145649 0.710884 0.000000
vt 0.145649 0.516224 0.000000
vt 0.857719 0.952859 0.000000
vt 0.795057 0.952859 0.000000
vt 0.988660 0.209729 0.000000
vt 0.978081 0.209729 0.000000
vt 0.978081 0.373797 0.000000
vt 0.988660 0.373797 0.000000
vt 0.184977 0.885241 0.000000
vt 0.200553 0.885241 0.000000
vt 0.514518 0.749689 0.000000
vt 0.490017 0.749689 0.000000
vt 0.078213 0.867730 0.000000
vt 0.097664 0.867730 0.000000
vt 0.917073 0.373796 0.000000
vt 0.959045 0.373796 0.000000
vt 0.828248 0.602695 0.000000
vt 0.795057 0.602695 0.000000
vt 0.983194 0.654934 0.000000
vt 0.978081 0.654934 0.000000
vt 0.895189 0.719417 0.000000
vt 0.867297 0.719417 0.000000
vt 0.900488 0.602695 0.000000
vt 0.867742 0.602695 0.000000
vt 0.827804 0.719417 0.000000
vt 0.795057 0.719417 0.000000
vt 0.978081 0.468838 0.000000
vt 0.983194 0.468838 0.000000
vt 0.881027 0.261887 0.000000
vt 0.881027 0.328699 0.000000
vt 0.065730 0.867730 0.000000
vt 0.069880 0.867730 0.000000
vt 0.993333 0.563880 0.000000
vt 0.997833 0.563880 0.000000
vt 0.911989 0.140354 0.000000
vt 0.969537 0.140354 0.000000
vt 0.911989 0.023633 0.000000
vt 0.973030 0.023633 0.000000
vt 0.389681 0.818445 0.000000
vt 0.389681 0.658634 0.000000
vt 0.939454 0.676614 0.000000
vt 0.906905 0.676614 0.000000
vt 0.001953 0.218414 0.000000
vt 0.054008 0.218414 0.000000
vt 0.921919 0.793335 0.000000
vt 0.901821 0.793335 0.000000
vt 0.952661 0.812105 0.000000
vt 0.967416 0.812105 0.000000
vt 0.957745 0.490518 0.000000
vt 0.972500 0.490518 0.000000
vt 0.927241 0.812105 0.000000
vt 0.947339 0.812105 0.000000
vt 0.001953 0.335135 0.000000
vt 0.044168 0.335135 0.000000
vt 0.949622 0.559892 0.000000
vt 0.917073 0.559892 0.000000
vt 0.001953 0.867730 0.000000
vt 0.027058 0.867730 0.000000
vt 0.881027 0.367370 0.000000
vt 0.881027 0.387313 0.000000
vt 0.993333 0.753963 0.000000
vt 0.997833 0.753963 0.000000
vt 0.816736 0.507654 0.000000
vt 0.816736 0.504480 0.000000
vt 0.145649 0.819194 0.000000
vt 0.145649 0.807873 0.000000
vt 0.967913 0.352117 0.000000
vt 0.972627 0.352117 0.000000
vt 0.795057 0.766763 0.000000
vt 0.844651 0.766763 0.000000
vt 0.145649 0.768680 0.000000
vt 0.145649 0.714872 0.000000
vt 0.988249 0.658922 0.000000
vt 0.992963 0.658922 0.000000
vt 0.978081 0.658922 0.000000
vt 0.982795 0.658922 0.000000
vt 0.883844 0.766763 0.000000
vt 0.887676 0.766763 0.000000
vt 0.694720 0.646577 0.000000
vt 0.694720 0.451917 0.000000
vt 0.572704 0.849939 0.000000
vt 0.572704 0.655279 0.000000
vt 0.572704 0.651291 0.000000
vt 0.572704 0.451917 0.000000
vt 0.267665 0.710884 0.000000
vt 0.267665 0.516224 0.000000
vt 0.647621 0.922953 0.000000
vt 0.664731 0.922953 0.000000
vt 0.939266 0.972186 0.000000
vt 0.922157 0.972186 0.000000
vt 0.947577 0.907147 0.000000
vt 0.964686 0.907147 0.000000
vt 0.647621 0.853927 0.000000
vt 0.664731 0.853927 0.000000
vt 0.032457 0.871717 0.000000
vt 0.049673 0.871717 0.000000
vt 0.176773 0.967624 0.000000
vt 0.159557 0.967624 0.000000
vt 0.486897 0.540262 0.000000
vt 0.469681 0.540262 0.000000
vt 0.852945 0.576680 0.000000
vt 0.835729 0.576680 0.000000
vt 0.444261 0.475223 0.000000
vt 0.461477 0.475223 0.000000
vt 0.868197 0.835789 0.000000
vt 0.850981 0.835789 0.000000
vt 0.835729 0.628362 0.000000
vt 0.852945 0.628362 0.000000
vt 0.512317 0.540262 0.000000
vt 0.495101 0.540262 0.000000
vt 0.298789 0.051437 0.000000
vt 0.281573 0.051437 0.000000
vt 0.281573 0.001953 0.000000
vt 0.298789 0.001953 0.000000
vt 0.324209 0.051437 0.000000
vt 0.306993 0.051437 0.000000
vt 0.306993 0.001953 0.000000
vt 0.324209 0.001953 0.000000
vt 0.273369 0.051592 0.000000
vt 0.256153 0.051592 0.000000
vt 0.256153 0.001953 0.000000
vt 0.273369 0.001953 0.000000
vt 0.247949 0.051592 0.000000
vt 0.230733 0.051592 0.000000
vt 0.230733 0.001953 0.000000
vt 0.247949 0.001953 0.000000
vt 0.171689 0.051916 0.000000
vt 0.154473 0.051916 0.000000
vt 0.154473 0.001953 0.000000
vt 0.171689 0.001953 0.000000
vt 0.146269 0.051916 0.000000
vt 0.129053 0.051916 0.000000
vt 0.129053 0.001953 0.000000
vt 0.146269 0.001953 0.000000
vt 0.049673 0.505866 0.000000
vt 0.032457 0.505866 0.000000
vt 0.032457 0.430177 0.000000
vt 0.049673 0.430177 0.000000
vt 0.374943 0.038821 0.000000
vt 0.357833 0.038821 0.000000
vt 0.357833 0.001953 0.000000
vt 0.374943 0.001953 0.000000
vt 0.349523 0.038821 0.000000
vt 0.332413 0.038821 0.000000
vt 0.332413 0.001953 0.000000
vt 0.349523 0.001953 0.000000
vt 0.197003 0.052127 0.000000
vt 0.179893 0.052127 0.000000
vt 0.179893 0.001953 0.000000
vt 0.197003 0.001953 0.000000
vt 0.222423 0.052127 0.000000
vt 0.205313 0.052127 0.000000
vt 0.205313 0.001953 0.000000
vt 0.222423 0.001953 0.000000
vt 0.393254 0.045304 0.000000
vt 0.383253 0.045304 0.000000
vt 0.383253 0.001953 0.000000
vt 0.393254 0.001953 0.000000
vt 0.810578 0.207209 0.000000
vt 0.805225 0.207209 0.000000
vt 0.805225 0.168059 0.000000
vt 0.810578 0.168059 0.000000
vt 0.825590 0.207553 0.000000
vt 0.820477 0.207553 0.000000
vt 0.820477 0.168059 0.000000
vt 0.825590 0.168059 0.000000
vt 0.525235 0.514417 0.000000
vt 0.520521 0.514417 0.000000
vt 0.520521 0.475223 0.000000
vt 0.525235 0.475223 0.000000
vt 0.535403 0.513374 0.000000
vt 0.530689 0.513374 0.000000
vt 0.530689 0.475223 0.000000
vt 0.535403 0.475223 0.000000
vt 0.448761 0.631562 0.000000
vt 0.444261 0.631562 0.000000
vt 0.444261 0.592890 0.000000
vt 0.448761 0.592890 0.000000
vt 0.782133 0.447929 0.000000
vt 0.429009 0.447929 0.000000
vt 0.429009 0.001953 0.000000
vt 0.782133 0.001953 0.000000
# 1045 texture coords

o e_22
g e_22
f 5/1 3/2 28/3 27/4 
f 39/5 6/6 8/7 38/8 
f 38/8 8/7 10/9 37/10 
f 37/10 10/9 14/11 36/12 
f 35/13 12/14 29/15 34/16 
f 36/12 14/11 12/14 35/13 
f 20/17 21/18 40/19 39/5 
f 20/17 19/20 26/21 27/4 
f 19/20 18/22 25/23 26/21 
f 18/22 17/24 24/25 25/23 
f 30/26 15/27 22/28 31/29 
f 17/24 16/30 23/31 24/25 
f 27/4 28/3 21/18 20/17 
f 27/4 26/21 7/32 5/1 
f 26/21 25/23 9/33 7/32 
f 25/23 24/25 13/34 9/33 
f 31/29 22/28 4/35 32/36 
f 24/25 23/31 11/37 13/34 
f 34/16 29/15 2/38 33/39 
f 30/26 31/29 23/31 16/30 
f 31/29 32/36 11/37 23/31 
f 39/5 38/8 19/20 20/17 
f 38/8 37/10 18/22 19/20 
f 37/10 36/12 17/24 18/22 
f 35/13 34/16 30/26 16/30 
f 36/12 35/13 16/30 17/24 
f 39/5 40/19 1/40 6/6 
f 34/16 33/39 15/27 30/26 
f 41/41 42/42 33/39 2/38 
f 44/43 43/44 2/38 29/15 
f 43/44 45/45 41/41 2/38 
f 491/46 48/47 46/48 454/49 
f 492/50 50/51 48/52 491/53 
f 65/54 51/55 455/56 462/57 
f 493/58 52/59 50/60 492/61 
f 455/62 51/63 53/64 494/65 
f 494/66 53/67 49/68 456/69 
f 454/70 46/71 52/72 493/73 
f 456/74 49/75 54/76 457/77 
f 457/78 54/79 59/80 459/81 
f 496/82 58/83 56/84 495/85 
f 460/86 57/87 55/88 458/89 
f 497/90 60/91 58/92 496/93 
f 459/94 59/95 61/96 498/97 
f 500/98 64/99 62/100 499/101 
f 461/102 63/103 65/104 462/105 
f 47/106 67/107 502/108 490/109 
f 501/110 66/111 64/112 500/113 
f 504/114 70/115 68/116 503/117 
f 463/118 69/119 74/120 508/121 
f 505/122 72/123 71/124 464/125 
f 506/126 123/127 73/128 465/129 
f 507/130 75/131 122/132 466/133 
f 508/134 74/135 76/136 510/137 
f 509/138 77/139 75/140 507/141 
f 512/142 80/143 79/144 511/145 
f 467/146 78/147 82/148 514/149 
f 513/150 83/151 81/152 468/153 
f 515/154 87/155 85/156 469/157 
f 516/158 84/159 86/160 517/161 
f 517/162 86/163 88/164 519/165 
f 518/166 89/167 87/168 515/169 
f 521/170 93/171 91/172 520/173 
f 470/174 90/175 92/176 522/177 
f 524/178 96/179 95/180 523/181 
f 471/182 94/183 98/184 526/185 
f 525/186 99/187 97/188 472/189 
f 528/190 146/191 101/192 527/193 
f 473/194 100/195 102/196 530/197 
f 529/198 103/199 145/200 474/201 
f 532/202 106/203 105/204 531/205 
f 475/206 104/207 107/208 533/209 
f 533/210 107/211 47/212 490/213 
f 458/214 55/215 106/216 532/217 
f 112/218 70/219 504/220 479/221 
f 464/222 71/223 110/224 476/225 
f 534/226 111/227 72/228 505/229 
f 465/230 73/231 109/232 535/233 
f 535/234 109/235 108/236 477/237 
f 476/238 110/239 111/240 534/241 
f 477/242 108/243 113/244 478/245 
f 114/246 112/247 479/248 536/249 
f 478/250 113/251 115/252 537/253 
f 538/254 118/255 116/256 480/257 
f 539/258 117/259 119/260 481/261 
f 122/262 120/263 541/264 466/265 
f 540/266 121/267 118/268 538/269 
f 481/270 119/271 123/272 506/273 
f 542/274 124/275 80/276 512/277 
f 468/278 81/279 128/280 547/281 
f 543/282 126/283 125/284 482/285 
f 544/286 133/287 127/288 483/289 
f 129/290 124/291 542/292 485/293 
f 482/294 125/295 131/296 484/297 
f 545/298 132/299 126/300 543/301 
f 483/302 127/303 130/304 546/305 
f 546/306 130/307 129/308 485/309 
f 484/310 131/311 132/312 545/313 
f 547/314 128/315 134/316 549/317 
f 548/318 135/319 133/320 544/321 
f 550/322 143/323 137/324 486/325 
f 551/326 136/327 138/328 554/329 
f 552/330 147/331 141/332 487/333 
f 553/334 140/335 142/336 555/337 
f 488/338 139/339 144/340 489/341 
f 474/342 145/343 143/344 550/345 
f 489/346 144/347 146/348 528/349 
f 142/350 96/351 524/352 555/353 
f 472/354 97/355 147/356 552/357 
f 252/358 251/359 148/360 150/361 
f 253/362 252/363 150/364 152/365 
f 269/366 254/367 153/368 167/369 
f 255/370 253/371 152/372 154/373 
f 254/374 256/375 155/376 153/377 
f 256/378 257/379 151/380 155/381 
f 251/382 255/383 154/384 148/385 
f 257/386 258/387 156/388 151/389 
f 258/390 260/391 161/392 156/393 
f 262/394 261/395 159/396 158/397 
f 263/398 262/399 158/400 160/401 
f 261/402 259/403 157/404 159/405 
f 264/406 263/407 160/408 162/409 
f 265/410 264/411 162/412 163/413 
f 260/414 265/415 163/416 161/417 
f 267/418 266/419 165/420 164/421 
f 268/422 267/423 164/424 166/425 
f 266/426 269/427 167/428 165/429 
f 250/430 271/431 169/432 149/433 
f 270/434 268/435 166/436 168/437 
f 271/438 270/439 168/440 169/441 
f 273/442 272/443 171/444 170/445 
f 274/446 273/447 170/448 172/449 
f 272/450 281/451 176/452 171/453 
f 276/454 275/455 173/456 174/457 
f 278/458 277/459 175/460 225/461 
f 280/462 279/463 224/464 177/465 
f 281/466 283/467 178/468 176/469 
f 282/470 280/471 177/472 179/473 
f 286/474 285/475 181/476 182/477 
f 284/478 289/479 184/480 180/481 
f 288/482 287/483 183/484 185/485 
f 291/486 290/487 187/488 189/489 
f 292/490 293/491 188/492 186/493 
f 293/494 295/495 190/496 188/497 
f 294/498 291/499 189/500 191/501 
f 295/502 294/503 191/504 190/505 
f 297/506 296/507 192/508 193/509 
f 298/510 297/511 193/512 195/513 
f 296/514 299/515 194/516 192/517 
f 302/518 301/519 197/520 198/521 
f 300/522 305/523 200/524 196/525 
f 304/526 303/527 199/528 201/529 
f 308/530 307/531 203/532 248/533 
f 306/534 311/535 204/536 202/537 
f 310/538 309/539 247/540 205/541 
f 314/542 313/543 207/544 208/545 
f 312/546 315/547 209/548 206/549 
f 315/550 250/551 149/552 209/553 
f 259/554 314/555 208/556 157/557 
f 321/558 274/559 172/560 214/561 
f 275/562 316/563 212/564 173/565 
f 317/566 276/567 174/568 213/569 
f 277/570 318/571 211/572 175/573 
f 318/574 319/575 210/576 211/577 
f 316/578 317/579 213/580 212/581 
f 319/582 320/583 215/584 210/585 
f 322/586 321/587 214/588 216/589 
f 323/590 322/591 216/592 217/593 
f 320/594 323/595 217/596 215/597 
f 325/598 324/599 218/600 220/601 
f 327/602 326/603 221/604 219/605 
f 324/606 327/607 219/608 218/609 
f 279/610 329/611 222/612 224/613 
f 328/614 325/615 220/616 223/617 
f 329/618 328/619 223/620 222/621 
f 326/622 278/623 225/624 221/625 
f 330/626 286/627 182/628 226/629 
f 287/630 339/631 230/632 183/633 
f 332/634 331/635 227/636 228/637 
f 334/638 333/639 229/640 235/641 
f 337/642 330/643 226/644 231/645 
f 331/646 335/647 233/648 227/649 
f 336/650 332/651 228/652 234/653 
f 333/654 338/655 232/656 229/657 
f 338/658 337/659 231/660 232/661 
f 335/662 336/663 234/664 233/665 
f 339/666 341/667 236/668 230/669 
f 340/670 334/671 235/672 237/673 
f 341/674 340/675 237/676 236/677 
f 343/678 342/679 239/680 245/681 
f 344/682 349/683 240/684 238/685 
f 342/686 344/687 238/688 239/689 
f 346/690 345/691 243/692 249/693 
f 347/694 351/695 244/696 242/697 
f 345/698 347/699 242/700 243/701 
f 349/702 348/703 241/704 240/705 
f 348/706 350/707 246/708 241/709 
f 309/710 343/711 245/712 247/713 
f 350/714 308/715 248/716 246/717 
f 351/718 302/719 198/720 244/721 
f 303/722 346/723 249/724 199/725 
f 389/726 352/727 251/359 252/358 
f 390/728 389/729 252/363 253/362 
f 360/730 353/731 254/367 269/366 
f 391/732 390/733 253/371 255/370 
f 353/734 392/735 256/375 254/374 
f 392/736 354/737 257/379 256/378 
f 352/738 391/739 255/383 251/382 
f 354/740 355/741 258/387 257/386 
f 355/742 357/743 260/391 258/390 
f 393/744 358/745 261/395 262/394 
f 394/746 393/747 262/399 263/398 
f 358/748 356/749 259/403 261/402 
f 395/750 394/751 263/407 264/406 
f 396/752 395/753 264/411 265/410 
f 357/754 396/755 265/415 260/414 
f 397/756 359/757 266/419 267/418 
f 398/758 397/759 267/423 268/422 
f 359/760 360/761 269/427 266/426 
f 388/762 400/763 271/431 250/430 
f 399/764 398/765 268/435 270/434 
f 400/766 399/767 270/439 271/438 
f 401/768 361/769 272/443 273/442 
f 402/770 401/771 273/447 274/446 
f 361/772 406/773 281/451 272/450 
f 403/774 362/775 275/455 276/454 
f 404/776 363/777 277/459 278/458 
f 405/778 364/779 279/463 280/462 
f 406/780 408/781 283/467 281/466 
f 407/782 405/783 280/471 282/470 
f 408/784 407/785 282/786 283/787 
f 409/788 365/789 284/790 285/791 
f 410/792 409/793 285/475 286/474 
f 365/794 412/795 289/479 284/478 
f 411/796 366/797 287/483 288/482 
f 412/798 411/799 288/800 289/801 
f 413/802 367/803 290/487 291/486 
f 414/804 415/805 293/491 292/490 
f 367/806 414/807 292/808 290/809 
f 415/810 417/811 295/495 293/494 
f 416/812 413/813 291/499 294/498 
f 417/814 416/815 294/503 295/502 
f 418/816 368/817 296/507 297/506 
f 419/818 418/819 297/511 298/510 
f 420/820 419/821 298/822 299/823 
f 368/824 420/825 299/515 296/514 
f 421/826 369/827 300/828 301/829 
f 422/830 421/831 301/519 302/518 
f 369/832 424/833 305/523 300/522 
f 423/834 370/835 303/527 304/526 
f 424/836 423/837 304/838 305/839 
f 425/840 371/841 306/842 307/843 
f 426/844 425/845 307/531 308/530 
f 371/846 428/847 311/535 306/534 
f 427/848 372/849 309/539 310/538 
f 428/850 427/851 310/852 311/853 
f 429/854 373/855 312/856 313/857 
f 430/858 429/859 313/543 314/542 
f 373/860 431/861 315/547 312/546 
f 431/862 388/863 250/551 315/550 
f 356/864 430/865 314/555 259/554 
f 377/866 402/867 274/559 321/558 
f 362/868 374/869 316/563 275/562 
f 432/870 403/871 276/567 317/566 
f 363/872 433/873 318/571 277/570 
f 433/874 375/875 319/575 318/574 
f 374/876 432/877 317/579 316/578 
f 375/878 376/879 320/583 319/582 
f 434/880 377/881 321/587 322/586 
f 435/882 434/883 322/591 323/590 
f 376/884 435/885 323/595 320/594 
f 436/886 378/887 324/599 325/598 
f 437/888 379/889 326/603 327/602 
f 378/890 437/891 327/607 324/606 
f 364/892 439/893 329/611 279/610 
f 438/894 436/895 325/615 328/614 
f 439/896 438/897 328/619 329/618 
f 379/898 404/899 278/623 326/622 
f 440/900 410/901 286/627 330/626 
f 366/902 445/903 339/631 287/630 
f 441/904 380/905 331/635 332/634 
f 442/906 381/907 333/639 334/638 
f 383/908 440/909 330/643 337/642 
f 380/910 382/911 335/647 331/646 
f 443/912 441/913 332/651 336/650 
f 381/914 444/915 338/655 333/654 
f 444/916 383/917 337/659 338/658 
f 382/918 443/919 336/663 335/662 
f 445/920 447/921 341/667 339/666 
f 446/922 442/923 334/671 340/670 
f 447/924 446/925 340/675 341/674 
f 448/926 384/927 342/679 343/678 
f 449/928 452/929 349/683 344/682 
f 384/930 449/931 344/687 342/686 
f 450/932 385/933 345/691 346/690 
f 451/934 453/935 351/695 347/694 
f 385/936 451/937 347/699 345/698 
f 452/938 386/939 348/703 349/702 
f 386/940 387/941 350/707 348/706 
f 372/942 448/943 343/711 309/710 
f 387/944 426/945 308/715 350/714 
f 453/946 422/947 302/719 351/718 
f 370/948 450/949 346/723 303/722 
f 491/46 454/49 352/727 389/726 
f 492/50 491/53 389/729 390/728 
f 462/57 455/56 353/731 360/730 
f 493/58 492/61 390/733 391/732 
f 455/62 494/65 392/735 353/734 
f 494/66 456/69 354/737 392/736 
f 454/70 493/73 391/739 352/738 
f 456/74 457/77 355/741 354/740 
f 457/78 459/81 357/743 355/742 
f 496/82 495/85 393/747 394/746 
f 460/86 458/89 356/749 358/748 
f 497/90 496/93 394/751 395/750 
f 459/94 498/97 396/755 357/754 
f 500/98 499/101 397/759 398/758 
f 461/102 462/105 360/761 359/760 
f 490/109 502/108 400/763 388/762 
f 501/110 500/113 398/765 399/764 
f 504/114 503/117 401/771 402/770 
f 463/118 508/121 406/773 361/772 
f 505/122 464/125 362/775 403/774 
f 506/126 465/129 363/777 404/776 
f 507/130 466/133 364/779 405/778 
f 508/134 510/137 408/781 406/780 
f 509/138 507/141 405/783 407/782 
f 510/950 509/951 407/785 408/784 
f 511/952 467/953 365/789 409/788 
f 512/142 511/145 409/793 410/792 
f 467/146 514/149 412/795 365/794 
f 513/150 468/153 366/797 411/796 
f 514/954 513/955 411/799 412/798 
f 515/154 469/157 367/803 413/802 
f 516/158 517/161 415/805 414/804 
f 469/956 516/957 414/807 367/806 
f 517/162 519/165 417/811 415/810 
f 518/166 515/169 413/813 416/812 
f 519/958 518/959 416/815 417/814 
f 520/960 470/961 368/817 418/816 
f 521/170 520/173 418/819 419/818 
f 522/962 521/963 419/821 420/820 
f 470/174 522/177 420/825 368/824 
f 523/964 471/965 369/827 421/826 
f 524/178 523/181 421/831 422/830 
f 471/182 526/185 424/833 369/832 
f 525/186 472/189 370/835 423/834 
f 526/966 525/967 423/837 424/836 
f 527/968 473/969 371/841 425/840 
f 528/190 527/193 425/845 426/844 
f 473/194 530/197 428/847 371/846 
f 529/198 474/201 372/849 427/848 
f 530/970 529/971 427/851 428/850 
f 531/972 475/973 373/855 429/854 
f 532/202 531/205 429/859 430/858 
f 475/206 533/209 431/861 373/860 
f 533/210 490/213 388/863 431/862 
f 458/214 532/217 430/865 356/864 
f 479/221 504/220 402/867 377/866 
f 464/222 476/225 374/869 362/868 
f 534/226 505/229 403/871 432/870 
f 465/230 535/233 433/873 363/872 
f 535/234 477/237 375/875 433/874 
f 476/238 534/241 432/877 374/876 
f 477/242 478/245 376/879 375/878 
f 536/249 479/248 377/881 434/880 
f 478/250 537/253 435/885 376/884 
f 538/254 480/257 378/887 436/886 
f 539/258 481/261 379/889 437/888 
f 466/265 541/264 439/893 364/892 
f 540/266 538/269 436/895 438/894 
f 481/270 506/273 404/899 379/898 
f 542/274 512/277 410/901 440/900 
f 468/278 547/281 445/903 366/902 
f 543/282 482/285 380/905 441/904 
f 544/286 483/289 381/907 442/906 
f 485/293 542/292 440/909 383/908 
f 482/294 484/297 382/911 380/910 
f 545/298 543/301 441/913 443/912 
f 483/302 546/305 444/915 381/914 
f 546/306 485/309 383/917 444/916 
f 484/310 545/313 443/919 382/918 
f 547/314 549/317 447/921 445/920 
f 548/318 544/321 442/923 446/922 
f 550/322 486/325 384/927 448/926 
f 551/326 554/329 452/929 449/928 
f 552/330 487/333 385/933 450/932 
f 553/334 555/337 453/935 451/934 
f 488/338 489/341 387/941 386/940 
f 474/342 550/345 448/943 372/942 
f 489/346 528/349 426/945 387/944 
f 555/353 524/352 422/947 453/946 
f 472/354 552/357 450/949 370/948 
f 531/205 105/204 103/199 529/198 
f 475/974 531/975 529/976 530/977 
f 104/207 475/206 530/197 102/196 
f 312/546 206/549 204/536 311/535 
f 313/978 312/979 311/980 310/981 
f 207/544 313/543 310/538 205/541 
f 527/193 101/192 99/187 525/186 
f 473/982 527/983 525/984 526/985 
f 100/195 473/194 526/185 98/184 
f 306/534 202/537 200/524 305/523 
f 307/986 306/987 305/988 304/989 
f 203/532 307/531 304/526 201/529 
f 523/181 95/180 93/171 521/170 
f 471/990 523/991 521/992 522/993 
f 94/183 471/182 522/177 92/176 
f 300/522 196/525 194/516 299/515 
f 301/994 300/995 299/996 298/997 
f 197/520 301/519 298/510 195/513 
f 520/173 91/172 89/167 518/166 
f 470/998 520/999 518/1000 519/1001 
f 90/175 470/174 519/165 88/164 
f 469/157 85/156 83/151 513/150 
f 516/1002 469/1003 513/1004 514/1005 
f 84/159 516/158 514/149 82/148 
f 292/490 186/493 184/480 289/479 
f 290/1006 292/1007 289/1008 288/1009 
f 187/488 290/487 288/482 185/485 
f 511/145 79/144 77/139 509/138 
f 467/1010 511/1011 509/1012 510/1013 
f 78/147 467/146 510/137 76/136 
f 284/478 180/481 178/468 283/467 
f 285/1014 284/1015 283/1016 282/1017 
f 181/476 285/475 282/470 179/473 
f 361/1018 401/1019 399/1020 400/1021 
f 463/118 361/772 400/763 502/108 
f 69/119 463/118 502/108 67/107 
f 503/117 68/116 66/111 501/110 
f 401/771 503/117 501/110 399/764 
f 359/1022 397/1023 395/1024 396/1025 
f 461/102 359/760 396/755 498/97 
f 63/103 461/102 498/97 61/96 
f 499/101 62/100 60/91 497/90 
f 397/759 499/101 497/90 395/750 
f 437/1026 378/1027 434/1028 435/1029 
f 539/258 437/888 435/885 537/253 
f 117/259 539/258 537/253 115/252 
f 480/257 116/256 114/246 536/249 
f 378/887 480/257 536/249 434/880 
f 386/1030 452/1031 451/1032 385/1033 
f 488/338 386/940 385/933 487/333 
f 139/339 488/338 487/333 141/332 
f 554/329 138/328 140/335 553/334 
f 452/929 554/329 553/334 451/934 
f 449/1034 384/1035 358/1036 393/1037 
f 551/326 449/928 393/747 495/85 
f 136/327 551/326 495/85 56/84 
f 486/325 137/324 57/87 460/86 
f 384/927 486/325 460/86 358/748 
f 446/1038 447/1039 438/1040 439/1041 
f 548/318 446/922 439/893 541/264 
f 135/319 548/318 541/264 120/263 
f 549/317 134/316 121/267 540/266 
f 447/921 549/317 540/266 438/894 
f 559/1042 557/1043 556/1044 558/1045 
# 457 polygons

