# 3ds Max Wavefront OBJ Exporter v0.99 - (c)2007 guruware
# File Created: 09.02.2022 00:53:45

#
# object b22_040
#

v  -5.758669 2.600000 -1.314167
v  -1.926525 2.600000 -1.059192
v  -1.814652 2.600000 -1.059192
v  -1.176956 2.600000 -1.059192
v  -1.176956 2.600000 -1.314167
v  -0.176924 2.600000 -1.059192
v  -0.176924 2.600000 -1.314167
v  -0.099321 2.600000 -1.059192
v  -0.099321 2.600000 -1.314167
v  0.129932 2.600000 -2.484336
v  -0.099321 2.600000 -3.456147
v  0.461263 2.600000 -2.484336
v  0.461263 2.600000 -3.217742
v  2.132102 2.600000 -3.456147
v  2.386686 2.600000 -3.217742
v  2.386686 2.600000 -4.150832
v  2.132102 2.600000 -4.402817
v  3.888527 2.600000 -4.150832
v  4.149509 2.600000 -4.402817
v  4.149509 2.600000 -0.612104
v  0.129932 2.600000 -0.612104
v  3.888527 2.600000 -0.235718
v  -0.099321 2.600000 -0.357137
v  0.891077 2.600000 -0.612104
v  0.891077 2.600000 -0.357137
v  5.587301 2.600000 -0.612104
v  5.587301 2.600000 -0.235718
v  3.888527 2.600000 1.718970
v  4.257689 2.600000 1.718970
v  3.888527 2.600000 2.138014
v  4.257689 2.600000 2.138014
v  3.888527 2.600000 3.221817
v  4.257689 2.600000 3.221817
v  4.257689 2.600000 4.026210
v  5.758772 2.600000 4.026210
v  5.758772 2.600000 4.402772
v  3.888527 2.600000 4.137407
v  0.803842 2.600000 4.137407
v  0.372510 2.600000 4.137407
v  -5.382549 2.600000 4.137407
v  -5.758669 2.600000 4.402772
v  -5.382549 2.600000 3.491412
v  -5.758669 2.600000 3.491412
v  -5.382549 2.600000 1.979370
v  -5.758669 2.600000 1.979370
v  -5.382549 2.600000 0.906472
v  -5.758669 2.600000 0.906472
v  -5.382549 2.600000 -0.280934
v  -5.758669 2.600000 -0.280934
v  -5.382582 2.600000 -1.059192
v  -1.926525 2.600000 0.316369
v  -1.814652 2.600000 0.316369
v  -1.926525 2.600000 1.195960
v  -1.814652 2.600000 1.195960
v  -1.926525 2.600000 1.235997
v  -1.926525 2.600000 1.343592
v  -1.926525 2.600000 1.401460
v  -1.814652 2.600000 1.401460
v  -5.382549 2.600000 1.235997
v  -5.382549 2.600000 1.343592
v  -1.926525 2.600000 2.280848
v  -1.814652 2.600000 2.280848
v  -1.814652 2.600000 2.347727
v  -1.814652 2.600000 2.415606
v  -1.926492 2.600000 4.137407
v  -1.814619 2.600000 4.137407
v  -1.052715 2.600000 2.347727
v  -1.052715 2.600000 2.415606
v  -0.164163 2.600000 2.347727
v  -0.164163 2.600000 2.415606
v  -0.113141 2.600000 2.347727
v  -0.033491 2.600000 2.415606
v  -0.033491 2.600000 1.718970
v  -0.113141 2.600000 1.637538
v  0.696289 2.600000 1.718970
v  0.803809 2.600000 1.637538
v  0.696322 2.600000 3.282526
v  0.372510 2.600000 3.282526
v  -5.758669 0.000000 -1.314167
v  -1.926525 0.000000 -1.059192
v  -1.814652 0.000000 -1.059192
v  -1.176956 0.000000 -1.059192
v  -1.176956 0.000000 -1.314167
v  -0.176924 0.000000 -1.059192
v  -0.176924 0.000000 -1.314167
v  -0.099321 0.000000 -1.059192
v  -0.099321 0.000000 -1.314167
v  0.129932 0.000000 -2.484336
v  -0.099321 0.000000 -3.456147
v  0.461263 0.000000 -2.484336
v  0.461263 0.000000 -3.217742
v  2.132102 0.000000 -3.456147
v  2.386686 0.000000 -3.217742
v  2.386686 0.000000 -4.150832
v  2.132102 0.000000 -4.402817
v  3.888527 0.000000 -4.150832
v  4.149509 0.000000 -4.402817
v  4.149509 0.000000 -0.612104
v  0.129932 0.000000 -0.612104
v  3.888527 0.000000 -0.235718
v  -0.099321 0.000000 -0.357137
v  0.891077 0.000000 -0.612104
v  0.891077 0.000000 -0.357137
v  5.587301 0.000000 -0.612104
v  5.587301 0.000000 -0.235718
v  3.888527 0.000000 1.718970
v  4.257689 0.000000 1.718970
v  3.888527 0.000000 2.138014
v  4.257689 0.000000 2.138014
v  3.888527 0.000000 3.221817
v  4.257689 0.000000 3.221817
v  4.257689 0.000000 4.026210
v  5.758772 0.000000 4.026210
v  5.758772 0.000000 4.402772
v  3.888527 0.000000 4.137407
v  0.803842 0.000000 4.137407
v  0.372510 0.000000 4.137407
v  -5.382549 0.000000 4.137407
v  -5.758669 0.000000 4.402772
v  -5.382549 0.000000 3.491412
v  -5.758669 0.000000 3.491412
v  -5.382549 0.000000 1.979370
v  -5.758669 0.000000 1.979370
v  -5.382549 0.000000 0.906472
v  -5.758669 0.000000 0.906472
v  -5.382549 0.000000 -0.280934
v  -5.758669 0.000000 -0.280934
v  -5.382582 0.000000 -1.059192
v  -1.926525 0.000000 0.316369
v  -1.814652 0.000000 0.316369
v  -1.926525 0.000000 1.195960
v  -1.814652 0.000000 1.195960
v  -1.926525 0.000000 1.235997
v  -1.926525 0.000000 1.343592
v  -1.926525 0.000000 1.401460
v  -1.814652 0.000000 1.401460
v  -5.382549 0.000000 1.235997
v  -5.382549 0.000000 1.343592
v  -1.926525 0.000000 2.280848
v  -1.814652 0.000000 2.280848
v  -1.814652 0.000000 2.347727
v  -1.814652 0.000000 2.415606
v  -1.926492 0.000000 4.137407
v  -1.814619 0.000000 4.137407
v  -1.052715 0.000000 2.347727
v  -1.052715 0.000000 2.415606
v  -0.164163 0.000000 2.347727
v  -0.164163 0.000000 2.415606
v  -0.113141 0.000000 2.347727
v  -0.033491 0.000000 2.415606
v  -0.033491 0.000000 1.718970
v  -0.113141 0.000000 1.637538
v  0.696289 0.000000 1.718970
v  0.803809 0.000000 1.637538
v  0.696322 0.000000 3.282526
v  0.372510 0.000000 3.282526
v  -5.758669 0.900000 -1.314167
v  -5.382582 0.900000 -1.059192
v  -1.926525 0.900000 -1.059192
v  -1.814652 0.900000 -1.059192
v  -1.176956 0.900000 -1.059192
v  -1.176956 0.900000 -1.314167
v  -0.176924 0.900000 -1.314167
v  -0.176924 0.900000 -1.059192
v  -0.099321 0.900000 -1.059192
v  -0.099321 0.900000 -1.314167
v  0.129932 0.900000 -2.484336
v  -0.099321 0.900000 -3.456147
v  0.461263 0.900000 -2.484336
v  0.461263 0.900000 -3.217742
v  2.132102 0.900000 -3.456147
v  2.386686 0.900000 -3.217742
v  2.386686 0.900000 -4.150832
v  2.132102 0.900000 -4.402817
v  3.888527 0.900000 -4.150832
v  4.149509 0.900000 -4.402817
v  4.149509 0.900000 -0.612104
v  0.129932 0.900000 -0.612104
v  3.888527 0.900000 -0.235717
v  -0.099321 0.900000 -0.357137
v  0.891077 0.900000 -0.357137
v  0.891077 0.900000 -0.612104
v  5.587301 0.900000 -0.235717
v  5.587301 0.900000 -0.612104
v  4.257689 0.900000 1.718970
v  3.888527 0.900000 1.718970
v  3.888527 0.900000 2.138014
v  4.257689 0.900000 2.138014
v  4.257689 0.900000 3.221817
v  3.888527 0.900000 3.221817
v  4.257689 0.900000 4.026210
v  3.888527 0.900000 4.137407
v  5.758772 0.900000 4.026210
v  5.758772 0.900000 4.402772
v  0.803842 0.900000 4.137407
v  0.372510 0.900000 4.137407
v  -1.814619 0.900000 4.137407
v  -1.926492 0.900000 4.137407
v  -5.382549 0.900000 4.137407
v  -5.758669 0.900000 4.402772
v  -5.382549 0.900000 3.491412
v  -5.758669 0.900000 3.491412
v  -5.758669 0.900000 1.979370
v  -5.382549 0.900000 1.979370
v  -5.382549 0.900000 1.343592
v  -5.382549 0.900000 1.235997
v  -5.382549 0.900000 0.906472
v  -5.758669 0.900000 0.906472
v  -5.758669 0.900000 -0.280934
v  -5.382549 0.900000 -0.280934
v  -1.926525 0.900000 0.316369
v  -1.814652 0.900000 0.316369
v  -1.814652 0.900000 1.195960
v  -1.926525 0.900000 1.195960
v  -1.926525 0.900000 1.235997
v  -1.926525 0.900000 1.343592
v  -1.926525 0.900000 1.401460
v  -1.814652 0.900000 1.401460
v  -1.814652 0.900000 2.280848
v  -1.926525 0.900000 2.280848
v  -1.814652 0.900000 2.347727
v  -1.814652 0.900000 2.415606
v  -1.052715 0.900000 2.415606
v  -1.052715 0.900000 2.347727
v  -0.164163 0.900000 2.347727
v  -0.164163 0.900000 2.415606
v  -0.113141 0.900000 2.347727
v  -0.033491 0.900000 2.415606
v  -0.033491 0.900000 1.718970
v  -0.113141 0.900000 1.637538
v  0.696289 0.900000 1.718970
v  0.803809 0.900000 1.637538
v  0.696322 0.900000 3.282526
v  0.372510 0.900000 3.282526
v  -5.382582 2.100000 -1.059192
v  -1.814652 2.100000 -1.059192
v  -0.176924 2.100000 -1.314167
v  -0.099321 2.100000 -1.314167
v  2.132102 2.100000 -3.456147
v  4.149509 2.100000 -0.612104
v  0.129932 2.100000 -0.612104
v  4.257689 2.100000 1.718970
v  4.257689 2.100000 3.221817
v  4.257689 2.100000 4.026210
v  0.372510 2.100000 4.137407
v  -1.926492 2.100000 4.137407
v  -5.758669 2.100000 1.979370
v  -5.382549 2.100000 1.235997
v  -5.758669 2.100000 -0.280934
v  -1.814652 2.100000 1.195960
v  -1.926525 2.100000 1.343592
v  -1.814652 2.100000 2.280848
v  -1.814652 2.100000 2.347727
v  -0.164163 2.100000 2.347727
v  -0.113141 2.100000 2.347727
v  0.696322 2.100000 3.282526
v  -5.758669 2.100000 -1.314167
v  -1.926525 2.100000 -1.059192
v  -1.176956 2.100000 -1.059192
v  -1.176956 2.100000 -1.314167
v  -0.176924 2.100000 -1.059192
v  -0.099321 2.100000 -1.059192
v  0.129932 2.100000 -2.484336
v  -0.099321 2.100000 -3.456147
v  0.461263 2.100000 -2.484336
v  0.461263 2.100000 -3.217742
v  2.386686 2.100000 -3.217742
v  2.386686 2.100000 -4.150832
v  2.132102 2.100000 -4.402817
v  3.888527 2.100000 -4.150832
v  4.149509 2.100000 -4.402817
v  3.888527 2.100000 -0.235717
v  -0.099321 2.100000 -0.357137
v  0.891077 2.100000 -0.357137
v  0.891077 2.100000 -0.612104
v  5.587301 2.100000 -0.235717
v  5.587301 2.100000 -0.612104
v  3.888527 2.100000 1.718970
v  3.888527 2.100000 2.138014
v  4.257689 2.100000 2.138014
v  3.888527 2.100000 3.221817
v  3.888527 2.100000 4.137407
v  5.758772 2.100000 4.026210
v  5.758772 2.100000 4.402772
v  0.803842 2.100000 4.137407
v  -1.814619 2.100000 4.137407
v  -5.382549 2.100000 4.137407
v  -5.758669 2.100000 4.402772
v  -5.382549 2.100000 3.491412
v  -5.758669 2.100000 3.491412
v  -5.382549 2.100000 1.979370
v  -5.382549 2.100000 1.343592
v  -5.382549 2.100000 0.906472
v  -5.758669 2.100000 0.906472
v  -5.382549 2.100000 -0.280934
v  -1.926525 2.100000 0.316369
v  -1.814652 2.100000 0.316369
v  -1.926525 2.100000 1.195960
v  -1.926525 2.100000 1.235997
v  -1.926525 2.100000 1.401460
v  -1.814652 2.100000 1.401460
v  -1.926525 2.100000 2.280848
v  -1.814652 2.100000 2.415606
v  -1.052715 2.100000 2.415606
v  -1.052715 2.100000 2.347727
v  -0.164163 2.100000 2.415606
v  -0.033491 2.100000 2.415606
v  -0.033491 2.100000 1.718970
v  -0.113141 2.100000 1.637538
v  0.696289 2.100000 1.718970
v  0.803809 2.100000 1.637538
v  0.372510 2.100000 3.282526
v  -5.382582 2.400000 -1.059192
v  -1.814652 2.400000 -1.059192
v  -0.176924 2.400000 -1.314167
v  -0.099321 2.400000 -1.314167
v  2.132102 2.400000 -3.456147
v  4.149509 2.400000 -0.612104
v  0.129932 2.400000 -0.612104
v  4.257689 2.400000 1.718970
v  4.257689 2.400000 3.221817
v  4.257689 2.400000 4.026210
v  0.372510 2.400000 4.137407
v  -1.926492 2.400000 4.137407
v  -5.758669 2.400000 1.979370
v  -5.382549 2.400000 1.235997
v  -5.758669 2.400000 -0.280934
v  -1.814652 2.400000 1.195960
v  -1.926525 2.400000 1.343592
v  -1.814652 2.400000 2.280848
v  -1.814652 2.400000 2.347727
v  -0.164163 2.400000 2.347727
v  -0.113141 2.400000 2.347727
v  0.696322 2.400000 3.282526
v  -5.758669 2.400000 -1.314167
v  -1.926525 2.400000 -1.059192
v  -1.176956 2.400000 -1.059192
v  -1.176956 2.400000 -1.314167
v  -0.176924 2.400000 -1.059192
v  -0.099321 2.400000 -1.059192
v  0.129932 2.400000 -2.484336
v  -0.099321 2.400000 -3.456147
v  0.461263 2.400000 -2.484336
v  0.461263 2.400000 -3.217742
v  2.386686 2.400000 -3.217742
v  2.386686 2.400000 -4.150832
v  2.132102 2.400000 -4.402817
v  3.888527 2.400000 -4.150832
v  4.149509 2.400000 -4.402817
v  3.888527 2.400000 -0.235717
v  -0.099321 2.400000 -0.357137
v  0.891077 2.400000 -0.357137
v  0.891077 2.400000 -0.612104
v  5.587301 2.400000 -0.235717
v  5.587301 2.400000 -0.612104
v  3.888527 2.400000 1.718970
v  3.888527 2.400000 2.138014
v  4.257689 2.400000 2.138014
v  3.888527 2.400000 3.221817
v  3.888527 2.400000 4.137407
v  5.758772 2.400000 4.026210
v  5.758772 2.400000 4.402772
v  0.803842 2.400000 4.137407
v  -1.814619 2.400000 4.137407
v  -5.382549 2.400000 4.137407
v  -5.758669 2.400000 4.402772
v  -5.382549 2.400000 3.491412
v  -5.758669 2.400000 3.491412
v  -5.382549 2.400000 1.979370
v  -5.382549 2.400000 1.343592
v  -5.382549 2.400000 0.906472
v  -5.758669 2.400000 0.906472
v  -5.382549 2.400000 -0.280934
v  -1.926525 2.400000 0.316369
v  -1.814652 2.400000 0.316369
v  -1.926525 2.400000 1.195960
v  -1.926525 2.400000 1.235997
v  -1.926525 2.400000 1.401460
v  -1.814652 2.400000 1.401460
v  -1.926525 2.400000 2.280848
v  -1.814652 2.400000 2.415606
v  -1.052715 2.400000 2.415606
v  -1.052715 2.400000 2.347727
v  -0.164163 2.400000 2.415606
v  -0.033491 2.400000 2.415606
v  -0.033491 2.400000 1.718970
v  -0.113141 2.400000 1.637538
v  0.696289 2.400000 1.718970
v  0.803809 2.400000 1.637538
v  0.372510 2.400000 3.282526
v  4.257656 0.000000 -0.235718
v  4.257656 0.900000 -0.235717
v  4.257656 2.100000 -0.235717
v  4.257656 2.400000 -0.235717
v  4.257656 2.600000 -0.235718
# 395 vertices

vt 0.495390 0.043777 0.000000
vt 0.493564 0.043777 0.000000
vt 0.493564 0.001953 0.000000
vt 0.495390 0.001953 0.000000
vt 0.443178 0.001953 0.000000
vt 0.443178 0.011385 0.000000
vt 0.441353 0.011385 0.000000
vt 0.441353 0.001953 0.000000
vt 0.130203 0.665126 0.000000
vt 0.120337 0.665126 0.000000
vt 0.120337 0.494650 0.000000
vt 0.130203 0.494650 0.000000
vt 0.880752 0.130203 0.000000
vt 0.880752 0.120337 0.000000
vt 0.912207 0.120337 0.000000
vt 0.912207 0.130203 0.000000
vt 0.961536 0.130203 0.000000
vt 0.961536 0.120337 0.000000
vt 0.965364 0.120337 0.000000
vt 0.965364 0.130203 0.000000
vt 0.495390 0.053614 0.000000
vt 0.493564 0.053614 0.000000
vt 0.493564 0.052906 0.000000
vt 0.495390 0.052906 0.000000
vt 0.927648 0.731557 0.000000
vt 0.835297 0.731557 0.000000
vt 0.835297 0.721692 0.000000
vt 0.927648 0.721692 0.000000
vt 0.460906 0.254305 0.000000
vt 0.460906 0.256131 0.000000
vt 0.441353 0.256131 0.000000
vt 0.441353 0.254305 0.000000
vt 0.532263 0.507237 0.000000
vt 0.532263 0.505411 0.000000
vt 0.552632 0.505411 0.000000
vt 0.552632 0.507237 0.000000
vt 0.532263 0.998047 0.000000
vt 0.532263 0.988182 0.000000
vt 0.548606 0.988182 0.000000
vt 0.548606 0.998047 0.000000
vt 0.825196 0.982152 0.000000
vt 0.825196 0.972287 0.000000
vt 0.861372 0.972287 0.000000
vt 0.861372 0.982152 0.000000
vt 0.001953 0.929243 0.000000
vt 0.096928 0.929243 0.000000
vt 0.096928 0.939108 0.000000
vt 0.001953 0.939108 0.000000
vt 0.719134 0.972287 0.000000
vt 0.765160 0.972287 0.000000
vt 0.765160 0.982152 0.000000
vt 0.719134 0.982152 0.000000
vt 0.586360 0.286422 0.000000
vt 0.586360 0.288248 0.000000
vt 0.577718 0.288248 0.000000
vt 0.577718 0.286422 0.000000
vt 0.562566 0.507237 0.000000
vt 0.562566 0.505411 0.000000
vt 0.580982 0.505411 0.000000
vt 0.580982 0.507237 0.000000
vt 0.880752 0.526835 0.000000
vt 0.880752 0.516970 0.000000
vt 0.954833 0.516970 0.000000
vt 0.954833 0.526835 0.000000
vt 0.146901 0.236017 0.000000
vt 0.145075 0.236017 0.000000
vt 0.145075 0.201413 0.000000
vt 0.146901 0.201413 0.000000
vt 0.451218 0.286422 0.000000
vt 0.451218 0.479542 0.000000
vt 0.441353 0.479542 0.000000
vt 0.441353 0.286422 0.000000
vt 0.946409 0.781392 0.000000
vt 0.981039 0.781392 0.000000
vt 0.981039 0.791257 0.000000
vt 0.946409 0.791257 0.000000
vt 0.663577 0.972287 0.000000
vt 0.712431 0.972287 0.000000
vt 0.712431 0.982152 0.000000
vt 0.663577 0.982152 0.000000
vt 0.595345 0.869797 0.000000
vt 0.595345 0.879663 0.000000
vt 0.582768 0.879663 0.000000
vt 0.582768 0.869797 0.000000
vt 0.001953 0.304640 0.000000
vt 0.001953 0.294775 0.000000
vt 0.039498 0.294775 0.000000
vt 0.039498 0.304640 0.000000
vt 0.030642 0.308601 0.000000
vt 0.030642 0.310427 0.000000
vt 0.027206 0.310427 0.000000
vt 0.027206 0.308601 0.000000
vt 0.151443 0.494650 0.000000
vt 0.151443 0.496476 0.000000
vt 0.138318 0.496476 0.000000
vt 0.138318 0.494650 0.000000
vt 0.441353 0.575960 0.000000
vt 0.451218 0.575960 0.000000
vt 0.451218 0.596630 0.000000
vt 0.441353 0.596630 0.000000
vt 0.146901 0.180216 0.000000
vt 0.145075 0.180216 0.000000
vt 0.145075 0.176390 0.000000
vt 0.146901 0.176390 0.000000
vt 0.451218 0.650091 0.000000
vt 0.451218 0.695254 0.000000
vt 0.441353 0.695254 0.000000
vt 0.441353 0.650091 0.000000
vt 0.146901 0.197452 0.000000
vt 0.145075 0.197452 0.000000
vt 0.145075 0.190109 0.000000
vt 0.146901 0.190109 0.000000
vt 0.146806 0.239978 0.000000
vt 0.146806 0.241804 0.000000
vt 0.143369 0.241804 0.000000
vt 0.143369 0.239978 0.000000
vt 0.123167 0.263712 0.000000
vt 0.123167 0.261886 0.000000
vt 0.136869 0.261886 0.000000
vt 0.136869 0.263712 0.000000
vt 0.685486 0.842723 0.000000
vt 0.685486 0.737586 0.000000
vt 0.687312 0.737586 0.000000
vt 0.687312 0.842723 0.000000
vt 0.842333 0.717730 0.000000
vt 0.832467 0.717730 0.000000
vt 0.832467 0.565573 0.000000
vt 0.842333 0.565573 0.000000
vt 0.655298 0.737586 0.000000
vt 0.655298 0.747452 0.000000
vt 0.547414 0.747452 0.000000
vt 0.547414 0.737586 0.000000
vt 0.130203 0.172429 0.000000
vt 0.120337 0.172429 0.000000
vt 0.120337 0.001953 0.000000
vt 0.130203 0.001953 0.000000
vt 0.441353 0.045821 0.000000
vt 0.443178 0.045821 0.000000
vt 0.443178 0.054140 0.000000
vt 0.441353 0.054140 0.000000
vt 0.130203 0.806897 0.000000
vt 0.120337 0.806897 0.000000
vt 0.120337 0.775033 0.000000
vt 0.130203 0.775033 0.000000
vt 0.130203 0.700448 0.000000
vt 0.120337 0.700448 0.000000
vt 0.120337 0.669088 0.000000
vt 0.130203 0.669088 0.000000
vt 0.441353 0.022224 0.000000
vt 0.443178 0.022224 0.000000
vt 0.443178 0.032018 0.000000
vt 0.441353 0.032018 0.000000
vt 0.714083 0.849941 0.000000
vt 0.714083 0.840076 0.000000
vt 0.730338 0.840076 0.000000
vt 0.730338 0.849941 0.000000
vt 0.788908 0.849941 0.000000
vt 0.788908 0.840076 0.000000
vt 0.827297 0.840076 0.000000
vt 0.827297 0.849941 0.000000
vt 0.382847 0.740009 0.000000
vt 0.382847 0.749874 0.000000
vt 0.314996 0.749874 0.000000
vt 0.314996 0.740009 0.000000
vt 0.705967 0.633425 0.000000
vt 0.696102 0.633425 0.000000
vt 0.696102 0.565573 0.000000
vt 0.705967 0.565573 0.000000
vt 0.271608 0.740009 0.000000
vt 0.271608 0.749874 0.000000
vt 0.269633 0.749874 0.000000
vt 0.269633 0.740009 0.000000
vt 0.705967 0.686949 0.000000
vt 0.696102 0.686949 0.000000
vt 0.696102 0.676812 0.000000
vt 0.705967 0.676812 0.000000
vt 0.539299 0.837025 0.000000
vt 0.529433 0.837025 0.000000
vt 0.529433 0.834171 0.000000
vt 0.539299 0.834171 0.000000
vt 0.266568 0.736047 0.000000
vt 0.256703 0.736047 0.000000
vt 0.256703 0.565573 0.000000
vt 0.266568 0.565573 0.000000
vt 0.402933 0.736047 0.000000
vt 0.393068 0.736047 0.000000
vt 0.393068 0.565573 0.000000
vt 0.402933 0.565573 0.000000
vt 0.529433 0.790793 0.000000
vt 0.529433 0.699215 0.000000
vt 0.539299 0.699215 0.000000
vt 0.539299 0.790793 0.000000
vt 0.705967 0.733625 0.000000
vt 0.696102 0.733625 0.000000
vt 0.696102 0.730326 0.000000
vt 0.705967 0.730326 0.000000
vt 0.390847 0.969236 0.000000
vt 0.390847 0.959371 0.000000
vt 0.475778 0.959371 0.000000
vt 0.475778 0.969236 0.000000
vt 0.850448 0.693823 0.000000
vt 0.850448 0.683957 0.000000
vt 0.888032 0.683957 0.000000
vt 0.888032 0.693823 0.000000
vt 0.927098 0.262414 0.000000
vt 0.927098 0.252548 0.000000
vt 0.964682 0.252548 0.000000
vt 0.964682 0.262414 0.000000
vt 0.931862 0.683957 0.000000
vt 0.938307 0.683957 0.000000
vt 0.938307 0.693823 0.000000
vt 0.931862 0.693823 0.000000
vt 0.880752 0.262414 0.000000
vt 0.880752 0.252548 0.000000
vt 0.883269 0.252548 0.000000
vt 0.883269 0.262414 0.000000
vt 0.936308 0.913602 0.000000
vt 0.970671 0.913602 0.000000
vt 0.970671 0.923468 0.000000
vt 0.936308 0.923468 0.000000
vt 0.946409 0.659046 0.000000
vt 0.946409 0.649181 0.000000
vt 0.981441 0.649181 0.000000
vt 0.981441 0.659046 0.000000
vt 0.526987 0.840986 0.000000
vt 0.526987 0.850852 0.000000
vt 0.481757 0.850852 0.000000
vt 0.481757 0.840986 0.000000
vt 0.870651 0.982152 0.000000
vt 0.870651 0.972287 0.000000
vt 0.906648 0.972287 0.000000
vt 0.906648 0.982152 0.000000
vt 0.138318 0.858393 0.000000
vt 0.261629 0.858393 0.000000
vt 0.261629 0.868258 0.000000
vt 0.138318 0.868258 0.000000
vt 0.557516 0.998047 0.000000
vt 0.557516 0.988182 0.000000
vt 0.573488 0.988182 0.000000
vt 0.573488 0.998047 0.000000
vt 0.774690 0.982152 0.000000
vt 0.774690 0.972287 0.000000
vt 0.816859 0.972287 0.000000
vt 0.816859 0.982152 0.000000
vt 0.957877 0.266375 0.000000
vt 0.957877 0.276240 0.000000
vt 0.880752 0.276240 0.000000
vt 0.880752 0.266375 0.000000
vt 0.471656 0.043777 0.000000
vt 0.471656 0.001953 0.000000
vt 0.479872 0.001953 0.000000
vt 0.479872 0.043777 0.000000
vt 0.465087 0.001953 0.000000
vt 0.465087 0.011385 0.000000
vt 0.456871 0.011385 0.000000
vt 0.456871 0.001953 0.000000
vt 0.001953 0.665126 0.000000
vt 0.001953 0.494650 0.000000
vt 0.046347 0.494650 0.000000
vt 0.046347 0.665126 0.000000
vt 0.880752 0.001953 0.000000
vt 0.912207 0.001953 0.000000
vt 0.912207 0.046347 0.000000
vt 0.880752 0.046347 0.000000
vt 0.148420 0.872219 0.000000
vt 0.160997 0.872219 0.000000
vt 0.160997 0.916614 0.000000
vt 0.148420 0.916614 0.000000
vt 0.140794 0.975806 0.000000
vt 0.128217 0.975806 0.000000
vt 0.128217 0.931412 0.000000
vt 0.140794 0.931412 0.000000
vt 0.961536 0.001953 0.000000
vt 0.965364 0.001953 0.000000
vt 0.965364 0.046347 0.000000
vt 0.961536 0.046347 0.000000
vt 0.471656 0.053614 0.000000
vt 0.471656 0.052906 0.000000
vt 0.479872 0.052906 0.000000
vt 0.479872 0.053614 0.000000
vt 0.927648 0.849941 0.000000
vt 0.835297 0.849941 0.000000
vt 0.835297 0.805547 0.000000
vt 0.927648 0.805547 0.000000
vt 0.460906 0.278039 0.000000
vt 0.441353 0.278039 0.000000
vt 0.441353 0.269824 0.000000
vt 0.460906 0.269824 0.000000
vt 0.532263 0.483503 0.000000
vt 0.552632 0.483503 0.000000
vt 0.552632 0.491719 0.000000
vt 0.532263 0.491719 0.000000
vt 0.532263 0.869797 0.000000
vt 0.548606 0.869797 0.000000
vt 0.548606 0.914191 0.000000
vt 0.532263 0.914191 0.000000
vt 0.825196 0.853903 0.000000
vt 0.861372 0.853903 0.000000
vt 0.861372 0.898297 0.000000
vt 0.825196 0.898297 0.000000
vt 0.001953 0.810859 0.000000
vt 0.096928 0.810859 0.000000
vt 0.096928 0.855253 0.000000
vt 0.001953 0.855253 0.000000
vt 0.719134 0.853903 0.000000
vt 0.765160 0.853903 0.000000
vt 0.765160 0.898297 0.000000
vt 0.719134 0.898297 0.000000
vt 0.586360 0.310156 0.000000
vt 0.577718 0.310156 0.000000
vt 0.577718 0.301940 0.000000
vt 0.586360 0.301940 0.000000
vt 0.562566 0.483503 0.000000
vt 0.580982 0.483503 0.000000
vt 0.580982 0.491719 0.000000
vt 0.562566 0.491719 0.000000
vt 0.880752 0.398586 0.000000
vt 0.954833 0.398586 0.000000
vt 0.954833 0.442980 0.000000
vt 0.880752 0.442980 0.000000
vt 0.123167 0.236017 0.000000
vt 0.123167 0.201413 0.000000
vt 0.131382 0.201413 0.000000
vt 0.131382 0.236017 0.000000
vt 0.569602 0.286422 0.000000
vt 0.569602 0.479542 0.000000
vt 0.525208 0.479542 0.000000
vt 0.525208 0.286422 0.000000
vt 0.946409 0.663007 0.000000
vt 0.981039 0.663007 0.000000
vt 0.981039 0.707401 0.000000
vt 0.946409 0.707401 0.000000
vt 0.102964 0.810859 0.000000
vt 0.121172 0.810859 0.000000
vt 0.121172 0.855253 0.000000
vt 0.102964 0.855253 0.000000
vt 0.663577 0.853903 0.000000
vt 0.712431 0.853903 0.000000
vt 0.712431 0.898297 0.000000
vt 0.663577 0.898297 0.000000
vt 0.595345 0.998047 0.000000
vt 0.582768 0.998047 0.000000
vt 0.582768 0.953653 0.000000
vt 0.595345 0.953653 0.000000
vt 0.001953 0.176390 0.000000
vt 0.039498 0.176390 0.000000
vt 0.039498 0.220785 0.000000
vt 0.001953 0.220785 0.000000
vt 0.030642 0.332335 0.000000
vt 0.027206 0.332335 0.000000
vt 0.027206 0.324120 0.000000
vt 0.030642 0.324120 0.000000
vt 0.151443 0.518384 0.000000
vt 0.138318 0.518384 0.000000
vt 0.138318 0.510169 0.000000
vt 0.151443 0.510169 0.000000
vt 0.297944 0.887017 0.000000
vt 0.279734 0.887017 0.000000
vt 0.279734 0.842623 0.000000
vt 0.297944 0.842623 0.000000
vt 0.569602 0.575960 0.000000
vt 0.569602 0.596630 0.000000
vt 0.525208 0.596630 0.000000
vt 0.525208 0.575960 0.000000
vt 0.123167 0.180216 0.000000
vt 0.123167 0.176390 0.000000
vt 0.131382 0.176390 0.000000
vt 0.131382 0.180216 0.000000
vt 0.569602 0.650091 0.000000
vt 0.569602 0.695254 0.000000
vt 0.525208 0.695254 0.000000
vt 0.525208 0.650091 0.000000
vt 0.123167 0.197452 0.000000
vt 0.123167 0.190109 0.000000
vt 0.131382 0.190109 0.000000
vt 0.131382 0.197452 0.000000
vt 0.146806 0.263712 0.000000
vt 0.143369 0.263712 0.000000
vt 0.143369 0.255497 0.000000
vt 0.146806 0.255497 0.000000
vt 0.123167 0.239978 0.000000
vt 0.136869 0.239978 0.000000
vt 0.136869 0.248194 0.000000
vt 0.123167 0.248194 0.000000
vt 0.663577 0.842723 0.000000
vt 0.663577 0.737586 0.000000
vt 0.671793 0.737586 0.000000
vt 0.671793 0.842723 0.000000
vt 0.714083 0.717730 0.000000
vt 0.714083 0.565573 0.000000
vt 0.758477 0.565573 0.000000
vt 0.758477 0.717730 0.000000
vt 0.655298 0.865836 0.000000
vt 0.547414 0.865836 0.000000
vt 0.547414 0.821442 0.000000
vt 0.655298 0.821442 0.000000
vt 0.001953 0.172429 0.000000
vt 0.001953 0.001953 0.000000
vt 0.046347 0.001953 0.000000
vt 0.046347 0.172429 0.000000
vt 0.465087 0.045821 0.000000
vt 0.465087 0.054140 0.000000
vt 0.456871 0.054140 0.000000
vt 0.456871 0.045821 0.000000
vt 0.001953 0.806897 0.000000
vt 0.001953 0.775033 0.000000
vt 0.046347 0.775033 0.000000
vt 0.046347 0.806897 0.000000
vt 0.001953 0.700448 0.000000
vt 0.001953 0.669088 0.000000
vt 0.046347 0.669088 0.000000
vt 0.046347 0.700448 0.000000
vt 0.465087 0.022224 0.000000
vt 0.465087 0.032018 0.000000
vt 0.456871 0.032018 0.000000
vt 0.456871 0.022224 0.000000
vt 0.714083 0.721692 0.000000
vt 0.730338 0.721692 0.000000
vt 0.730338 0.766086 0.000000
vt 0.714083 0.766086 0.000000
vt 0.788908 0.721692 0.000000
vt 0.827297 0.721692 0.000000
vt 0.827297 0.766086 0.000000
vt 0.788908 0.766086 0.000000
vt 0.382847 0.868258 0.000000
vt 0.314996 0.868258 0.000000
vt 0.314996 0.823864 0.000000
vt 0.382847 0.823864 0.000000
vt 0.986814 0.001953 0.000000
vt 0.992332 0.001953 0.000000
vt 0.992332 0.046347 0.000000
vt 0.986814 0.046347 0.000000
vt 0.577718 0.633425 0.000000
vt 0.577718 0.565573 0.000000
vt 0.622112 0.565573 0.000000
vt 0.622112 0.633425 0.000000
vt 0.977180 0.213087 0.000000
vt 0.971662 0.213087 0.000000
vt 0.971662 0.168693 0.000000
vt 0.977180 0.168693 0.000000
vt 0.271608 0.868258 0.000000
vt 0.269633 0.868258 0.000000
vt 0.269633 0.823864 0.000000
vt 0.271608 0.823864 0.000000
vt 0.577718 0.686949 0.000000
vt 0.577718 0.676812 0.000000
vt 0.622112 0.676812 0.000000
vt 0.622112 0.686949 0.000000
vt 0.411049 0.837025 0.000000
vt 0.411049 0.834171 0.000000
vt 0.455443 0.834171 0.000000
vt 0.455443 0.837025 0.000000
vt 0.986814 0.109501 0.000000
vt 0.992332 0.109501 0.000000
vt 0.992332 0.153895 0.000000
vt 0.986814 0.153895 0.000000
vt 0.138318 0.736047 0.000000
vt 0.138318 0.565573 0.000000
vt 0.182713 0.565573 0.000000
vt 0.182713 0.736047 0.000000
vt 0.274684 0.736047 0.000000
vt 0.274684 0.565573 0.000000
vt 0.319078 0.565573 0.000000
vt 0.319078 0.736047 0.000000
vt 0.977180 0.105539 0.000000
vt 0.971662 0.105539 0.000000
vt 0.971662 0.061145 0.000000
vt 0.977180 0.061145 0.000000
vt 0.411049 0.790793 0.000000
vt 0.411049 0.699215 0.000000
vt 0.455443 0.699215 0.000000
vt 0.455443 0.790793 0.000000
vt 0.577718 0.733625 0.000000
vt 0.577718 0.730326 0.000000
vt 0.622112 0.730326 0.000000
vt 0.622112 0.733625 0.000000
vt 0.390847 0.840986 0.000000
vt 0.475778 0.840986 0.000000
vt 0.475778 0.885380 0.000000
vt 0.390847 0.885380 0.000000
vt 0.850448 0.565573 0.000000
vt 0.888032 0.565573 0.000000
vt 0.888032 0.609967 0.000000
vt 0.850448 0.609967 0.000000
vt 0.971662 0.217048 0.000000
vt 0.975010 0.217048 0.000000
vt 0.975010 0.261442 0.000000
vt 0.971662 0.261442 0.000000
vt 0.927098 0.134164 0.000000
vt 0.964682 0.134164 0.000000
vt 0.964682 0.178558 0.000000
vt 0.927098 0.178558 0.000000
vt 0.141667 0.105539 0.000000
vt 0.138318 0.105539 0.000000
vt 0.138318 0.061145 0.000000
vt 0.141667 0.061145 0.000000
vt 0.931862 0.565573 0.000000
vt 0.938307 0.565573 0.000000
vt 0.938307 0.609967 0.000000
vt 0.931862 0.609967 0.000000
vt 0.880752 0.134164 0.000000
vt 0.883269 0.134164 0.000000
vt 0.883269 0.178558 0.000000
vt 0.880752 0.178558 0.000000
vt 0.936308 0.795218 0.000000
vt 0.970671 0.795218 0.000000
vt 0.970671 0.839612 0.000000
vt 0.936308 0.839612 0.000000
vt 0.946409 0.530797 0.000000
vt 0.981441 0.530797 0.000000
vt 0.981441 0.575191 0.000000
vt 0.946409 0.575191 0.000000
vt 0.526987 0.969236 0.000000
vt 0.481757 0.969236 0.000000
vt 0.481757 0.924842 0.000000
vt 0.526987 0.924842 0.000000
vt 0.870651 0.853903 0.000000
vt 0.906648 0.853903 0.000000
vt 0.906648 0.898297 0.000000
vt 0.870651 0.898297 0.000000
vt 0.138318 0.740009 0.000000
vt 0.261629 0.740009 0.000000
vt 0.261629 0.784403 0.000000
vt 0.138318 0.784403 0.000000
vt 0.557516 0.869797 0.000000
vt 0.573488 0.869797 0.000000
vt 0.573488 0.914191 0.000000
vt 0.557516 0.914191 0.000000
vt 0.774690 0.853903 0.000000
vt 0.816859 0.853903 0.000000
vt 0.816859 0.898297 0.000000
vt 0.774690 0.898297 0.000000
vt 0.957877 0.394624 0.000000
vt 0.880752 0.394624 0.000000
vt 0.880752 0.350230 0.000000
vt 0.957877 0.350230 0.000000
vt 0.490826 0.001953 0.000000
vt 0.490826 0.043777 0.000000
vt 0.445917 0.011385 0.000000
vt 0.445917 0.001953 0.000000
vt 0.105539 0.494650 0.000000
vt 0.105539 0.665126 0.000000
vt 0.912207 0.105539 0.000000
vt 0.880752 0.105539 0.000000
vt 0.160997 0.975806 0.000000
vt 0.148420 0.975806 0.000000
vt 0.128217 0.872219 0.000000
vt 0.140794 0.872219 0.000000
vt 0.965364 0.105539 0.000000
vt 0.961536 0.105539 0.000000
vt 0.490826 0.052906 0.000000
vt 0.490826 0.053614 0.000000
vt 0.835297 0.746355 0.000000
vt 0.927648 0.746355 0.000000
vt 0.441353 0.258869 0.000000
vt 0.460906 0.258869 0.000000
vt 0.552632 0.502673 0.000000
vt 0.532263 0.502673 0.000000
vt 0.548606 0.973383 0.000000
vt 0.532263 0.973383 0.000000
vt 0.861372 0.957489 0.000000
vt 0.825196 0.957489 0.000000
vt 0.096928 0.914445 0.000000
vt 0.001953 0.914445 0.000000
vt 0.765160 0.957489 0.000000
vt 0.719134 0.957489 0.000000
vt 0.577718 0.290986 0.000000
vt 0.586360 0.290986 0.000000
vt 0.580982 0.502673 0.000000
vt 0.562566 0.502673 0.000000
vt 0.954833 0.502172 0.000000
vt 0.880752 0.502172 0.000000
vt 0.142337 0.201413 0.000000
vt 0.142337 0.236017 0.000000
vt 0.466016 0.479542 0.000000
vt 0.466016 0.286422 0.000000
vt 0.981039 0.766594 0.000000
vt 0.946409 0.766594 0.000000
vt 0.121172 0.914445 0.000000
vt 0.102964 0.914445 0.000000
vt 0.712431 0.957489 0.000000
vt 0.663577 0.957489 0.000000
vt 0.582768 0.894461 0.000000
vt 0.595345 0.894461 0.000000
vt 0.039498 0.279977 0.000000
vt 0.001953 0.279977 0.000000
vt 0.027206 0.313166 0.000000
vt 0.030642 0.313166 0.000000
vt 0.138318 0.499214 0.000000
vt 0.151443 0.499214 0.000000
vt 0.279734 0.783431 0.000000
vt 0.297944 0.783431 0.000000
vt 0.466016 0.596630 0.000000
vt 0.466016 0.575960 0.000000
vt 0.507010 0.483503 0.000000
vt 0.525219 0.483503 0.000000
vt 0.525219 0.542695 0.000000
vt 0.507010 0.542695 0.000000
vt 0.142337 0.176390 0.000000
vt 0.142337 0.180216 0.000000
vt 0.499967 0.557493 0.000000
vt 0.481757 0.557493 0.000000
vt 0.481757 0.498301 0.000000
vt 0.499967 0.498301 0.000000
vt 0.466016 0.695254 0.000000
vt 0.466016 0.650091 0.000000
vt 0.142337 0.190109 0.000000
vt 0.142337 0.197452 0.000000
vt 0.143369 0.244542 0.000000
vt 0.146806 0.244542 0.000000
vt 0.136869 0.259148 0.000000
vt 0.123167 0.259148 0.000000
vt 0.682747 0.737586 0.000000
vt 0.682747 0.842723 0.000000
vt 0.817669 0.565573 0.000000
vt 0.817669 0.717730 0.000000
vt 0.547414 0.762250 0.000000
vt 0.655298 0.762250 0.000000
vt 0.105539 0.001953 0.000000
vt 0.105539 0.172429 0.000000
vt 0.445917 0.054140 0.000000
vt 0.445917 0.045821 0.000000
vt 0.105539 0.775033 0.000000
vt 0.105539 0.806897 0.000000
vt 0.456504 0.483503 0.000000
vt 0.475057 0.483503 0.000000
vt 0.475057 0.542695 0.000000
vt 0.456504 0.542695 0.000000
vt 0.116467 0.250381 0.000000
vt 0.097914 0.250381 0.000000
vt 0.097914 0.191189 0.000000
vt 0.116467 0.191189 0.000000
vt 0.105539 0.669088 0.000000
vt 0.105539 0.700448 0.000000
vt 0.445917 0.032018 0.000000
vt 0.445917 0.022224 0.000000
vt 0.730338 0.825278 0.000000
vt 0.714083 0.825278 0.000000
vt 0.001953 0.308601 0.000000
vt 0.020506 0.308601 0.000000
vt 0.020506 0.367793 0.000000
vt 0.001953 0.367793 0.000000
vt 0.441353 0.176354 0.000000
vt 0.459905 0.176354 0.000000
vt 0.459905 0.235546 0.000000
vt 0.441353 0.235546 0.000000
vt 0.827297 0.825278 0.000000
vt 0.788908 0.825278 0.000000
vt 0.314996 0.764672 0.000000
vt 0.382847 0.764672 0.000000
vt 0.992332 0.105539 0.000000
vt 0.986814 0.105539 0.000000
vt 0.681304 0.565573 0.000000
vt 0.681304 0.633425 0.000000
vt 0.971662 0.109501 0.000000
vt 0.977180 0.109501 0.000000
vt 0.269633 0.764672 0.000000
vt 0.271608 0.764672 0.000000
vt 0.681304 0.676812 0.000000
vt 0.681304 0.686949 0.000000
vt 0.514635 0.834171 0.000000
vt 0.514635 0.837025 0.000000
vt 0.992332 0.213087 0.000000
vt 0.986814 0.213087 0.000000
vt 0.241905 0.565573 0.000000
vt 0.241905 0.736047 0.000000
vt 0.378270 0.565573 0.000000
vt 0.378270 0.736047 0.000000
vt 0.971662 0.001953 0.000000
vt 0.977180 0.001953 0.000000
vt 0.514635 0.699215 0.000000
vt 0.514635 0.790793 0.000000
vt 0.681304 0.730326 0.000000
vt 0.681304 0.733625 0.000000
vt 0.475778 0.944573 0.000000
vt 0.390847 0.944573 0.000000
vt 0.888032 0.669159 0.000000
vt 0.850448 0.669159 0.000000
vt 0.975010 0.320634 0.000000
vt 0.971662 0.320634 0.000000
vt 0.964682 0.237750 0.000000
vt 0.927098 0.237750 0.000000
vt 0.138318 0.001953 0.000000
vt 0.141667 0.001953 0.000000
vt 0.938307 0.669159 0.000000
vt 0.931862 0.669159 0.000000
vt 0.883269 0.237750 0.000000
vt 0.880752 0.237750 0.000000
vt 0.970671 0.898804 0.000000
vt 0.936308 0.898804 0.000000
vt 0.981441 0.634383 0.000000
vt 0.946409 0.634383 0.000000
vt 0.481757 0.865650 0.000000
vt 0.526987 0.865650 0.000000
vt 0.906648 0.957489 0.000000
vt 0.870651 0.957489 0.000000
vt 0.261629 0.843595 0.000000
vt 0.138318 0.843595 0.000000
vt 0.573488 0.973383 0.000000
vt 0.557516 0.973383 0.000000
vt 0.816859 0.957489 0.000000
vt 0.774690 0.957489 0.000000
vt 0.880752 0.291038 0.000000
vt 0.957877 0.291038 0.000000
vt 0.121172 0.929243 0.000000
vt 0.102964 0.929243 0.000000
vt 0.279734 0.768633 0.000000
vt 0.297944 0.768633 0.000000
vt 0.525219 0.557493 0.000000
vt 0.507010 0.557493 0.000000
vt 0.481757 0.483503 0.000000
vt 0.499967 0.483503 0.000000
vt 0.475057 0.557493 0.000000
vt 0.456504 0.557493 0.000000
vt 0.097914 0.176390 0.000000
vt 0.116467 0.176390 0.000000
vt 0.020506 0.382591 0.000000
vt 0.001953 0.382591 0.000000
vt 0.459905 0.250344 0.000000
vt 0.441353 0.250344 0.000000
vt 0.615548 0.051281 0.000000
vt 0.602971 0.051281 0.000000
vt 0.602971 0.001953 0.000000
vt 0.615548 0.001953 0.000000
vt 0.527212 0.001953 0.000000
vt 0.545765 0.001953 0.000000
vt 0.545765 0.060524 0.000000
vt 0.527212 0.060524 0.000000
vt 0.501959 0.001953 0.000000
vt 0.520512 0.001953 0.000000
vt 0.520512 0.060524 0.000000
vt 0.501959 0.060524 0.000000
vt 0.072661 0.176390 0.000000
vt 0.091214 0.176390 0.000000
vt 0.091214 0.250975 0.000000
vt 0.072661 0.250975 0.000000
vt 0.047408 0.176390 0.000000
vt 0.065961 0.176390 0.000000
vt 0.065961 0.250975 0.000000
vt 0.047408 0.250975 0.000000
vt 0.552465 0.001953 0.000000
vt 0.570675 0.001953 0.000000
vt 0.570675 0.055414 0.000000
vt 0.552465 0.055414 0.000000
vt 0.577718 0.001953 0.000000
vt 0.595927 0.001953 0.000000
vt 0.595927 0.055414 0.000000
vt 0.577718 0.055414 0.000000
vt 0.544400 0.533107 0.000000
vt 0.544400 0.534932 0.000000
vt 0.532263 0.534932 0.000000
vt 0.532263 0.533107 0.000000
vt 0.544400 0.511198 0.000000
vt 0.544400 0.519414 0.000000
vt 0.532263 0.519414 0.000000
vt 0.532263 0.511198 0.000000
vt 0.544400 0.530368 0.000000
vt 0.532263 0.530368 0.000000
vt 0.921156 0.001953 0.000000
vt 0.939365 0.001953 0.000000
vt 0.939365 0.098372 0.000000
vt 0.921156 0.098372 0.000000
vt 0.145075 0.158547 0.000000
vt 0.146901 0.158547 0.000000
vt 0.141667 0.153330 0.000000
vt 0.138318 0.153330 0.000000
vt 0.138318 0.109501 0.000000
vt 0.141667 0.109501 0.000000
vt 0.987282 0.307774 0.000000
vt 0.981763 0.307774 0.000000
vt 0.981763 0.264397 0.000000
vt 0.987282 0.264397 0.000000
vt 0.987282 0.260435 0.000000
vt 0.981763 0.260435 0.000000
vt 0.981763 0.217048 0.000000
vt 0.987282 0.217048 0.000000
# 776 texture coords

o b22_040
g b22_040
f 5/1 338/2 335/3 1/4 
f 335/5 327/6 49/7 1/8 
f 50/9 313/10 336/11 2/12 
f 3/13 314/14 337/15 4/16 
f 6/17 339/18 340/19 8/20 
f 9/21 316/22 315/23 7/24 
f 319/25 341/26 10/27 21/28 
f 11/29 342/30 316/31 9/32 
f 14/33 317/34 342/35 11/36 
f 10/37 341/38 343/39 12/40 
f 12/41 343/42 344/43 13/44 
f 344/45 345/46 15/47 13/48 
f 345/49 346/50 16/51 15/52 
f 17/53 347/54 317/55 14/56 
f 19/57 349/58 347/59 17/60 
f 16/61 346/62 348/63 18/64 
f 20/65 318/66 349/67 19/68 
f 348/69 350/70 22/71 18/72 
f 340/73 351/74 23/75 8/76 
f 351/77 352/78 25/79 23/80 
f 25/81 352/82 353/83 24/84 
f 24/85 353/86 319/87 21/88 
f 27/89 354/90 355/91 26/92 
f 26/93 355/94 318/95 20/96 
f 28/97 356/98 357/99 30/100 
f 31/101 358/102 320/103 29/104 
f 359/105 360/106 37/107 32/108 
f 34/109 322/110 321/111 33/112 
f 36/113 362/114 361/115 35/116 
f 35/117 361/118 322/119 34/120 
f 366/121 362/122 36/123 41/124 
f 37/125 360/126 363/127 38/128 
f 39/129 323/130 364/131 66/132 
f 65/133 324/134 365/135 40/136 
f 43/137 368/138 366/139 41/140 
f 40/141 365/142 367/143 42/144 
f 44/145 369/146 370/147 60/148 
f 47/149 372/150 325/151 45/152 
f 59/153 326/154 371/155 46/156 
f 48/157 373/158 313/159 50/160 
f 2/161 336/162 374/163 51/164 
f 52/165 375/166 314/167 3/168 
f 53/169 376/170 377/171 55/172 
f 58/173 379/174 328/175 54/176 
f 56/177 329/178 378/179 57/180 
f 55/181 377/182 326/183 59/184 
f 60/185 370/186 329/187 56/188 
f 380/189 324/190 65/191 61/192 
f 63/193 331/194 330/195 62/196 
f 66/197 364/198 381/199 64/200 
f 64/201 381/202 382/203 68/204 
f 67/205 383/206 331/207 63/208 
f 384/209 385/210 72/211 70/212 
f 71/213 333/214 332/215 69/216 
f 385/217 386/218 73/219 72/220 
f 74/221 387/222 333/223 71/224 
f 76/225 389/226 387/227 74/228 
f 73/229 386/230 388/231 75/232 
f 363/233 389/234 76/235 38/236 
f 77/237 334/238 390/239 78/240 
f 78/241 390/242 323/243 39/244 
f 75/245 388/246 334/247 77/248 
f 83/249 79/250 157/251 162/252 
f 79/253 127/254 209/255 157/256 
f 128/257 80/258 159/259 158/260 
f 81/261 82/262 161/263 160/264 
f 82/265 83/266 162/267 161/268 
f 85/269 84/270 164/271 163/272 
f 84/273 86/274 165/275 164/276 
f 87/277 85/278 163/279 166/280 
f 99/281 88/282 167/283 178/284 
f 89/285 87/286 166/287 168/288 
f 92/289 89/290 168/291 171/292 
f 88/293 90/294 169/295 167/296 
f 90/297 91/298 170/299 169/300 
f 91/301 93/302 172/303 170/304 
f 93/305 94/306 173/307 172/308 
f 95/309 92/310 171/311 174/312 
f 97/313 95/314 174/315 176/316 
f 94/317 96/318 175/319 173/320 
f 98/321 97/322 176/323 177/324 
f 96/325 100/326 179/327 175/328 
f 86/329 101/330 180/331 165/332 
f 100/333 391/334 392/335 179/336 
f 101/337 103/338 181/339 180/340 
f 103/341 102/342 182/343 181/344 
f 102/345 99/346 178/347 182/348 
f 105/349 104/350 184/351 183/352 
f 104/353 98/354 177/355 184/356 
f 107/357 106/358 186/359 185/360 
f 106/361 108/362 187/363 186/364 
f 109/365 107/366 185/367 188/368 
f 110/369 115/370 192/371 190/372 
f 112/373 111/374 189/375 191/376 
f 114/377 113/378 193/379 194/380 
f 113/381 112/382 191/383 193/384 
f 119/385 114/386 194/387 200/388 
f 115/389 116/390 195/391 192/392 
f 117/393 144/394 197/395 196/396 
f 143/397 118/398 199/399 198/400 
f 121/401 119/402 200/403 202/404 
f 118/405 120/406 201/407 199/408 
f 122/409 138/410 205/411 204/412 
f 125/413 123/414 203/415 208/416 
f 137/417 124/418 207/419 206/420 
f 126/421 128/422 158/423 210/424 
f 80/425 129/426 211/427 159/428 
f 129/429 130/430 212/431 211/432 
f 130/433 81/434 160/435 212/436 
f 132/437 131/438 214/439 213/440 
f 131/441 133/442 215/443 214/444 
f 136/445 132/446 213/447 218/448 
f 134/449 135/450 217/451 216/452 
f 135/453 136/454 218/455 217/456 
f 133/457 137/458 206/459 215/460 
f 138/461 134/462 216/463 205/464 
f 140/465 139/466 220/467 219/468 
f 139/469 143/470 198/471 220/472 
f 141/473 140/474 219/475 221/476 
f 144/477 142/478 222/479 197/480 
f 142/481 146/482 223/483 222/484 
f 146/485 145/486 224/487 223/488 
f 145/489 141/490 221/491 224/492 
f 147/493 148/494 226/495 225/496 
f 148/497 150/498 228/499 226/500 
f 149/501 147/502 225/503 227/504 
f 150/505 151/506 229/507 228/508 
f 152/509 149/510 227/511 230/512 
f 154/513 152/514 230/515 232/516 
f 151/517 153/518 231/519 229/520 
f 116/521 154/522 232/523 195/524 
f 155/525 156/526 234/527 233/528 
f 156/529 117/530 196/531 234/532 
f 153/533 155/534 233/535 231/536 
f 162/252 157/251 257/537 260/538 
f 157/256 209/255 249/539 257/540 
f 158/260 159/259 258/541 235/542 
f 160/264 161/263 259/543 236/544 
f 161/268 162/267 260/545 259/546 
f 163/272 164/271 261/547 237/548 
f 164/276 165/275 262/549 261/550 
f 166/280 163/279 237/551 238/552 
f 178/284 167/283 263/553 241/554 
f 168/288 166/287 238/555 264/556 
f 171/292 168/291 264/557 239/558 
f 167/296 169/295 265/559 263/560 
f 169/300 170/299 266/561 265/562 
f 170/304 172/303 267/563 266/564 
f 172/308 173/307 268/565 267/566 
f 174/312 171/311 239/567 269/568 
f 176/316 174/315 269/569 271/570 
f 173/320 175/319 270/571 268/572 
f 177/324 176/323 271/573 240/574 
f 175/328 179/327 272/575 270/576 
f 165/332 180/331 273/577 262/578 
f 179/336 392/335 393/579 272/580 
f 180/340 181/339 274/581 273/582 
f 181/344 182/343 275/583 274/584 
f 182/348 178/347 241/585 275/586 
f 183/352 184/351 277/587 276/588 
f 184/356 177/355 240/589 277/590 
f 185/360 186/359 278/591 242/592 
f 186/364 187/363 279/593 278/594 
f 187/595 188/596 280/597 279/598 
f 188/368 185/367 242/599 280/600 
f 189/601 190/602 281/603 243/604 
f 190/372 192/371 282/605 281/606 
f 191/376 189/375 243/607 244/608 
f 194/380 193/379 283/609 284/610 
f 193/384 191/383 244/611 283/612 
f 200/388 194/387 284/613 288/614 
f 192/392 195/391 285/615 282/616 
f 196/396 197/395 286/617 245/618 
f 198/400 199/399 287/619 246/620 
f 202/404 200/403 288/621 290/622 
f 199/408 201/407 289/623 287/624 
f 201/625 202/626 290/627 289/628 
f 203/629 204/630 291/631 247/632 
f 204/412 205/411 292/633 291/634 
f 208/416 203/415 247/635 294/636 
f 206/420 207/419 293/637 248/638 
f 207/639 208/640 294/641 293/642 
f 209/643 210/644 295/645 249/646 
f 210/424 158/423 235/647 295/648 
f 159/428 211/427 296/649 258/650 
f 211/432 212/431 297/651 296/652 
f 212/436 160/435 236/653 297/654 
f 213/440 214/439 298/655 250/656 
f 214/444 215/443 299/657 298/658 
f 218/448 213/447 250/659 301/660 
f 216/452 217/451 300/661 251/662 
f 217/456 218/455 301/663 300/664 
f 215/460 206/459 248/665 299/666 
f 205/464 216/463 251/667 292/668 
f 219/468 220/467 302/669 252/670 
f 220/472 198/471 246/671 302/672 
f 221/476 219/475 252/673 253/674 
f 197/480 222/479 303/675 286/676 
f 222/484 223/483 304/677 303/678 
f 223/488 224/487 305/679 304/680 
f 224/492 221/491 253/681 305/682 
f 225/496 226/495 306/683 254/684 
f 226/500 228/499 307/685 306/686 
f 227/504 225/503 254/687 255/688 
f 228/508 229/507 308/689 307/690 
f 230/512 227/511 255/691 309/692 
f 232/516 230/515 309/693 311/694 
f 229/520 231/519 310/695 308/696 
f 195/524 232/523 311/697 285/698 
f 233/528 234/527 312/699 256/700 
f 234/532 196/531 245/701 312/702 
f 231/536 233/535 256/703 310/704 
f 260/538 257/537 335/3 338/2 
f 257/540 249/539 327/6 335/5 
f 235/542 258/541 336/11 313/10 
f 236/544 259/543 337/15 314/14 
f 261/550 262/549 340/19 339/18 
f 238/552 237/551 315/23 316/22 
f 241/554 263/553 341/26 319/25 
f 264/556 238/555 316/31 342/30 
f 239/558 264/557 342/35 317/34 
f 263/560 265/559 343/39 341/38 
f 265/562 266/561 344/43 343/42 
f 266/564 267/563 345/46 344/45 
f 267/566 268/565 346/50 345/49 
f 269/568 239/567 317/55 347/54 
f 271/570 269/569 347/59 349/58 
f 268/572 270/571 348/63 346/62 
f 240/574 271/573 349/67 318/66 
f 270/576 272/575 350/70 348/69 
f 262/578 273/577 351/74 340/73 
f 272/580 393/579 394/705 350/706 
f 273/582 274/581 352/78 351/77 
f 274/584 275/583 353/83 352/82 
f 275/586 241/585 319/87 353/86 
f 276/588 277/587 355/91 354/90 
f 277/590 240/589 318/95 355/94 
f 242/592 278/591 356/707 320/708 
f 278/594 279/593 357/99 356/98 
f 279/598 280/597 358/709 357/710 
f 280/600 242/599 320/103 358/102 
f 243/604 281/603 359/711 321/712 
f 281/606 282/605 360/106 359/105 
f 244/608 243/607 321/111 322/110 
f 284/610 283/609 361/115 362/114 
f 283/612 244/611 322/119 361/118 
f 288/614 284/613 362/122 366/121 
f 282/616 285/615 363/127 360/126 
f 245/618 286/617 364/131 323/130 
f 246/620 287/619 365/135 324/134 
f 290/622 288/621 366/139 368/138 
f 287/624 289/623 367/143 365/142 
f 289/628 290/627 368/713 367/714 
f 247/632 291/631 369/715 325/716 
f 291/634 292/633 370/147 369/146 
f 294/636 247/635 325/151 372/150 
f 248/638 293/637 371/155 326/154 
f 293/642 294/641 372/717 371/718 
f 249/646 295/645 373/719 327/720 
f 295/648 235/647 313/159 373/158 
f 258/650 296/649 374/163 336/162 
f 297/654 236/653 314/167 375/166 
f 298/658 299/657 377/171 376/170 
f 301/660 250/659 328/175 379/174 
f 251/662 300/661 378/179 329/178 
f 299/666 248/665 326/183 377/182 
f 292/668 251/667 329/187 370/186 
f 302/672 246/671 324/190 380/189 
f 253/674 252/673 330/195 331/194 
f 286/676 303/675 381/199 364/198 
f 303/678 304/677 382/203 381/202 
f 305/682 253/681 331/207 383/206 
f 306/686 307/685 385/210 384/209 
f 255/688 254/687 332/215 333/214 
f 307/690 308/689 386/218 385/217 
f 309/692 255/691 333/223 387/222 
f 311/694 309/693 387/227 389/226 
f 308/696 310/695 388/231 386/230 
f 285/698 311/697 389/234 363/233 
f 256/700 312/699 390/239 334/238 
f 312/702 245/701 323/243 390/242 
f 310/704 256/703 334/247 388/246 
f 259/721 260/722 237/723 261/724 
f 260/538 338/2 315/23 237/551 
f 338/2 5/1 7/24 315/23 
f 4/16 337/15 339/18 6/17 
f 337/15 259/543 261/550 339/18 
f 46/156 371/155 373/158 48/157 
f 371/725 372/726 327/727 373/728 
f 372/150 47/149 49/7 327/6 
f 125/413 208/416 209/255 127/254 
f 208/729 207/730 210/731 209/732 
f 207/419 124/418 126/421 210/424 
f 42/144 367/143 369/146 44/145 
f 367/733 368/734 325/735 369/736 
f 368/138 43/137 45/152 325/151 
f 121/401 202/404 203/415 123/414 
f 202/737 201/738 204/739 203/740 
f 201/407 120/406 122/409 204/412 
f 30/100 357/99 359/105 32/108 
f 357/741 358/742 321/743 359/744 
f 358/102 31/101 33/112 321/111 
f 109/365 188/368 189/375 111/374 
f 188/745 187/746 190/747 189/748 
f 187/363 108/362 110/369 190/372 
f 354/749 27/750 395/751 394/752 
f 105/753 183/754 392/755 391/756 
f 183/754 276/757 393/758 392/755 
f 276/757 354/749 394/752 393/758 
f 22/71 350/70 356/98 28/97 
f 350/759 394/760 320/761 356/762 
f 394/763 395/764 29/104 320/103 
f 304/765 305/766 254/767 306/768 
f 305/682 383/206 332/215 254/687 
f 383/206 67/205 69/216 332/215 
f 68/204 382/203 384/209 70/212 
f 382/203 304/677 306/686 384/209 
f 300/769 301/770 252/771 302/772 
f 301/660 379/174 330/195 252/673 
f 379/174 58/173 62/196 330/195 
f 57/180 378/179 380/189 61/192 
f 378/179 300/661 302/672 380/189 
f 296/773 297/774 250/775 298/776 
f 297/654 375/166 328/175 250/659 
f 375/166 52/165 54/176 328/175 
f 51/164 374/163 376/170 53/169 
f 374/163 296/649 298/658 376/170 
# 327 polygons

