# Blender v3.1.2 OBJ File: 'A-7.blend'
# www.blender.org
o a_7
v -0.906250 0.000000 -7.766582
v -2.195937 0.000000 -7.766582
v -2.195937 0.000000 -5.734550
v -0.906250 0.000000 -5.734550
v 5.775000 0.000000 -4.605332
v 5.775000 0.000000 -5.734550
v 4.682812 0.000000 -5.734550
v 4.682812 0.000000 -4.605332
v 5.775000 0.000000 -2.030684
v 4.682812 0.000000 -2.030684
v 5.775000 0.000000 -1.896289
v 4.682812 0.000000 -1.896289
v 5.775000 -0.000000 0.067070
v 5.775000 0.000000 -1.774707
v 4.682812 0.000000 -1.774707
v 4.682812 -0.000000 0.067070
v 5.775000 -0.000000 5.623457
v 5.775000 -0.000000 0.730918
v 4.682812 -0.000000 0.730918
v 4.682812 -0.000000 5.623457
v -0.906250 0.000000 -1.896289
v -2.195937 0.000000 -1.896289
v -2.195937 0.000000 -1.774707
v -0.906250 0.000000 -1.774707
v -0.906250 -0.000000 0.067070
v -2.195937 -0.000000 0.067070
v -2.195937 -0.000000 0.730918
v -0.906250 -0.000000 0.730918
v 6.886250 -0.000000 0.067070
v 6.886250 0.000000 -1.774707
v 4.682812 0.000000 -7.766582
v 5.775000 0.000000 -7.766582
v 3.350938 0.000000 -5.734550
v 3.350938 0.000000 -4.605332
v 3.350938 0.000000 -2.030684
v 3.350938 0.000000 -1.896289
v 3.350938 0.000000 -1.774707
v 3.350938 -0.000000 0.067070
v 3.350938 -0.000000 0.730918
v 3.350938 -0.000000 5.623457
v 3.350938 0.000000 -7.766582
v 2.588750 0.000000 -5.734550
v 2.588750 0.000000 -4.605332
v 2.588750 0.000000 -2.030684
v 2.588750 0.000000 -1.896289
v 2.588750 0.000000 -1.774707
v 2.588750 -0.000000 0.067070
v 2.588750 -0.000000 0.730918
v 2.588750 -0.000000 5.623457
v 2.588750 0.000000 -7.766582
v -0.906250 0.000000 -4.605332
v -0.906250 0.000000 -2.030684
v -0.906250 -0.000000 5.623457
v -2.195937 0.000000 -4.605332
v -2.195937 0.000000 -2.030684
v -2.195937 -0.000000 5.623457
v -6.886250 0.000000 -7.766582
v -6.886250 0.000000 -5.734550
v -6.886250 0.000000 -4.605332
v -6.886250 0.000000 -2.030684
v -6.886250 0.000000 -1.896289
v -6.886250 0.000000 -1.774707
v -6.886250 -0.000000 0.067070
v -6.886250 -0.000000 0.730918
v -6.886250 -0.000000 5.623457
v -2.195937 -0.000000 7.921464
v -0.906250 -0.000000 7.921464
v 4.682812 -0.000000 7.921464
v 5.775000 -0.000000 7.921460
v 3.350938 -0.000000 7.921464
v 2.588750 -0.000000 7.921464
v -6.886250 -0.000000 7.921464
v -1.003438 2.599999 -7.766504
v -1.003438 2.599999 -1.896269
v -2.196250 2.599999 -1.896269
v -2.196250 2.599999 -7.766504
v 5.774687 2.599999 0.067109
v -1.003438 2.599999 0.067109
v 5.774687 2.599999 -1.896269
v 5.774687 2.599999 -7.766504
v -2.196250 2.599999 0.067109
v 5.774687 2.599999 0.788145
v -1.003438 2.599999 0.788145
v -2.196250 2.599999 0.788145
v -1.003438 2.599999 5.623496
v 5.774687 2.599999 5.623496
v 6.885937 2.599999 0.067109
v 6.885937 2.599999 -1.896269
v 5.603996 2.399999 1.083963
v 5.603996 2.600000 1.083963
v 5.603996 2.600000 0.789214
v 5.603996 2.399999 0.789214
v 4.848060 2.600000 0.789214
v 4.848060 2.399999 0.789214
v 4.848060 2.600000 1.083963
v 4.848060 2.399999 1.083963
v 5.603996 0.900000 1.083963
v 5.603996 0.900000 0.789214
v 5.603996 -0.000000 0.789214
v 5.603996 -0.000000 1.083963
v 4.848060 0.900000 0.789214
v 4.848060 -0.000000 0.789214
v 4.848060 0.900000 1.083963
v 4.848060 -0.000000 1.083963
v 5.603996 2.100000 1.083963
v 5.603996 2.100000 0.789214
v 4.848060 2.100000 0.789214
v 4.848060 2.100000 1.083963
v 6.698743 2.399999 -1.717530
v 6.698743 2.600000 -1.717530
v 6.323423 2.600000 -1.717530
v 6.323423 2.399999 -1.717530
v 6.698743 2.399999 -1.281302
v 6.698743 2.600000 -1.281302
v 6.323423 2.600000 -1.281302
v 6.323423 2.399999 -1.281302
v 6.698743 0.900000 -1.717530
v 6.323423 0.900000 -1.717530
v 6.323423 0.000000 -1.717530
v 6.698743 0.000000 -1.717530
v 6.698743 0.900000 -1.281302
v 6.698743 0.000000 -1.281302
v 6.323423 0.900000 -1.281302
v 6.323423 0.000000 -1.281302
v 6.698743 2.100000 -1.717530
v 6.323423 2.100000 -1.717530
v 6.698743 2.100000 -1.281302
v 6.323423 2.100000 -1.281302
v 5.610430 2.399999 -7.593463
v 5.610430 2.600000 -7.593463
v 5.208253 2.600000 -7.593463
v 5.208253 2.399999 -7.593463
v 5.610430 2.399999 -7.147243
v 5.610430 2.600000 -7.147243
v 5.208253 2.600000 -7.147243
v 5.208253 2.399999 -7.147243
v 5.610430 0.900000 -7.593463
v 5.208253 0.900000 -7.593463
v 5.208253 0.000000 -7.593463
v 5.610430 0.000000 -7.593463
v 5.610430 0.900000 -7.147243
v 5.610430 0.000000 -7.147243
v 5.208253 0.900000 -7.147243
v 5.208253 0.000000 -7.147243
v 5.610430 2.100000 -7.593463
v 5.208253 2.100000 -7.593463
v 5.610430 2.100000 -7.147243
v 5.208253 2.100000 -7.147243
v -2.196318 2.399999 -7.766536
v -2.196318 2.600000 -7.766536
v -0.996380 2.600000 -7.766536
v -0.996380 2.399999 -7.766536
v -2.196318 2.600000 -6.787990
v -2.196318 2.399999 -6.787990
v 2.519184 2.600000 -7.593463
v -2.006759 2.600000 -7.593463
v -2.006759 2.399999 -7.593463
v 2.519184 2.399999 -7.593463
v -0.808700 2.399999 -7.921504
v -0.808700 2.600000 -7.921504
v -0.808700 2.600000 -7.766536
v -0.808700 2.399999 -7.766536
v -0.996380 2.399999 -7.921504
v -0.996380 2.600000 -7.921504
v 5.774691 2.600000 -7.766536
v 5.774691 2.399999 -7.766536
v 5.119928 2.399999 -7.593463
v 5.119928 2.600000 -7.593463
v 2.657546 2.600000 -7.593463
v 2.657546 2.399999 -7.593463
v 5.774691 2.600000 -4.818664
v 5.774691 2.399999 -4.818664
v 5.610430 2.399999 -5.798833
v 5.610430 2.600000 -5.798833
v 5.610430 2.600000 -7.059118
v 5.610430 2.399999 -7.059118
v 5.610430 2.399999 -4.818664
v 5.610430 2.600000 -4.818664
v 5.610430 2.600000 -5.670242
v 5.610430 2.399999 -5.670242
v 5.610430 2.600000 -1.831773
v 5.610430 2.600000 -3.818668
v 5.610430 2.399999 -3.818668
v 5.610430 2.399999 -1.831773
v 5.774691 2.399999 -3.818668
v 5.774691 2.600000 -3.818668
v 5.774691 2.600000 -1.896238
v 5.774691 2.399999 -1.896238
v 6.229623 2.600000 -1.717530
v 4.740283 2.600000 -1.717530
v 4.740283 2.399999 -1.717530
v 6.229623 2.399999 -1.717530
v 6.886064 2.600000 -1.896238
v 6.886064 2.399999 -1.896238
v 6.886064 2.600000 0.067109
v 6.886064 2.399999 0.067109
v 6.698743 2.399999 -0.115555
v 6.698743 2.600000 -0.115555
v 6.698743 2.600000 -1.210742
v 6.698743 2.399999 -1.210742
v 5.777688 2.600000 0.067109
v 5.777688 2.399999 0.067109
v 5.603996 2.600000 -0.115555
v 5.603996 2.399999 -0.115555
v 5.603996 2.600000 0.672693
v 5.603996 2.399999 0.672693
v 5.777688 2.600000 4.260256
v 5.777688 2.399999 4.260256
v 5.603996 2.600000 5.444129
v 5.603996 2.600000 1.179181
v 5.603996 2.399999 1.179181
v 5.603996 2.399999 5.444129
v 5.921566 2.399999 4.446018
v 5.921566 2.600000 4.446018
v 5.777688 2.600000 4.446018
v 5.777688 2.399999 4.446018
v 5.921566 2.399999 4.260256
v 5.921566 2.600000 4.260256
v 5.777688 2.600000 5.623495
v 5.777688 2.399999 5.623495
v 4.592018 2.600000 5.623495
v 4.592018 2.399999 5.623495
v 4.592018 2.399999 5.444129
v 4.592018 2.600000 5.444129
v -0.810059 2.399999 5.444129
v -0.810059 2.600000 5.444129
v 2.937028 2.600000 5.444129
v 2.937028 2.399999 5.444129
v 2.937028 2.399999 5.623495
v 2.937028 2.600000 5.623495
v -1.003294 2.600000 5.623495
v -1.003294 2.399999 5.623495
v -1.003294 2.600000 2.850818
v -1.003294 2.399999 2.850818
v -0.810059 2.399999 2.850818
v -0.810059 2.600000 2.850818
v -0.810059 2.399999 0.788175
v -0.810059 2.600000 0.788175
v -0.810059 2.600000 1.203461
v -0.810059 2.399999 1.203461
v -1.003294 2.399999 1.203461
v -1.003294 2.600000 1.203461
v -1.003294 2.600000 0.788175
v -1.003294 2.399999 0.788175
v -2.006719 2.600000 0.597457
v 3.225563 2.600000 0.597457
v 3.225563 2.399999 0.597457
v -2.006719 2.399999 0.597457
v 3.402272 2.600000 0.788175
v 3.402272 2.399999 0.788175
v 3.402272 2.600000 -0.402011
v 3.402272 2.399999 -0.402011
v 3.225563 2.600000 -0.402011
v 3.225563 2.399999 -0.402011
v -2.196318 2.600000 0.788175
v -2.196318 2.399999 0.788175
v -2.196318 2.600000 -0.211194
v -2.196318 2.399999 -0.211194
v -2.006719 2.399999 -0.211194
v -2.006719 2.600000 -0.211194
v -2.006719 2.399999 -1.985022
v -2.006719 2.600000 -1.985022
v -2.006719 2.600000 -1.863086
v -2.006719 2.399999 -1.863086
v -2.196318 2.399999 -1.863086
v -2.196318 2.600000 -1.863086
v -2.196318 2.600000 -2.654732
v -2.196318 2.399999 -2.654732
v -2.006719 2.399999 -2.654732
v -2.006719 2.600000 -2.654732
v -2.006719 2.600000 -2.076304
v -2.006719 2.399999 -2.076304
v -2.006719 2.399999 -4.559768
v -2.006719 2.600000 -4.559768
v -2.006719 2.600000 -4.314837
v -2.006719 2.399999 -4.314837
v -2.196318 2.399999 -4.314837
v -2.196318 2.600000 -4.314837
v -2.196318 2.600000 -5.111079
v -2.196318 2.399999 -5.111079
v -2.006719 2.399999 -5.111079
v -2.006719 2.600000 -5.111079
v -2.006719 2.600000 -4.650871
v -2.006719 2.399999 -4.650871
v -2.006719 2.600000 -6.787990
v -2.006719 2.399999 -6.787990
v 2.519184 2.600000 -5.670222
v 2.519184 2.399999 -5.670222
v 2.657546 2.600000 -5.798833
v 2.657546 2.399999 -5.798833
v 3.298900 2.600000 -5.670226
v 3.298900 2.399999 -5.670226
v 3.919531 2.600000 -5.798833
v 3.919531 2.399999 -5.798833
v 4.823042 2.399999 -5.798833
v 4.823042 2.600000 -5.798833
v 4.823042 2.600000 -5.670237
v 4.823042 2.399999 -5.670237
v 5.119928 2.600000 -7.059118
v 5.119928 2.399999 -7.059118
v 3.298880 2.399999 -4.559768
v 3.298880 2.600000 -4.559768
v 3.298880 2.600000 -4.650871
v 3.298880 2.399999 -4.650871
v 3.402272 2.600000 -4.709181
v 3.402272 2.600000 -3.955363
v 3.402272 2.399999 -3.955363
v 3.402272 2.399999 -4.709181
v 3.298880 2.600000 -4.709181
v 3.298880 2.399999 -4.709181
v 3.402253 2.399999 -5.670227
v 3.402253 2.600000 -5.670227
v 3.402272 2.600000 -5.588831
v 3.402272 2.399999 -5.588831
v 3.298880 2.399999 -5.588831
v 3.298880 2.600000 -5.588831
v 3.919531 2.399999 -5.670230
v 3.919531 2.600000 -5.670230
v 3.298880 2.399999 -3.955363
v 3.298880 2.600000 -3.955363
v 3.298880 2.399999 -2.076285
v 3.298880 2.600000 -2.076285
v 3.298880 2.600000 -3.071496
v 3.298880 2.399999 -3.071496
v 3.402272 2.399999 -3.071496
v 3.402272 2.600000 -3.071496
v 3.402272 2.600000 -1.288356
v 3.402272 2.399999 -1.288356
v 3.298940 2.399999 -1.288356
v 3.298940 2.600000 -1.288356
v 3.298880 2.600000 -1.985022
v 3.298880 2.399999 -1.985022
v 4.611906 2.600000 -1.831773
v 4.611906 2.399999 -1.831773
v 4.740412 2.600000 0.672693
v 4.740412 2.399999 0.672693
v 4.611906 2.600000 -1.209783
v 4.611906 2.399999 -1.209783
v 4.611721 2.399999 0.789214
v 4.611721 2.600000 0.789214
v 4.611721 2.600000 -0.307971
v 4.611721 2.399999 -0.307971
v 4.740412 2.399999 0.789214
v 4.740412 2.600000 0.789214
v 4.740412 2.399999 -0.307971
v 4.740412 2.600000 -0.307971
v 4.740283 2.600000 -1.209783
v 4.740283 2.399999 -1.209783
v 6.229623 2.600000 -1.210762
v 6.229623 2.399999 -1.210762
v 4.740412 2.600000 1.179162
v 4.740412 2.399999 1.179162
v -2.196318 0.900000 -7.766536
v -0.996380 0.900000 -7.766536
v -0.996380 0.000000 -7.766536
v -2.196318 0.000000 -7.766536
v -2.196318 0.900000 -6.787990
v -2.196318 0.000000 -6.787990
v 2.519184 0.900000 -7.593463
v -2.006759 0.900000 -7.593463
v -2.006759 0.000000 -7.593463
v 2.519184 0.000000 -7.593463
v -0.808700 0.900000 -7.921504
v -0.808700 0.900000 -7.766536
v -0.808700 0.000000 -7.766536
v -0.808700 0.000000 -7.921504
v -0.996380 0.900000 -7.921504
v -0.996380 0.000000 -7.921504
v 5.774691 0.900000 -7.766536
v 5.774691 0.000000 -7.766536
v 5.119928 0.900000 -7.593463
v 2.657546 0.900000 -7.593463
v 2.657546 0.000000 -7.593463
v 5.119928 0.000000 -7.593463
v 5.774691 0.900000 -4.818664
v 5.774691 0.000000 -4.818664
v 5.610430 0.900000 -5.798833
v 5.610430 0.900000 -7.059118
v 5.610430 0.000000 -7.059118
v 5.610430 0.000000 -5.798833
v 5.610430 0.900000 -4.818664
v 5.610430 0.900000 -5.670242
v 5.610430 0.000000 -5.670242
v 5.610430 0.000000 -4.818664
v 5.610430 0.900000 -3.818668
v 5.774691 0.900000 -3.818668
v 5.774691 0.000000 -3.818668
v 5.610430 0.000000 -3.818668
v 5.610430 0.900000 -1.831773
v 5.610430 0.000000 -1.831773
v 5.774691 0.900000 -1.896238
v 5.774691 0.000000 -1.896238
v 6.229623 0.900000 -1.717530
v 4.740283 0.900000 -1.717530
v 4.740283 0.000000 -1.717530
v 6.229623 0.000000 -1.717530
v 6.886064 0.900000 -1.896238
v 6.886064 0.000000 -1.896238
v 6.886064 0.900000 0.067109
v 6.886064 -0.000000 0.067109
v 6.698743 0.900000 -0.115555
v 6.698743 0.900000 -1.210742
v 6.698743 0.000000 -1.210742
v 6.698743 0.000000 -0.115555
v 5.777688 0.900000 0.067109
v 5.777688 -0.000000 0.067109
v 5.603996 0.900000 -0.115555
v 5.603996 0.000000 -0.115555
v 5.603996 0.900000 0.672693
v 5.603996 -0.000000 0.672693
v 5.777688 0.900000 4.260256
v 5.777688 -0.000000 4.260256
v 5.603996 0.900000 5.444129
v 5.603996 0.900000 1.179181
v 5.603996 -0.000000 1.179181
v 5.603996 -0.000000 5.444129
v 5.921566 0.900000 4.446020
v 5.777688 0.900000 4.446020
v 5.777688 -0.000000 4.446020
v 5.921566 -0.000000 4.446020
v 5.921566 0.900000 4.260256
v 5.921566 -0.000000 4.260256
v 5.777688 0.900000 5.623495
v 5.777688 -0.000000 5.623495
v 4.592018 0.900000 5.623495
v 4.592018 -0.000000 5.623495
v 4.592018 0.900000 5.444129
v 4.592018 -0.000000 5.444129
v 2.937028 0.900000 5.444129
v 2.937028 0.900000 5.623495
v 2.937028 -0.000000 5.623495
v 2.937028 -0.000000 5.444129
v -0.810059 0.900000 5.444129
v -0.810059 -0.000000 5.444129
v -1.003294 0.900000 5.623495
v -1.003294 -0.000000 5.623495
v -1.003294 0.900000 2.850818
v -1.003294 -0.000000 2.850818
v -0.810059 0.900000 2.850818
v -0.810059 -0.000000 2.850818
v -0.810059 0.900000 1.203461
v -1.003294 0.900000 1.203461
v -1.003294 -0.000000 1.203461
v -0.810059 -0.000000 1.203461
v -0.810059 0.900000 0.788175
v -0.810059 -0.000000 0.788175
v -1.003294 0.900000 0.788175
v -1.003294 -0.000000 0.788175
v -2.006719 0.900000 0.597457
v 3.225563 0.900000 0.597457
v 3.225563 -0.000000 0.597457
v -2.006719 -0.000000 0.597457
v 3.402272 0.900000 0.788175
v 3.402272 -0.000000 0.788175
v 3.402272 0.900000 -0.402011
v 3.402272 0.000000 -0.402011
v 3.299062 0.900000 -0.402011
v 3.299062 0.000000 -0.402011
v 3.225563 0.900000 -0.402011
v 3.225563 0.000000 -0.402011
v -2.196318 0.900000 0.788175
v -2.196318 -0.000000 0.788175
v -2.196318 0.900000 -0.211194
v -2.196318 0.000000 -0.211194
v -2.006719 0.900000 -0.211194
v -2.006719 0.000000 -0.211194
v -2.006719 0.900000 -1.985022
v -2.006719 0.900000 -1.863086
v -2.006719 0.000000 -1.863086
v -2.006719 0.000000 -1.985022
v -2.196318 0.900000 -1.863086
v -2.196318 0.900000 -2.654732
v -2.196318 0.000000 -2.654732
v -2.196318 0.000000 -1.863086
v -2.006719 0.900000 -2.654732
v -2.006719 0.900000 -2.076304
v -2.006719 0.000000 -2.076304
v -2.006719 0.000000 -2.654732
v -2.006719 0.900000 -4.559768
v -2.006719 0.900000 -4.314837
v -2.006719 0.000000 -4.314837
v -2.006719 0.000000 -4.559768
v -2.196318 0.900000 -4.314837
v -2.196318 0.900000 -5.111079
v -2.196318 0.000000 -5.111079
v -2.196318 0.000000 -4.314837
v -2.006719 0.900000 -5.111079
v -2.006719 0.900000 -4.650871
v -2.006719 0.000000 -4.650871
v -2.006719 0.000000 -5.111079
v -2.006719 0.900000 -6.787990
v -2.006719 0.000000 -6.787990
v 2.519184 0.900000 -5.670222
v 2.519184 0.000000 -5.670222
v 2.657546 0.900000 -5.798833
v 2.657546 0.000000 -5.798833
v 3.298900 0.900000 -5.670226
v 3.298900 0.000000 -5.670226
v 3.919531 0.900000 -5.798833
v 3.919531 0.000000 -5.798833
v 4.823042 0.900000 -5.798833
v 4.823042 0.000000 -5.798833
v 4.823042 0.900000 -5.670237
v 4.823042 0.000000 -5.670237
v 5.119928 0.900000 -7.059118
v 5.119928 0.000000 -7.059118
v 3.298880 0.900000 -4.559768
v 3.298880 0.000000 -4.559768
v 3.298880 0.900000 -4.650871
v 3.298880 0.000000 -4.650871
v 3.402272 0.900000 -4.709181
v 3.402272 0.900000 -3.955363
v 3.402272 0.000000 -3.955363
v 3.402272 0.000000 -4.709181
v 3.298880 0.900000 -4.709181
v 3.298880 0.000000 -4.709181
v 3.402272 0.900000 -5.588831
v 3.298880 0.900000 -5.588831
v 3.298880 0.000000 -5.588831
v 3.402272 0.000000 -5.588831
v 3.402253 0.900000 -5.670227
v 3.402253 0.000000 -5.670227
v 3.919531 0.900000 -5.670230
v 3.919531 0.000000 -5.670230
v 3.298880 0.900000 -3.955363
v 3.298880 0.000000 -3.955363
v 3.298880 0.900000 -3.071496
v 3.402272 0.900000 -3.071496
v 3.402272 0.000000 -3.071496
v 3.298880 0.000000 -3.071496
v 3.298880 0.900000 -2.076285
v 3.298880 0.000000 -2.076285
v 3.402272 0.900000 -1.288176
v 3.402272 0.000000 -1.288176
v 3.298880 0.900000 -1.288176
v 3.298880 0.900000 -1.985022
v 3.298880 0.000000 -1.985022
v 3.298880 0.000000 -1.288176
v 4.611906 0.900000 -1.831773
v 4.611906 0.000000 -1.831773
v 4.740412 0.900000 0.672693
v 4.740412 -0.000000 0.672693
v 4.611906 0.900000 -1.209783
v 4.611906 0.000000 -1.209783
v 4.611721 0.900000 0.789214
v 4.611721 0.900000 -0.307971
v 4.611721 0.000000 -0.307971
v 4.611721 -0.000000 0.789214
v 4.740412 0.900000 0.789214
v 4.740412 -0.000000 0.789214
v 4.740412 0.900000 -0.307971
v 4.740412 0.000000 -0.307971
v 4.740283 0.900000 -1.209783
v 4.740283 0.000000 -1.209783
v 6.229623 0.900000 -1.210762
v 6.229623 0.000000 -1.210762
v 4.740412 0.900000 1.179162
v 4.740412 -0.000000 1.179162
v -2.196318 2.100000 -7.766536
v -0.996380 2.100000 -7.766536
v -2.196318 2.100000 -6.787990
v 2.519184 2.100000 -7.593463
v -2.006759 2.100000 -7.593463
v -0.808700 2.100000 -7.921504
v -0.808700 2.100000 -7.766536
v -0.996380 2.100000 -7.921504
v 5.774691 2.100000 -7.766536
v 5.119928 2.100000 -7.593463
v 2.657546 2.100000 -7.593463
v 5.774691 2.100000 -4.818664
v 5.610430 2.100000 -5.798833
v 5.610430 2.100000 -7.059118
v 5.610430 2.100000 -4.818664
v 5.610430 2.100000 -5.670242
v 5.610430 2.100000 -3.818668
v 5.774691 2.100000 -3.818668
v 5.610430 2.100000 -1.831773
v 5.774691 2.100000 -1.896238
v 6.229623 2.100000 -1.717530
v 4.740283 2.100000 -1.717530
v 6.886064 2.100000 -1.896238
v 6.886064 2.100000 0.067109
v 6.698743 2.100000 -0.115555
v 6.698743 2.100000 -1.210742
v 5.777688 2.100000 0.067109
v 5.603996 2.100000 -0.115555
v 5.603996 2.100000 0.672693
v 5.777688 2.100000 4.260256
v 5.603996 2.100000 5.444129
v 5.603996 2.100000 1.179181
v 5.921566 2.100000 4.446018
v 5.777688 2.100000 4.446018
v 5.921566 2.100000 4.260256
v 5.777688 2.100000 5.623495
v 4.592018 2.100000 5.623495
v 4.592018 2.100000 5.444129
v 2.937028 2.100000 5.444129
v 2.937028 2.100000 5.623495
v -0.810059 2.100000 5.444129
v -1.003294 2.100000 5.623495
v -1.003294 2.100000 2.850818
v -0.810059 2.100000 2.850818
v -0.810059 2.100000 1.203461
v -1.003294 2.100000 1.203461
v -0.810059 2.100000 0.788175
v -1.003294 2.100000 0.788175
v -2.006719 2.100000 0.597457
v 3.225563 2.100000 0.597457
v 3.402272 2.100000 0.788175
v 3.402272 2.100000 -0.402011
v 3.299031 2.100000 -0.402011
v 3.225563 2.100000 -0.402011
v -2.196318 2.100000 0.788175
v -2.196318 2.100000 -0.211194
v -2.006719 2.100000 -0.211194
v -2.006719 2.100000 -1.863086
v -2.196318 2.100000 -1.863086
v -2.006719 2.100000 -1.985022
v -2.196318 2.100000 -2.654732
v -2.006719 2.100000 -2.654732
v -2.006719 2.100000 -2.076304
v -2.006719 2.100000 -4.314837
v -2.196318 2.100000 -4.314837
v -2.006719 2.100000 -4.559768
v -2.196318 2.100000 -5.111079
v -2.006719 2.100000 -5.111079
v -2.006719 2.100000 -4.650871
v -2.006719 2.100000 -6.787990
v 2.519184 2.100000 -5.670222
v 2.657546 2.100000 -5.798833
v 3.298900 2.100000 -5.670226
v 3.919531 2.100000 -5.798833
v 4.823042 2.100000 -5.798833
v 4.823042 2.100000 -5.670237
v 5.119928 2.100000 -7.059118
v 3.298880 2.100000 -4.559768
v 3.298880 2.100000 -4.650871
v 3.402272 2.100000 -4.709181
v 3.402272 2.100000 -3.955363
v 3.298880 2.100000 -4.709181
v 3.402272 2.100000 -5.588831
v 3.298880 2.100000 -5.588831
v 3.402253 2.100000 -5.670227
v 3.919531 2.100000 -5.670230
v 3.298880 2.100000 -3.955363
v 3.298880 2.100000 -3.071496
v 3.402272 2.100000 -3.071496
v 3.298880 2.100000 -2.076285
v 3.402272 2.100000 -1.288356
v 3.298956 2.100000 -1.288356
v 3.298880 2.100000 -1.985022
v 4.611906 2.100000 -1.831773
v 4.740412 2.100000 0.672693
v 4.611906 2.100000 -1.209783
v 4.611721 2.100000 0.789214
v 4.611721 2.100000 -0.307971
v 4.740412 2.100000 0.789214
v 4.740412 2.100000 -0.307971
v 4.740283 2.100000 -1.209783
v 6.229623 2.100000 -1.210762
v 4.740412 2.100000 1.179162
v 3.299000 2.399999 -0.402011
v 3.299000 2.600000 -0.402011
v -6.886250 0.000000 -7.766536
v -6.886250 0.000000 -7.921504
v 5.777688 -0.000000 7.921460
v 5.921566 -0.000000 7.921460
vt 0.295464 0.001953
vt 0.344041 0.001953
vt 0.344041 0.078491
vt 0.295464 0.078491
vt 0.043809 0.121024
vt 0.043809 0.078491
vt 0.084947 0.078491
vt 0.084947 0.121024
vt 0.043809 0.218000
vt 0.084947 0.218000
vt 0.043809 0.223062
vt 0.084947 0.223062
vt 0.043809 0.297014
vt 0.043809 0.227642
vt 0.084947 0.227642
vt 0.084947 0.297014
vt 0.043809 0.506300
vt 0.043809 0.322018
vt 0.084947 0.322018
vt 0.084947 0.506300
vt 0.295464 0.223062
vt 0.344041 0.223062
vt 0.344041 0.227642
vt 0.295464 0.227642
vt 0.295464 0.297014
vt 0.344041 0.297014
vt 0.344041 0.322018
vt 0.295464 0.322018
vt 0.001953 0.297014
vt 0.001953 0.227642
vt 0.084947 0.001953
vt 0.043809 0.001953
vt 0.135113 0.078491
vt 0.135113 0.121024
vt 0.135113 0.218000
vt 0.135113 0.223062
vt 0.135113 0.227642
vt 0.135113 0.297014
vt 0.135113 0.322018
vt 0.135113 0.506300
vt 0.135113 0.001953
vt 0.163822 0.078491
vt 0.163822 0.121024
vt 0.163822 0.218000
vt 0.163822 0.223062
vt 0.163822 0.227642
vt 0.163822 0.297014
vt 0.163822 0.322018
vt 0.163822 0.506300
vt 0.163822 0.001953
vt 0.295464 0.121024
vt 0.295464 0.218000
vt 0.295464 0.506300
vt 0.344041 0.121024
vt 0.344041 0.218000
vt 0.344041 0.506300
vt 0.520705 0.001953
vt 0.520705 0.078491
vt 0.520705 0.121024
vt 0.520705 0.218000
vt 0.520705 0.223062
vt 0.520705 0.227642
vt 0.520705 0.297014
vt 0.520705 0.322018
vt 0.520705 0.506300
vt 0.344041 0.592856
vt 0.295464 0.592856
vt 0.084947 0.592856
vt 0.043809 0.592856
vt 0.135113 0.592856
vt 0.163822 0.592856
vt 0.520705 0.592856
vt 0.824981 0.506298
vt 0.824981 0.285191
vt 0.869910 0.285191
vt 0.869910 0.506298
vt 0.569678 0.211239
vt 0.824981 0.211239
vt 0.569678 0.285191
vt 0.569678 0.506298
vt 0.869910 0.211239
vt 0.569678 0.184080
vt 0.824981 0.184080
vt 0.869910 0.184080
vt 0.824981 0.001953
vt 0.569678 0.001953
vt 0.527822 0.211239
vt 0.527822 0.285191
vt 0.986693 0.194366
vt 0.986693 0.201899
vt 0.975591 0.201899
vt 0.975591 0.194366
vt 0.722907 0.948468
vt 0.722907 0.956002
vt 0.694434 0.956002
vt 0.694434 0.948468
vt 0.997106 0.092351
vt 0.997106 0.099884
vt 0.986004 0.099884
vt 0.986004 0.092351
vt 0.972824 0.663154
vt 0.972824 0.670687
vt 0.944351 0.670687
vt 0.944351 0.663154
vt 0.986693 0.137867
vt 0.975591 0.137867
vt 0.975591 0.103968
vt 0.986693 0.103968
vt 0.722907 0.891970
vt 0.694434 0.891970
vt 0.694434 0.858070
vt 0.722907 0.858070
vt 0.997106 0.035852
vt 0.986004 0.035852
vt 0.986004 0.001953
vt 0.997106 0.001953
vt 0.972824 0.606655
vt 0.944351 0.606655
vt 0.944351 0.572756
vt 0.972824 0.572756
vt 0.986693 0.183066
vt 0.975591 0.183066
vt 0.722907 0.937169
vt 0.694434 0.937169
vt 0.997106 0.081051
vt 0.986004 0.081051
vt 0.972824 0.651854
vt 0.944351 0.651854
vt 0.541959 0.379673
vt 0.541959 0.387206
vt 0.527822 0.387206
vt 0.527822 0.379673
vt 0.356814 0.990514
vt 0.356814 0.998047
vt 0.340383 0.998047
vt 0.340383 0.990514
vt 0.314350 0.907649
vt 0.314350 0.900116
vt 0.330781 0.900116
vt 0.330781 0.907649
vt 0.548648 0.111501
vt 0.548648 0.103968
vt 0.562785 0.103968
vt 0.562785 0.111501
vt 0.541959 0.323174
vt 0.527822 0.323174
vt 0.527822 0.289275
vt 0.541959 0.289275
vt 0.356814 0.934015
vt 0.340383 0.934015
vt 0.340383 0.900116
vt 0.356814 0.900116
vt 0.314350 0.964148
vt 0.330781 0.964148
vt 0.330781 0.998047
vt 0.314350 0.998047
vt 0.548648 0.168000
vt 0.562785 0.168000
vt 0.562785 0.201899
vt 0.548648 0.201899
vt 0.541959 0.368373
vt 0.527822 0.368373
vt 0.356814 0.979214
vt 0.340383 0.979214
vt 0.314350 0.918949
vt 0.330781 0.918949
vt 0.548648 0.122801
vt 0.562785 0.122801
vt 0.548648 0.009486
vt 0.548648 0.001953
vt 0.563797 0.001953
vt 0.563797 0.009486
vt 0.773720 0.984157
vt 0.773720 0.991690
vt 0.756913 0.991690
vt 0.756913 0.984157
vt 0.782946 0.901292
vt 0.782946 0.893759
vt 0.799753 0.893759
vt 0.799753 0.901292
vt 0.542970 0.092351
vt 0.542970 0.099884
vt 0.527822 0.099884
vt 0.527822 0.092351
vt 0.548648 0.065985
vt 0.563797 0.065985
vt 0.563797 0.099884
vt 0.548648 0.099884
vt 0.773720 0.927658
vt 0.756913 0.927658
vt 0.756913 0.893759
vt 0.773720 0.893759
vt 0.782946 0.957791
vt 0.799753 0.957791
vt 0.799753 0.991690
vt 0.782946 0.991690
vt 0.542970 0.035852
vt 0.527822 0.035852
vt 0.527822 0.001953
vt 0.542970 0.001953
vt 0.548648 0.020786
vt 0.563797 0.020786
vt 0.773720 0.972857
vt 0.756913 0.972857
vt 0.782946 0.912592
vt 0.799753 0.912592
vt 0.542970 0.081051
vt 0.527822 0.081051
vt 0.557525 0.495991
vt 0.557525 0.497471
vt 0.548648 0.497471
vt 0.548648 0.495991
vt 0.001953 0.512365
vt 0.001953 0.505127
vt 0.003433 0.505127
vt 0.003433 0.512365
vt 0.516414 0.596939
vt 0.516414 0.767413
vt 0.508881 0.767413
vt 0.508881 0.596939
vt 0.549795 0.596810
vt 0.549795 0.598289
vt 0.548648 0.598289
vt 0.548648 0.596810
vt 0.001953 0.573972
vt 0.001953 0.572492
vt 0.003341 0.572492
vt 0.003341 0.573972
vt 0.539381 0.596810
vt 0.539381 0.598289
vt 0.538235 0.598289
vt 0.538235 0.596810
vt 0.649708 0.655602
vt 0.651187 0.655602
vt 0.651187 0.704302
vt 0.649708 0.704302
vt 0.969413 0.255095
vt 0.969413 0.262629
vt 0.876665 0.262629
vt 0.876665 0.255095
vt 0.675741 0.655602
vt 0.677220 0.655602
vt 0.677220 0.677409
vt 0.675741 0.677409
vt 0.840219 0.883899
vt 0.840219 0.876365
vt 0.887689 0.876365
vt 0.887689 0.883899
vt 0.930617 0.622885
vt 0.938150 0.622885
vt 0.938150 0.654961
vt 0.930617 0.654961
vt 0.938150 0.510382
vt 0.938150 0.585220
vt 0.930617 0.585220
vt 0.930617 0.510382
vt 0.675741 0.684806
vt 0.677220 0.684806
vt 0.677220 0.699027
vt 0.675741 0.699027
vt 0.413276 0.873511
vt 0.469373 0.873511
vt 0.469373 0.881044
vt 0.413276 0.881044
vt 0.567283 0.535285
vt 0.567283 0.536764
vt 0.559062 0.536764
vt 0.559062 0.535285
vt 0.542345 0.492225
vt 0.542345 0.493704
vt 0.527822 0.493704
vt 0.527822 0.492225
vt 0.475756 0.881044
vt 0.475756 0.873511
vt 0.517007 0.873511
vt 0.517007 0.881044
vt 0.582880 0.535285
vt 0.582880 0.536764
vt 0.574681 0.536764
vt 0.574681 0.535285
vt 0.938726 0.974296
vt 0.897492 0.974296
vt 0.897492 0.966763
vt 0.938726 0.966763
vt 0.031643 0.399029
vt 0.001953 0.399029
vt 0.001953 0.391495
vt 0.031643 0.391495
vt 0.894419 0.470742
vt 0.895898 0.470742
vt 0.895898 0.501760
vt 0.894419 0.501760
vt 0.620546 0.757727
vt 0.620546 0.918369
vt 0.613013 0.918369
vt 0.613013 0.757727
vt 0.591366 0.535285
vt 0.591366 0.536764
vt 0.590301 0.536764
vt 0.590301 0.535285
vt 0.529196 0.596810
vt 0.529196 0.598289
vt 0.527822 0.598289
vt 0.527822 0.596810
vt 0.559062 0.580536
vt 0.559062 0.579057
vt 0.560126 0.579057
vt 0.560126 0.580536
vt 0.543442 0.519011
vt 0.543442 0.517531
vt 0.552152 0.517531
vt 0.552152 0.519011
vt 0.956898 0.103968
vt 0.958378 0.103968
vt 0.958378 0.112739
vt 0.956898 0.112739
vt 0.722352 0.713855
vt 0.729885 0.713855
vt 0.729885 0.751972
vt 0.722352 0.751972
vt 0.722352 0.510382
vt 0.729885 0.510382
vt 0.729885 0.651519
vt 0.722352 0.651519
vt 0.956898 0.124981
vt 0.958378 0.124981
vt 0.958378 0.154129
vt 0.956898 0.154129
vt 0.701774 0.655602
vt 0.703254 0.655602
vt 0.703254 0.676113
vt 0.701774 0.676113
vt 0.826485 0.791996
vt 0.834018 0.791996
vt 0.834018 0.889675
vt 0.826485 0.889675
vt 0.826485 0.714305
vt 0.834018 0.714305
vt 0.834018 0.729947
vt 0.826485 0.729947
vt 0.701774 0.688299
vt 0.703254 0.688299
vt 0.703254 0.691371
vt 0.701774 0.691371
vt 0.412281 0.596939
vt 0.412281 0.794017
vt 0.404748 0.794017
vt 0.404748 0.596939
vt 0.932944 0.001953
vt 0.932944 0.160614
vt 0.925410 0.160614
vt 0.925410 0.001953
vt 0.625752 0.708814
vt 0.625752 0.753643
vt 0.618219 0.753643
vt 0.618219 0.708814
vt 0.939145 0.781884
vt 0.939145 0.774351
vt 0.976791 0.774351
vt 0.976791 0.781884
vt 0.536647 0.535285
vt 0.536647 0.536764
vt 0.527822 0.536764
vt 0.527822 0.535285
vt 0.003433 0.568409
vt 0.001953 0.568409
vt 0.001953 0.561016
vt 0.003433 0.561016
vt 0.240676 0.891261
vt 0.240676 0.898794
vt 0.210218 0.898794
vt 0.210218 0.891261
vt 0.307489 0.891261
vt 0.307489 0.898794
vt 0.302896 0.898794
vt 0.302896 0.891261
vt 0.003433 0.548797
vt 0.001953 0.548797
vt 0.001953 0.542940
vt 0.003433 0.542940
vt 0.862006 0.864748
vt 0.862006 0.872282
vt 0.840219 0.872282
vt 0.840219 0.864748
vt 0.933761 0.864748
vt 0.933761 0.872282
vt 0.924535 0.872282
vt 0.924535 0.864748
vt 0.003433 0.530660
vt 0.001953 0.530660
vt 0.001953 0.524770
vt 0.003433 0.524770
vt 0.092351 0.894364
vt 0.099884 0.894364
vt 0.099884 0.911698
vt 0.092351 0.911698
vt 0.092351 0.800863
vt 0.099884 0.800863
vt 0.099884 0.831201
vt 0.092351 0.831201
vt 0.490923 0.869427
vt 0.418483 0.869427
vt 0.418483 0.861894
vt 0.490923 0.861894
vt 0.631954 0.763589
vt 0.631954 0.756056
vt 0.699550 0.756056
vt 0.699550 0.763589
vt 0.031322 0.501043
vt 0.001953 0.501043
vt 0.001953 0.493510
vt 0.031322 0.493510
vt 0.930617 0.659044
vt 0.938150 0.659044
vt 0.938150 0.706578
vt 0.930617 0.706578
vt 0.930617 0.740609
vt 0.938150 0.740609
vt 0.938150 0.770267
vt 0.930617 0.770267
vt 0.876665 0.376260
vt 0.876665 0.368727
vt 0.906323 0.368727
vt 0.906323 0.376260
vt 0.933238 0.489574
vt 0.913112 0.489574
vt 0.913112 0.482041
vt 0.933238 0.482041
vt 0.723322 0.853987
vt 0.704847 0.853987
vt 0.704847 0.846454
vt 0.723322 0.846454
vt 0.196483 0.596939
vt 0.204017 0.596939
vt 0.204017 0.796779
vt 0.196483 0.796779
vt 0.092351 0.596939
vt 0.099884 0.596939
vt 0.099884 0.796779
vt 0.092351 0.796779
vt 0.625752 0.546580
vt 0.625752 0.574973
vt 0.618219 0.574973
vt 0.618219 0.546580
vt 0.977540 0.092351
vt 0.977540 0.099884
vt 0.975343 0.099884
vt 0.975343 0.092351
vt 0.618219 0.510382
vt 0.625752 0.510382
vt 0.625752 0.513448
vt 0.618219 0.513448
vt 0.942211 0.092351
vt 0.942211 0.099884
vt 0.939145 0.099884
vt 0.939145 0.092351
vt 0.940355 0.376260
vt 0.940355 0.368727
vt 0.959838 0.368727
vt 0.959838 0.376260
vt 0.337116 0.888499
vt 0.337116 0.896032
vt 0.314350 0.896032
vt 0.314350 0.888499
vt 0.407893 0.888499
vt 0.407893 0.896032
vt 0.370407 0.896032
vt 0.370407 0.888499
vt 0.618219 0.608264
vt 0.625752 0.608264
vt 0.625752 0.675430
vt 0.618219 0.675430
vt 0.660132 0.865604
vt 0.660132 0.858070
vt 0.686375 0.858070
vt 0.686375 0.865604
vt 0.300616 0.596939
vt 0.308149 0.596939
vt 0.308149 0.796779
vt 0.300616 0.796779
vt 0.826485 0.510382
vt 0.834018 0.510382
vt 0.834018 0.710221
vt 0.826485 0.710221
vt 0.981962 0.568673
vt 0.944351 0.568673
vt 0.944351 0.561139
vt 0.981962 0.561139
vt 0.034481 0.099884
vt 0.001953 0.099884
vt 0.001953 0.092351
vt 0.034481 0.092351
vt 0.204017 0.876156
vt 0.204017 0.899584
vt 0.196483 0.899584
vt 0.196483 0.876156
vt 0.196483 0.800863
vt 0.204017 0.800863
vt 0.204017 0.842189
vt 0.196483 0.842189
vt 0.996058 0.564759
vt 0.996058 0.572292
vt 0.991211 0.572292
vt 0.991211 0.564759
vt 0.913603 0.357110
vt 0.913603 0.364643
vt 0.876665 0.364643
vt 0.876665 0.357110
vt 0.966695 0.357110
vt 0.966695 0.364643
vt 0.947570 0.364643
vt 0.947570 0.357110
vt 0.963439 0.974296
vt 0.944351 0.974296
vt 0.944351 0.966763
vt 0.963439 0.966763
vt 0.748550 0.991690
vt 0.730880 0.991690
vt 0.730880 0.984157
vt 0.748550 0.984157
vt 0.542510 0.201899
vt 0.527822 0.201899
vt 0.527822 0.194366
vt 0.542510 0.194366
vt 0.034481 0.201899
vt 0.001953 0.201899
vt 0.001953 0.194366
vt 0.034481 0.194366
vt 0.557525 0.484895
vt 0.548648 0.484895
vt 0.548648 0.478238
vt 0.557525 0.478238
vt 0.014529 0.512365
vt 0.014529 0.505127
vt 0.021186 0.505127
vt 0.021186 0.512365
vt 0.452382 0.596939
vt 0.452382 0.767413
vt 0.418483 0.767413
vt 0.418483 0.596939
vt 0.549795 0.585714
vt 0.548648 0.585714
vt 0.548648 0.579057
vt 0.549795 0.579057
vt 0.001953 0.585068
vt 0.003341 0.585068
vt 0.003341 0.591725
vt 0.001953 0.591725
vt 0.638612 0.655602
vt 0.638612 0.704302
vt 0.631954 0.704302
vt 0.631954 0.655602
vt 0.969413 0.198597
vt 0.876665 0.198597
vt 0.876665 0.164698
vt 0.969413 0.164698
vt 0.664645 0.655602
vt 0.664645 0.677409
vt 0.657987 0.677409
vt 0.657987 0.655602
vt 0.840219 0.940397
vt 0.887689 0.940397
vt 0.887689 0.974296
vt 0.840219 0.974296
vt 0.874118 0.622885
vt 0.874118 0.654961
vt 0.840219 0.654961
vt 0.840219 0.622885
vt 0.997398 0.425078
vt 0.991211 0.425078
vt 0.991211 0.391179
vt 0.997398 0.391179
vt 0.991211 0.353196
vt 0.997398 0.353196
vt 0.997398 0.387095
vt 0.991211 0.387095
vt 0.874118 0.510382
vt 0.874118 0.585220
vt 0.840219 0.585220
vt 0.840219 0.510382
vt 0.664645 0.684806
vt 0.664645 0.699027
vt 0.657987 0.699027
vt 0.657987 0.684806
vt 0.413276 0.937543
vt 0.469373 0.937543
vt 0.469373 0.971442
vt 0.413276 0.971442
vt 0.567283 0.524189
vt 0.559062 0.524189
vt 0.559062 0.517531
vt 0.567283 0.517531
vt 0.542345 0.481129
vt 0.527822 0.481129
vt 0.527822 0.474471
vt 0.542345 0.474471
vt 0.475756 0.937543
vt 0.517007 0.937543
vt 0.517007 0.971442
vt 0.475756 0.971442
vt 0.582880 0.524189
vt 0.574681 0.524189
vt 0.574681 0.517531
vt 0.582880 0.517531
vt 0.938726 0.910265
vt 0.897492 0.910265
vt 0.897492 0.876365
vt 0.938726 0.876365
vt 0.031643 0.334997
vt 0.001953 0.334997
vt 0.001953 0.301097
vt 0.031643 0.301097
vt 0.883323 0.470742
vt 0.883323 0.501760
vt 0.876665 0.501760
vt 0.876665 0.470742
vt 0.556514 0.757727
vt 0.556514 0.918369
vt 0.522615 0.918369
vt 0.522615 0.757727
vt 0.000000 0.000000
vt 0.000000 0.000000
vt 0.000000 0.000000
vt 0.000000 0.000000
vt 0.529196 0.585714
vt 0.527822 0.585714
vt 0.527822 0.579057
vt 0.529196 0.579057
vt 0.559062 0.591632
vt 0.560126 0.591632
vt 0.560126 0.598289
vt 0.559062 0.598289
vt 0.543442 0.530107
vt 0.552152 0.530107
vt 0.552152 0.536764
vt 0.543442 0.536764
vt 0.945803 0.103968
vt 0.945803 0.112739
vt 0.939145 0.112739
vt 0.939145 0.103968
vt 0.665854 0.713855
vt 0.665854 0.751972
vt 0.631954 0.751972
vt 0.631954 0.713855
vt 0.555404 0.417655
vt 0.548648 0.417655
vt 0.548648 0.383756
vt 0.555404 0.383756
vt 0.975591 0.356963
vt 0.982347 0.356963
vt 0.982347 0.390862
vt 0.975591 0.390862
vt 0.665854 0.510382
vt 0.665854 0.651519
vt 0.631954 0.651519
vt 0.631954 0.510382
vt 0.945803 0.124981
vt 0.945803 0.154129
vt 0.939145 0.154129
vt 0.939145 0.124981
vt 0.690678 0.655602
vt 0.690678 0.676113
vt 0.684020 0.676113
vt 0.684020 0.655602
vt 0.769986 0.791996
vt 0.769986 0.889675
vt 0.736087 0.889675
vt 0.736087 0.791996
vt 0.555927 0.323174
vt 0.548648 0.323174
vt 0.548648 0.289275
vt 0.555927 0.289275
vt 0.975591 0.262481
vt 0.982870 0.262481
vt 0.982870 0.296380
vt 0.975591 0.296380
vt 0.769986 0.714305
vt 0.769986 0.729947
vt 0.736087 0.729947
vt 0.736087 0.714305
vt 0.690678 0.688299
vt 0.690678 0.691371
vt 0.684020 0.691371
vt 0.684020 0.688299
vt 0.348250 0.596939
vt 0.348250 0.794017
vt 0.314350 0.794017
vt 0.314350 0.596939
vt 0.868912 0.001953
vt 0.868912 0.160614
vt 0.835012 0.160614
vt 0.835012 0.001953
vt 0.561721 0.708814
vt 0.561721 0.753643
vt 0.527822 0.753643
vt 0.527822 0.708814
vt 0.995099 0.239882
vt 0.991211 0.239882
vt 0.991211 0.205982
vt 0.995099 0.205982
vt 0.939145 0.838382
vt 0.976791 0.838382
vt 0.976791 0.872282
vt 0.939145 0.872282
vt 0.536647 0.524189
vt 0.527822 0.524189
vt 0.527822 0.517531
vt 0.536647 0.517531
vt 0.014529 0.568409
vt 0.014529 0.561016
vt 0.021186 0.561016
vt 0.021186 0.568409
vt 0.240676 0.834762
vt 0.210218 0.834762
vt 0.210218 0.800863
vt 0.240676 0.800863
vt 0.307489 0.834762
vt 0.302896 0.834762
vt 0.302896 0.800863
vt 0.307489 0.800863
vt 0.014529 0.548797
vt 0.014529 0.542940
vt 0.021186 0.542940
vt 0.021186 0.548797
vt 0.862006 0.808250
vt 0.840219 0.808250
vt 0.840219 0.774351
vt 0.862006 0.774351
vt 0.933761 0.808250
vt 0.924535 0.808250
vt 0.924535 0.774351
vt 0.933761 0.774351
vt 0.014529 0.530660
vt 0.014529 0.524770
vt 0.021186 0.524770
vt 0.021186 0.530660
vt 0.035852 0.894364
vt 0.035852 0.911698
vt 0.001953 0.911698
vt 0.001953 0.894364
vt 0.035852 0.800863
vt 0.035852 0.831201
vt 0.001953 0.831201
vt 0.001953 0.800863
vt 0.490923 0.805396
vt 0.418483 0.805396
vt 0.418483 0.771496
vt 0.490923 0.771496
vt 0.631954 0.820088
vt 0.699550 0.820088
vt 0.699550 0.853987
vt 0.631954 0.853987
vt 0.031322 0.437011
vt 0.001953 0.437011
vt 0.001953 0.403112
vt 0.031322 0.403112
vt 0.874118 0.659044
vt 0.874118 0.706578
vt 0.840219 0.706578
vt 0.840219 0.659044
vt 0.874118 0.740609
vt 0.874118 0.770267
vt 0.840219 0.770267
vt 0.840219 0.740609
vt 0.501426 0.805396
vt 0.496582 0.805396
vt 0.496582 0.771496
vt 0.501426 0.771496
vt 0.876665 0.432759
vt 0.906323 0.432759
vt 0.906323 0.466658
vt 0.876665 0.466658
vt 0.933238 0.425543
vt 0.913112 0.425543
vt 0.913112 0.391643
vt 0.933238 0.391643
vt 0.723322 0.789955
vt 0.704847 0.789955
vt 0.704847 0.756056
vt 0.723322 0.756056
vt 0.139985 0.596939
vt 0.139985 0.796779
vt 0.106086 0.796779
vt 0.106086 0.596939
vt 0.035852 0.596939
vt 0.035852 0.796779
vt 0.001953 0.796779
vt 0.001953 0.596939
vt 0.561721 0.546580
vt 0.561721 0.574973
vt 0.527822 0.574973
vt 0.527822 0.546580
vt 0.172459 0.937567
vt 0.168565 0.937567
vt 0.168565 0.903668
vt 0.172459 0.903668
vt 0.977540 0.035852
vt 0.975343 0.035852
vt 0.975343 0.001953
vt 0.977540 0.001953
vt 0.027986 0.550326
vt 0.031881 0.550326
vt 0.031881 0.584225
vt 0.027986 0.584225
vt 0.561721 0.510382
vt 0.561721 0.513448
vt 0.527822 0.513448
vt 0.527822 0.510382
vt 0.942211 0.035852
vt 0.939145 0.035852
vt 0.939145 0.001953
vt 0.942211 0.001953
vt 0.538235 0.436488
vt 0.543079 0.436488
vt 0.543079 0.470388
vt 0.538235 0.470388
vt 0.940355 0.432759
vt 0.959838 0.432759
vt 0.959838 0.466658
vt 0.940355 0.466658
vt 0.337116 0.832000
vt 0.314350 0.832000
vt 0.314350 0.798101
vt 0.337116 0.798101
vt 0.182873 0.937567
vt 0.178978 0.937567
vt 0.178978 0.903668
vt 0.182873 0.903668
vt 0.001953 0.960980
vt 0.005847 0.960980
vt 0.005847 0.994880
vt 0.001953 0.994880
vt 0.407893 0.832000
vt 0.370407 0.832000
vt 0.370407 0.798101
vt 0.407893 0.798101
vt 0.561721 0.608264
vt 0.561721 0.675430
vt 0.527822 0.675430
vt 0.527822 0.608264
vt 0.660132 0.922102
vt 0.686375 0.922102
vt 0.686375 0.956000
vt 0.660132 0.956000
vt 0.193285 0.937567
vt 0.189391 0.937567
vt 0.189391 0.903668
vt 0.193285 0.903668
vt 0.244117 0.596939
vt 0.244117 0.796779
vt 0.210218 0.796779
vt 0.210218 0.596939
vt 0.769986 0.510382
vt 0.769986 0.710221
vt 0.736087 0.710221
vt 0.736087 0.510382
vt 0.981962 0.504641
vt 0.944351 0.504641
vt 0.944351 0.470742
vt 0.981962 0.470742
vt 0.034481 0.035852
vt 0.001953 0.035852
vt 0.001953 0.001953
vt 0.034481 0.001953
vt 0.139985 0.876156
vt 0.139985 0.899584
vt 0.106086 0.899584
vt 0.106086 0.876156
vt 0.139985 0.800863
vt 0.139985 0.842189
vt 0.106086 0.842189
vt 0.106086 0.800863
vt 0.996058 0.508260
vt 0.991211 0.508260
vt 0.991211 0.474361
vt 0.996058 0.474361
vt 0.913603 0.300611
vt 0.876665 0.300611
vt 0.876665 0.266712
vt 0.913603 0.266712
vt 0.532669 0.425189
vt 0.527822 0.425189
vt 0.527822 0.391289
vt 0.532669 0.391289
vt 0.511831 0.805396
vt 0.506995 0.805396
vt 0.506995 0.771496
vt 0.511831 0.771496
vt 0.966695 0.300611
vt 0.947570 0.300611
vt 0.947570 0.266712
vt 0.966695 0.266712
vt 0.963439 0.910265
vt 0.944351 0.910265
vt 0.944351 0.876365
vt 0.963439 0.876365
vt 0.748550 0.927658
vt 0.730880 0.927658
vt 0.730880 0.893759
vt 0.748550 0.893759
vt 0.542510 0.137867
vt 0.527822 0.137867
vt 0.527822 0.103968
vt 0.542510 0.103968
vt 0.034481 0.137867
vt 0.001953 0.137867
vt 0.001953 0.103968
vt 0.034481 0.103968
vt 0.557525 0.493772
vt 0.548648 0.493772
vt 0.005652 0.512365
vt 0.005652 0.505127
vt 0.497581 0.596939
vt 0.497581 0.767413
vt 0.549795 0.594591
vt 0.548648 0.594591
vt 0.001953 0.576191
vt 0.003341 0.576191
vt 0.539381 0.594591
vt 0.538235 0.594591
vt 0.538235 0.585714
vt 0.539381 0.585714
vt 0.647489 0.655602
vt 0.647489 0.704302
vt 0.969413 0.243796
vt 0.876665 0.243796
vt 0.673522 0.655602
vt 0.673522 0.677409
vt 0.840219 0.895198
vt 0.887689 0.895198
vt 0.919317 0.622885
vt 0.919317 0.654961
vt 0.997398 0.470277
vt 0.991211 0.470277
vt 0.991211 0.307997
vt 0.997398 0.307997
vt 0.919317 0.510382
vt 0.919317 0.585220
vt 0.673522 0.684806
vt 0.673522 0.699027
vt 0.413276 0.892344
vt 0.469373 0.892344
vt 0.567283 0.533065
vt 0.559062 0.533065
vt 0.542345 0.490006
vt 0.527822 0.490006
vt 0.475756 0.892344
vt 0.517007 0.892344
vt 0.582880 0.533065
vt 0.574681 0.533065
vt 0.938726 0.955463
vt 0.897492 0.955463
vt 0.031643 0.380196
vt 0.001953 0.380196
vt 0.892200 0.470742
vt 0.892200 0.501760
vt 0.601713 0.757727
vt 0.601713 0.918369
vt 0.591366 0.533065
vt 0.590301 0.533065
vt 0.590301 0.524189
vt 0.591366 0.524189
vt 0.529196 0.594591
vt 0.527822 0.594591
vt 0.559062 0.582755
vt 0.560126 0.582755
vt 0.543442 0.521230
vt 0.552152 0.521230
vt 0.954679 0.103968
vt 0.954679 0.112739
vt 0.711052 0.713855
vt 0.711052 0.751972
vt 0.555404 0.462854
vt 0.548648 0.462854
vt 0.975591 0.311764
vt 0.982347 0.311764
vt 0.711052 0.510382
vt 0.711052 0.651519
vt 0.954679 0.124981
vt 0.954679 0.154129
vt 0.699555 0.655602
vt 0.699555 0.676113
vt 0.815185 0.791996
vt 0.815185 0.889675
vt 0.555927 0.368373
vt 0.548648 0.368373
vt 0.975591 0.217282
vt 0.982870 0.217282
vt 0.815185 0.714305
vt 0.815185 0.729947
vt 0.699555 0.688299
vt 0.699555 0.691371
vt 0.393449 0.596939
vt 0.393449 0.794017
vt 0.914111 0.001953
vt 0.914111 0.160614
vt 0.606919 0.708814
vt 0.606919 0.753643
vt 0.995099 0.285081
vt 0.991211 0.285081
vt 0.939145 0.793184
vt 0.976791 0.793184
vt 0.536647 0.533065
vt 0.527822 0.533065
vt 0.005652 0.568409
vt 0.005652 0.561016
vt 0.240676 0.879961
vt 0.210218 0.879961
vt 0.113227 0.948867
vt 0.106086 0.948867
vt 0.106086 0.903668
vt 0.113227 0.903668
vt 0.986004 0.848536
vt 0.993146 0.848536
vt 0.993146 0.893735
vt 0.986004 0.893735
vt 0.307489 0.879961
vt 0.302896 0.879961
vt 0.005652 0.548797
vt 0.005652 0.542940
vt 0.862006 0.853449
vt 0.840219 0.853449
vt 0.993146 0.821853
vt 0.986004 0.821853
vt 0.986004 0.776654
vt 0.993146 0.776654
vt 0.121705 0.914968
vt 0.128847 0.914968
vt 0.128847 0.960167
vt 0.121705 0.960167
vt 0.933761 0.853449
vt 0.924535 0.853449
vt 0.005652 0.530660
vt 0.005652 0.524770
vt 0.081051 0.894364
vt 0.081051 0.911698
vt 0.144467 0.948867
vt 0.137325 0.948867
vt 0.137325 0.903668
vt 0.144467 0.903668
vt 0.160087 0.948867
vt 0.152945 0.948867
vt 0.152945 0.903668
vt 0.160087 0.903668
vt 0.081051 0.800863
vt 0.081051 0.831201
vt 0.490923 0.850595
vt 0.418483 0.850595
vt 0.631954 0.774889
vt 0.699550 0.774889
vt 0.031322 0.482210
vt 0.001953 0.482210
vt 0.919317 0.659044
vt 0.919317 0.706578
vt 0.919317 0.740609
vt 0.919317 0.770267
vt 0.501426 0.850595
vt 0.496582 0.850595
vt 0.876665 0.387560
vt 0.906323 0.387560
vt 0.933238 0.470742
vt 0.913112 0.470742
vt 0.723322 0.835154
vt 0.704847 0.835154
vt 0.185184 0.596939
vt 0.185184 0.796779
vt 0.081051 0.596939
vt 0.081051 0.796779
vt 0.606919 0.546580
vt 0.606919 0.574973
vt 0.172459 0.982766
vt 0.168565 0.982766
vt 0.977540 0.081051
vt 0.975343 0.081051
vt 0.027986 0.505127
vt 0.031881 0.505127
vt 0.606919 0.510382
vt 0.606919 0.513448
vt 0.942211 0.081051
vt 0.939145 0.081051
vt 0.538235 0.391289
vt 0.543079 0.391289
vt 0.940355 0.387560
vt 0.959838 0.387560
vt 0.337116 0.877199
vt 0.314350 0.877199
vt 0.182873 0.982766
vt 0.178978 0.982766
vt 0.001953 0.915781
vt 0.005847 0.915781
vt 0.407893 0.877199
vt 0.370407 0.877199
vt 0.606919 0.608264
vt 0.606919 0.675430
vt 0.660132 0.876903
vt 0.686375 0.876903
vt 0.193285 0.982766
vt 0.189391 0.982766
vt 0.289316 0.596939
vt 0.289316 0.796779
vt 0.815185 0.510382
vt 0.815185 0.710221
vt 0.981962 0.549840
vt 0.944351 0.549840
vt 0.034481 0.081051
vt 0.001953 0.081051
vt 0.185184 0.876156
vt 0.185184 0.899584
vt 0.185184 0.800863
vt 0.185184 0.842189
vt 0.996058 0.553459
vt 0.991211 0.553459
vt 0.913603 0.345810
vt 0.876665 0.345810
vt 0.532669 0.470388
vt 0.527822 0.470388
vt 0.511831 0.850595
vt 0.506995 0.850595
vt 0.966695 0.345810
vt 0.947570 0.345810
vt 0.963439 0.955463
vt 0.944351 0.955463
vt 0.748550 0.972857
vt 0.730880 0.972857
vt 0.542510 0.183066
vt 0.527822 0.183066
vt 0.034481 0.183066
vt 0.001953 0.183066
vt 0.555404 0.474154
vt 0.548648 0.474154
vt 0.975591 0.300464
vt 0.982347 0.300464
vt 0.555927 0.379673
vt 0.548648 0.379673
vt 0.975591 0.205982
vt 0.982870 0.205982
vt 0.113227 0.960167
vt 0.106086 0.960167
vt 0.986004 0.837237
vt 0.993146 0.837237
vt 0.993146 0.833153
vt 0.986004 0.833153
vt 0.121705 0.903668
vt 0.128847 0.903668
vt 0.144467 0.960167
vt 0.137325 0.960167
vt 0.160087 0.960167
vt 0.152945 0.960167
vt 0.736087 0.734031
vt 0.742274 0.734031
vt 0.742274 0.771696
vt 0.736087 0.771696
vt 0.992760 0.772571
vt 0.986004 0.772571
vt 0.986004 0.710234
vt 0.992760 0.710234
vt 0.956837 0.064002
vt 0.949558 0.064002
vt 0.949558 0.001953
vt 0.956837 0.001953
vt 0.951493 0.736991
vt 0.944351 0.736991
vt 0.944351 0.674771
vt 0.951493 0.674771
vt 0.967113 0.736991
vt 0.959971 0.736991
vt 0.959971 0.674771
vt 0.967113 0.674771
vt 0.987939 0.706150
vt 0.980798 0.706150
vt 0.980798 0.643621
vt 0.987939 0.643621
vt 0.930666 0.329241
vt 0.923525 0.329241
vt 0.923525 0.266712
vt 0.930666 0.266712
vt 0.987939 0.639538
vt 0.980798 0.639538
vt 0.980798 0.576375
vt 0.987939 0.576375
vt 0.972319 0.458108
vt 0.965178 0.458108
vt 0.965178 0.394945
vt 0.972319 0.394945
vt 0.751707 0.734031
vt 0.756550 0.734031
vt 0.756550 0.768062
vt 0.751707 0.768062
vt 0.793360 0.734031
vt 0.797254 0.734031
vt 0.797254 0.767163
vt 0.793360 0.767163
vt 0.782946 0.734031
vt 0.786841 0.734031
vt 0.786841 0.767322
vt 0.782946 0.767322
vt 0.762120 0.734031
vt 0.766961 0.734031
vt 0.766961 0.767998
vt 0.762120 0.767998
vt 0.997866 0.205982
vt 0.997866 0.239882
vt 0.997866 0.285081
vt 0.995099 0.296380
vt 0.997866 0.296380
vt 0.995099 0.303914
vt 0.997866 0.303914
vt 0.776423 0.767416
vt 0.772533 0.767416
vt 0.772533 0.734031
vt 0.776423 0.734031
vt 0.626748 0.876903
vt 0.626748 0.865604
vt 0.626748 0.858070
vt 0.000000 0.000000
vt 0.000000 0.000000
vt 0.000000 0.000000
vt 0.000000 0.000000
vn 0.0000 1.0000 0.0000
vn 0.0000 -1.0000 -0.0000
vn -1.0000 0.0000 0.0000
vn 0.0000 0.0000 1.0000
vn 1.0000 0.0000 0.0000
vn 0.0000 0.0000 -1.0000
vn 1.0000 0.0000 -0.0002
vn -1.0000 0.0000 -0.0002
vn -1.0000 0.0000 0.0001
vn 0.0000 0.0001 1.0000
vn 1.0000 0.0000 -0.0001
vn -1.0000 -0.0001 0.0001
s off
f 1/1/1 2/2/1 3/3/1 4/4/1
f 5/5/1 6/6/1 7/7/1 8/8/1
f 9/9/1 5/5/1 8/8/1 10/10/1
f 11/11/1 9/9/1 10/10/1 12/12/1
f 13/13/1 14/14/1 15/15/1 16/16/1
f 17/17/1 18/18/1 19/19/1 20/20/1
f 21/21/1 22/22/1 23/23/1 24/24/1
f 25/25/1 26/26/1 27/27/1 28/28/1
f 29/29/1 30/30/1 14/14/1 13/13/1
f 31/31/1 7/7/1 6/6/1 32/32/1
f 8/8/1 7/7/1 33/33/1 34/34/1
f 10/10/1 8/8/1 34/34/1 35/35/1
f 12/12/1 10/10/1 35/35/1 36/36/1
f 16/16/1 15/15/1 37/37/1 38/38/1
f 20/20/1 19/19/1 39/39/1 40/40/1
f 12/12/1 15/15/1 14/14/1 11/11/1
f 16/16/1 19/19/1 18/18/1 13/13/1
f 41/41/1 33/33/1 7/7/1 31/31/1
f 36/36/1 37/37/1 15/15/1 12/12/1
f 38/38/1 39/39/1 19/19/1 16/16/1
f 34/34/1 33/33/1 42/42/1 43/43/1
f 35/35/1 34/34/1 43/43/1 44/44/1
f 36/36/1 35/35/1 44/44/1 45/45/1
f 38/38/1 37/37/1 46/46/1 47/47/1
f 40/40/1 39/39/1 48/48/1 49/49/1
f 50/50/1 42/42/1 33/33/1 41/41/1
f 45/45/1 46/46/1 37/37/1 36/36/1
f 47/47/1 48/48/1 39/39/1 38/38/1
f 43/43/1 42/42/1 4/4/1 51/51/1
f 44/44/1 43/43/1 51/51/1 52/52/1
f 45/45/1 44/44/1 52/52/1 21/21/1
f 47/47/1 46/46/1 24/24/1 25/25/1
f 49/49/1 48/48/1 28/28/1 53/53/1
f 1/1/1 4/4/1 42/42/1 50/50/1
f 21/21/1 24/24/1 46/46/1 45/45/1
f 25/25/1 28/28/1 48/48/1 47/47/1
f 51/51/1 4/4/1 3/3/1 54/54/1
f 52/52/1 51/51/1 54/54/1 55/55/1
f 21/21/1 52/52/1 55/55/1 22/22/1
f 25/25/1 24/24/1 23/23/1 26/26/1
f 53/53/1 28/28/1 27/27/1 56/56/1
f 57/57/1 58/58/1 3/3/1 2/2/1
f 58/58/1 59/59/1 54/54/1 3/3/1
f 59/59/1 60/60/1 55/55/1 54/54/1
f 60/60/1 61/61/1 22/22/1 55/55/1
f 62/62/1 63/63/1 26/26/1 23/23/1
f 64/64/1 65/65/1 56/56/1 27/27/1
f 61/61/1 62/62/1 23/23/1 22/22/1
f 63/63/1 64/64/1 27/27/1 26/26/1
f 66/66/1 67/67/1 53/53/1 56/56/1
f 68/68/1 69/69/1 17/17/1 20/20/1
f 70/70/1 68/68/1 20/20/1 40/40/1
f 71/71/1 70/70/1 40/40/1 49/49/1
f 67/67/1 71/71/1 49/49/1 53/53/1
f 72/72/1 66/66/1 56/56/1 65/65/1
f 73/73/2 74/74/2 75/75/2 76/76/2
f 77/77/2 78/78/2 74/74/2 79/79/2
f 73/73/2 80/80/2 79/79/2 74/74/2
f 78/78/2 81/81/2 75/75/2 74/74/2
f 77/77/2 82/82/2 83/83/2 78/78/2
f 78/78/2 83/83/2 84/84/2 81/81/2
f 85/85/2 83/83/2 82/82/2 86/86/2
f 87/87/2 77/77/2 79/79/2 88/88/2
f 89/89/3 90/90/3 91/91/3 92/92/3
f 92/93/4 91/94/4 93/95/4 94/96/4
f 94/97/5 93/98/5 95/99/5 96/100/5
f 96/101/6 95/102/6 90/103/6 89/104/6
f 97/105/3 98/106/3 99/107/3 100/108/3
f 98/109/4 101/110/4 102/111/4 99/112/4
f 101/113/5 103/114/5 104/115/5 102/116/5
f 103/117/6 97/118/6 100/119/6 104/120/6
f 105/121/3 106/122/3 98/106/3 97/105/3
f 106/123/4 107/124/4 101/110/4 98/109/4
f 107/125/5 108/126/5 103/114/5 101/113/5
f 108/127/6 105/128/6 97/118/6 103/117/6
f 89/89/3 92/92/3 106/122/3 105/121/3
f 92/93/4 94/96/4 107/124/4 106/123/4
f 94/97/5 96/100/5 108/126/5 107/125/5
f 96/101/6 89/104/6 105/128/6 108/127/6
f 109/129/4 110/130/4 111/131/4 112/132/4
f 113/133/3 114/134/3 110/135/3 109/136/3
f 112/137/5 111/138/5 115/139/5 116/140/5
f 116/141/6 115/142/6 114/143/6 113/144/6
f 117/145/4 118/146/4 119/147/4 120/148/4
f 121/149/3 117/150/3 120/151/3 122/152/3
f 118/153/5 123/154/5 124/155/5 119/156/5
f 123/157/6 121/158/6 122/159/6 124/160/6
f 125/161/4 126/162/4 118/146/4 117/145/4
f 127/163/3 125/164/3 117/150/3 121/149/3
f 126/165/5 128/166/5 123/154/5 118/153/5
f 128/167/6 127/168/6 121/158/6 123/157/6
f 109/129/4 112/132/4 126/162/4 125/161/4
f 113/133/3 109/136/3 125/164/3 127/163/3
f 112/137/5 116/140/5 128/166/5 126/165/5
f 116/141/6 113/144/6 127/168/6 128/167/6
f 129/169/4 130/170/4 131/171/4 132/172/4
f 133/173/3 134/174/3 130/175/3 129/176/3
f 132/177/5 131/178/5 135/179/5 136/180/5
f 136/181/6 135/182/6 134/183/6 133/184/6
f 137/185/4 138/186/4 139/187/4 140/188/4
f 141/189/3 137/190/3 140/191/3 142/192/3
f 138/193/5 143/194/5 144/195/5 139/196/5
f 143/197/6 141/198/6 142/199/6 144/200/6
f 145/201/4 146/202/4 138/186/4 137/185/4
f 147/203/3 145/204/3 137/190/3 141/189/3
f 146/205/5 148/206/5 143/194/5 138/193/5
f 148/207/6 147/208/6 141/198/6 143/197/6
f 129/169/4 132/172/4 146/202/4 145/201/4
f 133/173/3 129/176/3 145/204/3 147/203/3
f 132/177/5 136/180/5 148/206/5 146/205/5
f 136/181/6 133/184/6 147/208/6 148/207/6
f 149/209/6 150/210/6 151/211/6 152/212/6
f 153/213/3 150/214/3 149/215/3 154/216/3
f 155/217/4 156/218/4 157/219/4 158/220/4
f 159/221/5 160/222/5 161/223/5 162/224/5
f 163/225/6 164/226/6 160/227/6 159/228/6
f 152/229/3 151/230/3 164/231/3 163/232/3
f 162/233/6 161/234/6 165/235/6 166/236/6
f 167/237/4 168/238/4 169/239/4 170/240/4
f 166/241/5 165/242/5 171/243/5 172/244/5
f 173/245/3 174/246/3 175/247/3 176/248/3
f 177/249/3 178/250/3 179/251/3 180/252/3
f 181/253/3 182/254/3 183/255/3 184/256/3
f 185/257/5 186/258/5 187/259/5 188/260/5
f 189/261/4 190/262/4 191/263/4 192/264/4
f 188/265/6 187/266/6 193/267/6 194/268/6
f 194/269/5 193/270/5 195/271/5 196/272/5
f 197/273/3 198/274/3 199/275/3 200/276/3
f 196/277/4 195/278/4 201/279/4 202/280/4
f 203/281/6 198/282/6 197/283/6 204/284/6
f 205/285/3 203/286/3 204/287/3 206/288/3
f 202/289/5 201/290/5 207/291/5 208/292/5
f 209/293/3 210/294/3 211/295/3 212/296/3
f 213/297/4 214/298/4 215/299/4 216/300/4
f 217/301/5 218/302/5 214/303/5 213/304/5
f 208/305/6 207/306/6 218/307/6 217/308/6
f 216/309/5 215/310/5 219/311/5 220/312/5
f 220/313/4 219/314/4 221/315/4 222/316/4
f 223/317/6 224/318/6 209/319/6 212/320/6
f 225/321/6 226/322/6 227/323/6 228/324/6
f 229/325/4 230/326/4 231/327/4 232/328/4
f 232/329/3 231/330/3 233/331/3 234/332/3
f 235/333/5 236/334/5 226/335/5 225/336/5
f 237/337/5 238/338/5 239/339/5 240/340/5
f 241/341/3 242/342/3 243/343/3 244/344/3
f 245/345/6 246/346/6 247/347/6 248/348/6
f 249/349/4 238/350/4 237/351/4 250/352/4
f 251/353/5 249/354/5 250/355/5 252/356/5
f 247/357/3 246/358/3 253/359/3 254/360/3
f 244/361/4 243/362/4 255/363/4 256/364/4
f 256/365/3 255/366/3 257/367/3 258/368/3
f 259/369/5 260/370/5 245/371/5 248/372/5
f 261/373/5 262/374/5 263/375/5 264/376/5
f 265/377/3 266/378/3 267/379/3 268/380/3
f 269/381/5 270/382/5 271/383/5 272/384/5
f 273/385/5 274/386/5 275/387/5 276/388/5
f 277/389/3 278/390/3 279/391/3 280/392/3
f 281/393/5 282/394/5 283/395/5 284/396/5
f 157/397/5 156/398/5 285/399/5 286/400/5
f 287/401/3 155/402/3 158/403/3 288/404/3
f 170/405/5 169/406/5 289/407/5 290/408/5
f 291/409/4 287/410/4 288/411/4 292/412/4
f 290/413/6 289/414/6 293/415/6 294/416/6
f 295/417/6 296/418/6 174/419/6 173/420/6
f 180/421/4 179/422/4 297/423/4 298/424/4
f 299/425/3 168/426/3 167/427/3 300/428/3
f 175/429/4 299/430/4 300/431/4 176/432/4
f 301/433/4 302/434/4 274/435/4 273/436/4
f 284/437/6 283/438/6 303/439/6 304/440/6
f 305/441/5 306/442/5 307/443/5 308/444/5
f 304/445/3 303/446/3 309/447/3 310/448/3
f 311/449/7 312/450/7 313/451/7 314/452/7
f 315/453/8 316/454/8 291/455/8 292/456/8
f 317/457/4 318/458/4 312/459/4 311/460/4
f 319/461/3 320/462/3 302/463/3 301/464/3
f 321/465/3 322/466/3 323/467/3 324/468/3
f 325/469/5 326/470/5 327/471/5 328/472/5
f 329/473/9 330/474/9 331/475/9 332/476/9
f 272/477/6 271/478/6 322/479/6 321/480/6
f 332/481/4 331/482/4 262/483/4 261/484/4
f 333/485/6 181/486/6 184/487/6 334/488/6
f 335/489/6 205/490/6 206/491/6 336/492/6
f 337/493/3 333/494/3 334/495/3 338/496/3
f 339/497/3 340/498/3 341/499/3 342/500/3
f 343/501/4 344/502/4 340/503/4 339/504/4
f 345/505/5 346/506/5 335/507/5 336/508/5
f 191/509/5 190/510/5 347/511/5 348/512/5
f 349/513/3 189/514/3 192/515/3 350/516/3
f 199/517/4 349/518/4 350/519/4 200/520/4
f 351/521/3 344/522/3 343/523/3 352/524/3
f 210/525/4 351/526/4 352/527/4 211/528/4
f 353/529/6 354/530/6 355/531/6 356/532/6
f 357/533/3 353/534/3 356/535/3 358/536/3
f 359/537/4 360/538/4 361/539/4 362/540/4
f 363/541/5 364/542/5 365/543/5 366/544/5
f 367/545/6 363/546/6 366/547/6 368/548/6
f 364/549/6 369/550/6 370/551/6 365/552/6
f 371/553/4 372/554/4 373/555/4 374/556/4
f 369/557/5 375/558/5 376/559/5 370/560/5
f 377/561/3 378/562/3 379/563/3 380/564/3
f 381/565/3 382/566/3 383/567/3 384/568/3
f 375/569/4 381/570/4 384/571/4 376/572/4
f 385/573/6 386/574/6 387/575/6 388/576/6
f 389/577/3 385/578/3 388/579/3 390/580/3
f 386/581/5 391/582/5 392/583/5 387/584/5
f 393/585/4 394/586/4 395/587/4 396/588/4
f 391/589/6 397/590/6 398/591/6 392/592/6
f 397/593/5 399/594/5 400/595/5 398/596/5
f 401/597/3 402/598/3 403/599/3 404/600/3
f 399/601/4 405/602/4 406/603/4 400/604/4
f 407/605/6 401/606/6 404/607/6 408/608/6
f 409/609/3 407/610/3 408/611/3 410/612/3
f 405/613/5 411/614/5 412/615/5 406/616/5
f 413/617/3 414/618/3 415/619/3 416/620/3
f 419/621/1 666/622/1 667/623/1 420/624/1
f 421/625/5 417/626/5 420/627/5 422/628/5
f 411/629/6 421/630/6 422/631/6 412/632/6
f 418/633/5 423/634/5 424/635/5 419/636/5
f 423/637/4 425/638/4 426/639/4 424/640/4
f 427/641/6 413/642/6 416/643/6 428/644/6
f 425/645/3 427/646/3 428/647/3 426/648/3
f 429/649/5 430/650/5 431/651/5 432/652/5
f 433/653/6 429/654/6 432/655/6 434/656/6
f 430/657/4 435/658/4 436/659/4 431/660/4
f 435/661/3 437/662/3 438/663/3 436/664/3
f 439/665/5 433/666/5 434/667/5 440/668/5
f 437/669/6 439/670/6 440/671/6 438/672/6
f 441/673/4 442/674/4 443/675/4 444/676/4
f 445/677/5 441/678/5 444/679/5 446/680/5
f 442/681/3 447/682/3 448/683/3 443/684/3
f 449/685/6 450/686/6 451/687/6 452/688/6
f 453/689/4 445/690/4 446/691/4 454/692/4
f 455/693/5 453/694/5 454/695/5 456/696/5
f 457/697/6 455/698/6 456/699/6 458/700/6
f 450/701/3 459/702/3 460/703/3 451/704/3
f 447/705/4 461/706/4 462/707/4 448/708/4
f 461/709/3 463/710/3 464/711/3 462/712/3
f 465/713/5 449/714/5 452/715/5 466/716/5
f 467/717/5 468/718/5 469/719/5 470/720/5
f 471/721/3 472/722/3 473/723/3 474/724/3
f 475/725/5 476/726/5 477/727/5 478/728/5
f 479/729/5 480/730/5 481/731/5 482/732/5
f 483/733/3 484/734/3 485/735/3 486/736/3
f 487/737/5 488/738/5 489/739/5 490/740/5
f 360/741/5 491/742/5 492/743/5 361/744/5
f 493/745/3 359/746/3 362/747/3 494/748/3
f 372/749/5 495/750/5 496/751/5 373/752/5
f 497/753/4 493/754/4 494/755/4 498/756/4
f 495/757/6 499/758/6 500/759/6 496/760/6
f 501/761/6 377/762/6 380/763/6 502/764/6
f 503/765/3 501/766/3 502/767/3 504/768/3
f 382/769/4 503/770/4 504/771/4 383/772/4
f 505/773/3 371/774/3 374/775/3 506/776/3
f 378/777/4 505/778/4 506/779/4 379/780/4
f 507/781/4 479/782/4 482/783/4 508/784/4
f 488/785/6 509/786/6 510/787/6 489/788/6
f 511/789/5 512/790/5 513/791/5 514/792/5
f 515/793/6 511/794/6 514/795/6 516/796/6
f 509/797/3 515/798/3 516/799/3 510/800/3
f 517/801/4 518/802/4 519/803/4 520/804/4
f 521/805/7 517/806/7 520/807/7 522/808/7
f 518/809/8 497/810/8 498/811/8 519/812/8
f 499/813/5 523/814/5 524/815/5 500/816/5
f 523/817/4 521/818/4 522/819/4 524/820/4
f 525/821/3 507/822/3 508/823/3 526/824/3
f 512/825/4 525/826/4 526/827/4 513/828/4
f 527/829/6 528/830/6 529/831/6 530/832/6
f 531/833/3 527/834/3 530/835/3 532/836/3
f 528/837/5 533/838/5 534/839/5 529/840/5
f 535/841/3 536/842/3 537/843/3 538/844/3
f 533/845/4 535/846/4 538/847/4 534/848/4
f 476/849/6 531/850/6 532/851/6 477/852/6
f 536/853/4 467/854/4 470/855/4 537/856/4
f 539/857/6 389/858/6 390/859/6 540/860/6
f 541/861/6 409/862/6 410/863/6 542/864/6
f 543/865/3 539/866/3 540/867/3 544/868/3
f 545/869/3 546/870/3 547/871/3 548/872/3
f 549/873/4 545/874/4 548/875/4 550/876/4
f 551/877/5 541/878/5 542/879/5 552/880/5
f 546/881/6 551/882/6 552/883/6 547/884/6
f 553/885/4 543/886/4 544/887/4 554/888/4
f 394/889/5 553/890/5 554/891/5 395/892/5
f 555/893/3 393/894/3 396/895/3 556/896/3
f 402/897/4 555/898/4 556/899/4 403/900/4
f 557/901/3 549/902/3 550/903/3 558/904/3
f 414/905/4 557/906/4 558/907/4 415/908/4
f 559/909/6 560/910/6 354/530/6 353/529/6
f 561/911/3 559/912/3 353/534/3 357/533/3
f 562/913/4 563/914/4 360/538/4 359/537/4
f 564/915/5 565/916/5 364/542/5 363/541/5
f 566/917/6 564/918/6 363/546/6 367/545/6
f 560/919/3 566/920/3 367/921/3 354/922/3
f 565/923/6 567/924/6 369/550/6 364/549/6
f 568/925/4 569/926/4 372/554/4 371/553/4
f 567/927/5 570/928/5 375/558/5 369/557/5
f 571/929/3 572/930/3 378/562/3 377/561/3
f 573/931/3 574/932/3 382/566/3 381/565/3
f 570/933/4 573/934/4 381/570/4 375/569/4
f 575/935/6 576/936/6 386/574/6 385/573/6
f 577/937/3 575/938/3 385/578/3 389/577/3
f 576/939/5 578/940/5 391/582/5 386/581/5
f 579/941/4 580/942/4 394/586/4 393/585/4
f 578/943/6 581/944/6 397/590/6 391/589/6
f 581/945/5 582/946/5 399/594/5 397/593/5
f 583/947/3 584/948/3 402/598/3 401/597/3
f 582/949/4 585/950/4 405/602/4 399/601/4
f 586/951/6 583/952/6 401/606/6 407/605/6
f 587/953/3 586/954/3 407/610/3 409/609/3
f 585/955/5 588/956/5 411/614/5 405/613/5
f 589/957/3 590/958/3 414/618/3 413/617/3
f 591/959/4 592/960/4 418/961/4 417/962/4
f 593/963/5 591/964/5 417/626/5 421/625/5
f 588/965/6 593/966/6 421/630/6 411/629/6
f 592/967/5 594/968/5 423/634/5 418/633/5
f 594/969/4 595/970/4 425/638/4 423/637/4
f 596/971/6 589/972/6 413/642/6 427/641/6
f 595/973/3 596/974/3 427/646/3 425/645/3
f 597/975/5 598/976/5 430/650/5 429/649/5
f 599/977/6 597/978/6 429/654/6 433/653/6
f 598/979/4 600/980/4 435/658/4 430/657/4
f 600/981/3 601/982/3 437/662/3 435/661/3
f 602/983/5 599/984/5 433/666/5 439/665/5
f 601/985/6 602/986/6 439/670/6 437/669/6
f 603/987/4 604/988/4 442/674/4 441/673/4
f 605/989/5 603/990/5 441/678/5 445/677/5
f 604/991/3 606/992/3 447/682/3 442/681/3
f 607/993/6 608/994/6 450/686/6 449/685/6
f 609/995/4 605/996/4 445/690/4 453/689/4
f 610/997/5 609/998/5 453/694/5 455/693/5
f 611/999/6 610/1000/6 455/698/6 457/697/6
f 608/1001/3 612/1002/3 459/702/3 450/701/3
f 606/1003/4 613/1004/4 461/706/4 447/705/4
f 613/1005/3 614/1006/3 463/710/3 461/709/3
f 615/1007/5 607/1008/5 449/714/5 465/713/5
f 614/1009/6 615/1010/6 465/1011/6 463/1012/6
f 616/1013/4 617/1014/4 471/1015/4 468/1016/4
f 618/1017/5 616/1018/5 468/718/5 467/717/5
f 617/1019/3 619/1020/3 472/722/3 471/721/3
f 620/1021/5 621/1022/5 476/726/5 475/725/5
f 619/1023/6 620/1024/6 475/1025/6 472/1026/6
f 622/1027/4 623/1028/4 483/1029/4 480/1030/4
f 624/1031/5 622/1032/5 480/730/5 479/729/5
f 623/1033/3 625/1034/3 484/734/3 483/733/3
f 626/1035/5 627/1036/5 488/738/5 487/737/5
f 625/1037/6 626/1038/6 487/1039/6 484/1040/6
f 628/1041/4 561/1042/4 357/1043/4 491/1044/4
f 563/1045/5 628/1046/5 491/742/5 360/741/5
f 629/1047/3 562/1048/3 359/746/3 493/745/3
f 569/1049/5 630/1050/5 495/750/5 372/749/5
f 631/1051/4 629/1052/4 493/754/4 497/753/4
f 630/1053/6 632/1054/6 499/758/6 495/757/6
f 633/1055/6 571/1056/6 377/762/6 501/761/6
f 634/1057/3 633/1058/3 501/766/3 503/765/3
f 574/1059/4 634/1060/4 503/770/4 382/769/4
f 635/1061/3 568/1062/3 371/774/3 505/773/3
f 572/1063/4 635/1064/4 505/778/4 378/777/4
f 636/1065/4 624/1066/4 479/782/4 507/781/4
f 627/1067/6 637/1068/6 509/786/6 488/785/6
f 638/1069/5 639/1070/5 512/790/5 511/789/5
f 640/1071/6 638/1072/6 511/794/6 515/793/6
f 637/1073/3 640/1074/3 515/798/3 509/797/3
f 641/1075/4 642/1076/4 518/802/4 517/801/4
f 643/1077/7 641/1078/7 517/806/7 521/805/7
f 642/1079/8 631/1080/8 497/810/8 518/809/8
f 632/1081/5 644/1082/5 523/814/5 499/813/5
f 644/1083/4 643/1084/4 521/818/4 523/817/4
f 645/1085/3 636/1086/3 507/822/3 525/821/3
f 639/1087/4 645/1088/4 525/826/4 512/825/4
f 646/1089/6 647/1090/6 528/830/6 527/829/6
f 648/1091/3 646/1092/3 527/834/3 531/833/3
f 647/1093/5 649/1094/5 533/838/5 528/837/5
f 650/1095/9 651/1096/9 536/842/9 535/841/9
f 649/1097/10 650/1098/10 535/846/10 533/845/10
f 621/1099/6 648/1100/6 531/850/6 476/849/6
f 651/1101/4 618/1102/4 467/854/4 536/853/4
f 652/1103/6 577/1104/6 389/858/6 539/857/6
f 653/1105/6 587/1106/6 409/862/6 541/861/6
f 654/1107/3 652/1108/3 539/866/3 543/865/3
f 655/1109/3 656/1110/3 546/870/3 545/869/3
f 657/1111/4 655/1112/4 545/874/4 549/873/4
f 658/1113/5 653/1114/5 541/878/5 551/877/5
f 656/1115/6 658/1116/6 551/882/6 546/881/6
f 659/1117/4 654/1118/4 543/886/4 553/885/4
f 580/1119/5 659/1120/5 553/890/5 394/889/5
f 660/1121/3 579/1122/3 393/894/3 555/893/3
f 584/1123/4 660/1124/4 555/898/4 402/897/4
f 661/1125/3 657/1126/3 549/902/3 557/901/3
f 590/1127/4 661/1128/4 557/906/4 414/905/4
f 149/209/6 152/212/6 560/910/6 559/909/6
f 154/216/3 149/215/3 559/912/3 561/911/3
f 158/220/4 157/219/4 563/914/4 562/913/4
f 159/221/5 162/224/5 565/916/5 564/915/5
f 163/225/6 159/228/6 564/918/6 566/917/6
f 152/229/3 163/232/3 566/920/3 560/919/3
f 162/233/6 166/236/6 567/924/6 565/923/6
f 167/237/4 170/240/4 569/926/4 568/925/4
f 166/241/5 172/244/5 570/928/5 567/927/5
f 173/245/3 176/248/3 572/930/3 571/929/3
f 177/249/3 180/252/3 574/932/3 573/931/3
f 184/256/3 183/255/3 575/938/3 577/937/3
f 185/257/5 188/260/5 578/940/5 576/939/5
f 192/264/4 191/263/4 580/942/4 579/941/4
f 188/265/6 194/268/6 581/944/6 578/943/6
f 194/269/5 196/272/5 582/946/5 581/945/5
f 197/273/3 200/276/3 584/948/3 583/947/3
f 196/277/4 202/280/4 585/950/4 582/949/4
f 204/284/6 197/283/6 583/952/6 586/951/6
f 206/288/3 204/287/3 586/954/3 587/953/3
f 202/289/5 208/292/5 588/956/5 585/955/5
f 212/296/3 211/295/3 590/958/3 589/957/3
f 213/297/4 216/300/4 592/960/4 591/959/4
f 217/301/5 213/304/5 591/964/5 593/963/5
f 208/305/6 217/308/6 593/966/6 588/965/6
f 216/309/5 220/312/5 594/968/5 592/967/5
f 220/313/4 222/316/4 595/970/4 594/969/4
f 223/317/6 212/320/6 589/972/6 596/971/6
f 222/1129/3 223/1130/3 596/974/3 595/973/3
f 228/1131/5 229/1132/5 598/976/5 597/975/5
f 225/321/6 228/324/6 597/978/6 599/977/6
f 229/325/4 232/328/4 600/980/4 598/979/4
f 232/329/3 234/332/3 601/982/3 600/981/3
f 235/333/5 225/336/5 599/984/5 602/983/5
f 234/1133/6 235/1134/6 602/986/6 601/985/6
f 240/1135/4 241/1136/4 604/988/4 603/987/4
f 237/337/5 240/340/5 603/990/5 605/989/5
f 241/341/3 244/344/3 606/992/3 604/991/3
f 248/348/6 247/347/6 608/994/6 607/993/6
f 250/352/4 237/351/4 605/996/4 609/995/4
f 252/356/5 250/355/5 609/998/5 610/997/5
f 247/357/3 254/360/3 612/1002/3 608/1001/3
f 244/361/4 256/364/4 613/1004/4 606/1003/4
f 256/365/3 258/368/3 614/1006/3 613/1005/3
f 259/369/5 248/372/5 607/1008/5 615/1007/5
f 258/1137/6 259/1138/6 615/1010/6 614/1009/6
f 264/1139/4 265/1140/4 617/1014/4 616/1013/4
f 261/373/5 264/376/5 616/1018/5 618/1017/5
f 265/377/3 268/380/3 619/1020/3 617/1019/3
f 269/381/5 272/384/5 621/1022/5 620/1021/5
f 268/1141/6 269/1142/6 620/1024/6 619/1023/6
f 276/1143/4 277/1144/4 623/1028/4 622/1027/4
f 273/385/5 276/388/5 622/1032/5 624/1031/5
f 277/389/3 280/392/3 625/1034/3 623/1033/3
f 281/393/5 284/396/5 627/1036/5 626/1035/5
f 280/1145/6 281/1146/6 626/1038/6 625/1037/6
f 286/1147/4 154/1148/4 561/1042/4 628/1041/4
f 157/397/5 286/400/5 628/1046/5 563/1045/5
f 288/404/3 158/403/3 562/1048/3 629/1047/3
f 170/405/5 290/408/5 630/1050/5 569/1049/5
f 292/412/4 288/411/4 629/1052/4 631/1051/4
f 290/413/6 294/416/6 632/1054/6 630/1053/6
f 295/417/6 173/420/6 571/1056/6 633/1055/6
f 180/421/4 298/424/4 634/1060/4 574/1059/4
f 300/428/3 167/427/3 568/1062/3 635/1061/3
f 176/432/4 300/431/4 635/1064/4 572/1063/4
f 301/433/4 273/436/4 624/1066/4 636/1065/4
f 284/437/6 304/440/6 637/1068/6 627/1067/6
f 308/444/5 307/443/5 639/1070/5 638/1069/5
f 304/445/3 310/448/3 640/1074/3 637/1073/3
f 311/449/7 314/452/7 641/1078/7 643/1077/7
f 315/453/8 292/456/8 631/1080/8 642/1079/8
f 317/457/4 311/460/4 643/1084/4 644/1083/4
f 319/461/3 301/464/3 636/1086/3 645/1085/3
f 321/465/3 324/468/3 646/1092/3 648/1091/3
f 325/469/5 328/472/5 649/1094/5 647/1093/5
f 329/473/9 332/476/9 651/1096/9 650/1095/9
f 272/477/6 321/480/6 648/1100/6 621/1099/6
f 332/481/4 261/484/4 618/1102/4 651/1101/4
f 334/488/6 184/487/6 577/1104/6 652/1103/6
f 336/492/6 206/491/6 587/1106/6 653/1105/6
f 338/496/3 334/495/3 652/1108/3 654/1107/3
f 339/497/3 342/500/3 656/1110/3 655/1109/3
f 343/501/4 339/504/4 655/1112/4 657/1111/4
f 345/505/5 336/508/5 653/1114/5 658/1113/5
f 191/509/5 348/512/5 659/1120/5 580/1119/5
f 350/516/3 192/515/3 579/1122/3 660/1121/3
f 200/520/4 350/519/4 660/1124/4 584/1123/4
f 352/524/3 343/523/3 657/1126/3 661/1125/3
f 211/528/4 352/527/4 661/1128/4 590/1127/4
f 576/1149/2 575/1150/2 573/1151/2 570/1152/2
f 185/257/5 576/939/5 570/928/5 172/244/5
f 186/258/5 185/257/5 172/244/5 171/243/5
f 183/255/3 182/254/3 178/250/3 177/249/3
f 575/938/3 183/255/3 177/249/3 573/931/3
f 228/324/6 227/323/6 224/318/6 223/317/6
f 229/1153/2 228/1154/2 223/1155/2 222/1156/2
f 230/326/4 229/325/4 222/316/4 221/315/4
f 240/340/5 239/339/5 236/334/5 235/333/5
f 241/1157/2 240/1158/2 235/1159/2 234/1160/2
f 242/342/3 241/341/3 234/332/3 233/331/3
f 264/376/5 263/375/5 260/370/5 259/369/5
f 265/1161/2 264/1162/2 259/1163/2 258/1164/2
f 266/378/3 265/377/3 258/368/3 257/367/3
f 471/721/3 474/724/3 464/711/3 463/710/3
f 468/1165/1 471/1166/1 463/1167/1 465/1168/1
f 469/719/5 468/718/5 465/713/5 466/716/5
f 276/388/5 275/387/5 270/382/5 269/381/5
f 277/1169/2 276/1170/2 269/1171/2 268/1172/2
f 278/390/3 277/389/3 268/380/3 267/379/3
f 483/733/3 486/736/3 473/723/3 472/722/3
f 480/1173/1 483/1174/1 472/1175/1 475/1176/1
f 481/731/5 480/730/5 475/725/5 478/728/5
f 286/400/5 285/399/5 282/394/5 281/393/5
f 154/1177/2 286/1178/2 281/1179/2 280/1180/2
f 153/213/3 154/216/3 280/392/3 279/391/3
f 357/533/3 358/536/3 485/735/3 484/734/3
f 491/1181/1 357/1182/1 484/1183/1 487/1184/1
f 492/743/5 491/742/5 487/737/5 490/740/5
f 644/1185/2 632/1186/2 633/1187/2 634/1188/2
f 317/457/4 644/1083/4 634/1060/4 298/424/4
f 318/458/4 317/457/4 298/424/4 297/423/4
f 294/416/6 293/415/6 296/418/6 295/417/6
f 632/1054/6 294/416/6 295/417/6 633/1055/6
f 642/1189/2 641/1190/2 638/1191/2 640/1192/2
f 315/453/3 642/1079/3 640/1074/3 310/448/3
f 316/454/3 315/453/3 310/448/3 309/447/3
f 314/452/5 313/451/5 305/441/5 308/444/5
f 641/1078/5 314/452/5 308/444/5 638/1069/5
f 647/1193/2 646/1194/2 645/1195/2 639/1196/2
f 325/469/5 647/1093/5 639/1070/5 307/443/5
f 326/470/5 325/469/5 307/443/5 306/442/5
f 324/468/3 323/467/3 320/462/3 319/461/3
f 646/1092/3 324/468/3 319/461/3 645/1085/3
f 654/1197/2 659/1198/2 658/1199/2 656/1200/2
f 338/496/8 654/1107/8 656/1110/8 342/500/8
f 337/493/8 338/496/8 342/500/8 341/499/8
f 348/512/11 347/511/11 346/506/11 345/505/11
f 659/1120/11 348/512/11 345/505/11 658/1113/11
f 457/697/6 458/700/6 460/1201/6 459/1202/6
f 611/999/6 457/697/6 459/1202/6 612/1203/6
f 662/1204/6 611/999/6 612/1203/6 254/1205/6
f 663/1206/6 662/1204/6 254/1205/6 253/1207/6
f 649/1094/5 328/472/5 252/356/5 610/997/5
f 328/472/5 327/471/5 251/353/5 252/356/5
f 650/1208/2 649/1209/2 610/1210/2 611/1211/2
f 329/473/12 650/1095/12 611/1212/12 662/1213/12
f 330/474/9 329/473/9 662/1213/9 663/1214/9
f 355/1215/3 354/922/3 367/545/3 368/1216/3
f 368/1216/1 665/1217/1 664/1218/1 355/1215/1
f 419/621/4 420/624/4 417/626/4 418/961/4
