# 3ds Max Wavefront OBJ Exporter v0.99 - (c)2007 guruware
# File Created: 07.02.2022 12:37:15

#
# object d_7
#

v  -3.640426 2.600004 -7.315236
v  -2.563778 2.600004 -7.315236
v  -2.563778 2.600004 -6.922638
v  -1.448229 2.600004 -7.315236
v  -1.448229 2.600004 -6.922638
v  0.015615 2.600004 -7.315236
v  0.015615 2.600004 -6.922638
v  1.131027 2.600004 -7.315236
v  1.131027 2.600004 -6.922638
v  2.478384 2.600004 -7.315236
v  2.478384 2.600004 -6.922638
v  3.879365 2.600004 -7.315236
v  3.879365 2.600004 -6.922638
v  4.663803 2.600004 -7.315236
v  5.095472 2.600004 -7.667586
v  4.663803 2.600004 -7.667586
v  4.862818 2.600004 -6.922638
v  5.095472 2.600004 -2.834481
v  4.862818 2.600004 -3.041159
v  3.590403 2.600004 -2.834481
v  3.361279 2.600004 -2.734932
v  3.590403 2.600004 -2.734932
v  3.361280 2.600004 -1.734928
v  3.590403 2.600004 -1.734928
v  3.590403 2.600004 0.168364
v  3.361279 2.600004 -0.010948
v  0.473289 2.600004 0.168364
v  0.473289 2.600004 -0.010948
v  0.303663 2.600004 -1.629927
v  0.473289 2.600004 6.415847
v  0.303663 2.600004 6.031004
v  -1.084811 2.600004 6.415847
v  -1.084811 2.600004 6.031004
v  -2.777954 2.600004 6.415847
v  -2.777954 2.600004 6.031004
v  -3.640436 2.600004 6.415847
v  -3.244857 2.600004 6.031004
v  -3.640436 2.600004 1.913725
v  -3.244857 2.600004 1.913725
v  -3.640436 2.600004 0.802626
v  -3.244857 2.600004 0.802626
v  -3.640436 2.600004 -3.687500
v  -3.244857 2.600004 -3.687500
v  -3.640436 2.600004 -4.805596
v  -3.244857 2.600004 -4.805596
v  -3.244867 2.600004 -6.922638
v  -3.244857 2.600004 0.103064
v  -3.244857 2.600004 -0.005755
v  -0.913708 2.600004 0.103064
v  -1.859495 2.600004 -0.005755
v  -1.748025 2.600004 -0.005755
v  -1.012845 2.600004 -0.005755
v  -1.859495 2.600004 -0.510562
v  -1.012845 2.600004 -0.510562
v  -1.748025 2.600004 -0.388402
v  -1.012845 2.600004 -0.388402
v  -0.913708 2.600004 -0.640410
v  -1.012845 2.600004 -0.640410
v  -0.913708 2.600004 -1.522189
v  -1.012845 2.600004 -1.522189
v  -1.012845 2.600004 -2.062569
v  -1.012845 2.600004 -2.183753
v  -0.913708 2.600004 -2.220652
v  -1.012845 2.600004 -2.220652
v  -3.244857 2.600004 -2.062569
v  -3.244857 2.600004 -2.183753
v  0.473289 2.600004 -1.522630
v  0.985873 2.600004 -1.629927
v  0.985873 2.600004 -1.522630
v  1.870927 2.600004 -1.629927
v  1.870927 2.600004 -1.522630
v  1.950806 2.600004 -1.522630
v  2.076338 2.600004 -1.522630
v  2.427507 2.600004 -1.629927
v  2.427507 2.600004 -1.522630
v  3.305743 2.600004 -1.629927
v  3.305743 2.600004 -1.522630
v  3.361279 2.600004 -1.629927
v  3.361279 2.600004 -1.522630
v  2.076338 2.600004 -0.506005
v  2.076338 2.600004 -0.402788
v  1.950806 2.600004 -0.010948
v  2.076338 2.600004 -0.010948
v  2.464973 2.600004 -0.402788
v  2.573720 2.600004 -0.506005
v  2.464973 2.600004 -0.010948
v  2.573720 2.600004 -0.010948
v  -1.012845 2.600004 -6.922638
v  -0.913708 2.600004 -6.922638
v  -1.012845 2.600004 -3.091577
v  -0.913708 2.600004 -3.091577
v  -0.913708 2.600004 -3.143156
v  -0.913708 2.600004 -3.253876
v  -0.762505 2.600004 -3.143156
v  -0.762505 2.600004 -3.253876
v  0.124200 2.600004 -3.143156
v  0.124200 2.600004 -3.253876
v  1.579248 2.600004 -3.253876
v  1.665491 2.600004 -3.253876
v  2.396895 2.600004 -3.143156
v  2.396895 2.600004 -3.253876
v  1.579248 2.600004 -6.922638
v  1.665491 2.600004 -6.922638
v  3.259189 2.600004 -3.143156
v  3.259189 2.600004 -3.253876
v  3.361279 2.600004 -3.143156
v  3.460864 2.600004 -3.253876
v  3.460864 2.600004 -3.041159
v  -3.640426 0.000004 -7.315236
v  -2.563778 0.000004 -7.315236
v  -2.563778 0.000004 -6.922638
v  -1.448229 0.000004 -7.315236
v  -1.448229 0.000004 -6.922638
v  0.015615 0.000004 -7.315236
v  0.015615 0.000004 -6.922638
v  1.131027 0.000004 -7.315236
v  1.131027 0.000004 -6.922638
v  2.478384 0.000004 -7.315236
v  2.478384 0.000004 -6.922638
v  3.879365 0.000004 -7.315236
v  3.879365 0.000004 -6.922638
v  4.663803 0.000004 -7.315236
v  5.095472 0.000004 -7.667586
v  4.663803 0.000004 -7.667586
v  4.862818 0.000004 -6.922638
v  5.095472 0.000004 -2.834481
v  4.862818 0.000004 -3.041159
v  3.590403 0.000004 -2.834481
v  3.361279 0.000004 -2.734932
v  3.590403 0.000004 -2.734932
v  3.361280 0.000004 -1.734928
v  3.590403 0.000004 -1.734928
v  3.590403 0.000004 0.168364
v  3.361279 0.000004 -0.010948
v  0.473289 0.000004 0.168364
v  0.473289 0.000004 -0.010948
v  0.303663 0.000004 -1.629927
v  0.473289 0.000004 6.415847
v  0.303663 0.000004 6.031004
v  -1.084811 0.000004 6.415847
v  -1.084811 0.000004 6.031004
v  -2.777954 0.000004 6.415847
v  -2.777954 0.000004 6.031004
v  -3.640436 0.000004 6.415847
v  -3.244857 0.000004 6.031004
v  -3.640436 0.000004 1.913725
v  -3.244857 0.000004 1.913725
v  -3.640436 0.000004 0.802626
v  -3.244857 0.000004 0.802626
v  -3.640436 0.000004 -3.687500
v  -3.244857 0.000004 -3.687500
v  -3.640436 0.000004 -4.805596
v  -3.244857 0.000004 -4.805596
v  -3.244867 0.000004 -6.922638
v  -3.244857 0.000004 0.103064
v  -3.244857 0.000004 -0.005755
v  -0.913708 0.000004 0.103064
v  -1.859495 0.000004 -0.005755
v  -1.748025 0.000004 -0.005755
v  -1.012845 0.000004 -0.005755
v  -1.859495 0.000004 -0.510562
v  -1.012845 0.000004 -0.510562
v  -1.748025 0.000004 -0.388402
v  -1.012845 0.000004 -0.388402
v  -0.913708 0.000004 -0.640410
v  -1.012845 0.000004 -0.640410
v  -0.913708 0.000004 -1.522189
v  -1.012845 0.000004 -1.522189
v  -1.012845 0.000004 -2.062569
v  -1.012845 0.000004 -2.183753
v  -0.913708 0.000004 -2.220652
v  -1.012845 0.000004 -2.220652
v  -3.244857 0.000004 -2.062569
v  -3.244857 0.000004 -2.183753
v  0.473289 0.000004 -1.522630
v  0.985873 0.000004 -1.629927
v  0.985873 0.000004 -1.522630
v  1.870927 0.000004 -1.629927
v  1.870927 0.000004 -1.522630
v  1.950806 0.000004 -1.522630
v  2.076338 0.000004 -1.522630
v  2.427507 0.000004 -1.629927
v  2.427507 0.000004 -1.522630
v  3.305743 0.000004 -1.629927
v  3.305743 0.000004 -1.522630
v  3.361279 0.000004 -1.629927
v  3.361279 0.000004 -1.522630
v  2.076338 0.000004 -0.506005
v  2.076338 0.000004 -0.402788
v  1.950806 0.000004 -0.010948
v  2.076338 0.000004 -0.010948
v  2.464973 0.000004 -0.402788
v  2.573720 0.000004 -0.506005
v  2.464973 0.000004 -0.010948
v  2.573720 0.000004 -0.010948
v  -1.012845 0.000004 -6.922638
v  -0.913708 0.000004 -6.922638
v  -1.012845 0.000004 -3.091577
v  -0.913708 0.000004 -3.091577
v  -0.913708 0.000004 -3.143156
v  -0.913708 0.000004 -3.253876
v  -0.762505 0.000004 -3.143156
v  -0.762505 0.000004 -3.253876
v  0.124200 0.000004 -3.143156
v  0.124200 0.000004 -3.253876
v  1.579248 0.000004 -3.253876
v  1.665491 0.000004 -3.253876
v  2.396895 0.000004 -3.143156
v  2.396895 0.000004 -3.253876
v  1.579248 0.000004 -6.922638
v  1.665491 0.000004 -6.922638
v  3.259189 0.000004 -3.143156
v  3.259189 0.000004 -3.253876
v  3.361279 0.000004 -3.143156
v  3.460864 0.000004 -3.253876
v  3.460864 0.000004 -3.041159
v  -3.640426 0.900004 -7.315236
v  -3.244867 0.900004 -6.922638
v  -2.563778 0.900004 -6.922638
v  -2.563778 0.900004 -7.315236
v  -1.448229 0.900004 -6.922638
v  -1.012845 0.900004 -6.922638
v  -1.448229 0.900004 -7.315236
v  1.131027 0.900004 -6.922638
v  1.579248 0.900004 -6.922638
v  1.131027 0.900004 -7.315236
v  3.879365 0.900004 -6.922638
v  4.663803 0.900004 -7.315236
v  3.879365 0.900004 -7.315236
v  4.862818 0.900004 -6.922638
v  4.663803 0.900004 -7.667586
v  5.095472 0.900004 -7.667586
v  4.862818 0.900004 -3.041159
v  5.095472 0.900004 -2.834481
v  3.590403 0.900004 -2.834481
v  3.460864 0.900004 -3.041159
v  3.590403 0.900004 -2.734932
v  3.361280 0.900004 -1.734928
v  3.361279 0.900004 -1.629927
v  3.590403 0.900004 -1.734928
v  3.590403 0.900004 0.168364
v  3.361279 0.900004 -0.010948
v  2.573720 0.900004 -0.010948
v  0.473289 0.900004 -0.010948
v  0.473289 0.900004 -1.522630
v  0.303663 0.900004 6.031004
v  0.473289 0.900004 0.168364
v  0.473289 0.900004 6.415847
v  -1.084811 0.900004 6.031004
v  -1.084811 0.900004 6.415847
v  -2.777954 0.900004 6.031004
v  -3.244857 0.900004 6.031004
v  -2.777954 0.900004 6.415847
v  -3.640436 0.900004 6.415847
v  -3.244857 0.900004 1.913725
v  -3.640436 0.900004 1.913725
v  -3.244857 0.900004 0.802626
v  -3.244857 0.900004 0.103064
v  -3.640436 0.900004 0.802626
v  -3.640436 0.900004 -4.805596
v  -3.244857 0.900004 -4.805596
v  -3.244857 0.900004 -0.005755
v  -3.244857 0.900004 -2.062569
v  -1.859495 0.900004 -0.005755
v  -1.012845 0.900004 -0.005755
v  -1.748025 0.900004 -0.005755
v  -0.913708 0.900004 0.103064
v  -1.012845 0.900004 -0.388402
v  -1.748025 0.900004 -0.388402
v  -1.859495 0.900004 -0.510562
v  -1.012845 0.900004 -0.510562
v  -0.913708 0.900004 -0.640410
v  -1.012845 0.900004 -0.640410
v  -1.012845 0.900004 -1.522189
v  -0.913708 0.900004 -1.522189
v  -1.012845 0.900004 -2.062569
v  -0.913708 0.900004 -2.220652
v  -1.012845 0.900004 -2.220652
v  -1.012845 0.900004 -2.183753
v  -3.244857 0.900004 -2.183753
v  -3.244857 0.900004 -3.687500
v  -3.640436 0.900004 -3.687500
v  0.303663 0.900004 -1.629927
v  0.985873 0.900004 -1.522630
v  0.985873 0.900004 -1.629927
v  1.870927 0.900004 -1.629927
v  1.870927 0.900004 -1.522630
v  1.950806 0.900004 -1.522630
v  2.076338 0.900004 -1.522630
v  2.427507 0.900004 -1.522630
v  2.427507 0.900004 -1.629927
v  3.305743 0.900004 -1.629927
v  3.305743 0.900004 -1.522630
v  3.361279 0.900004 -1.522630
v  2.076338 0.900004 -0.506005
v  1.950806 0.900004 -0.010948
v  2.076338 0.900004 -0.010948
v  2.076338 0.900004 -0.402788
v  2.464973 0.900004 -0.402788
v  2.573720 0.900004 -0.506005
v  2.464973 0.900004 -0.010948
v  0.015615 0.900004 -6.922638
v  0.015615 0.900004 -7.315236
v  -0.913708 0.900004 -6.922638
v  -0.913708 0.900004 -3.253876
v  -1.012845 0.900004 -3.091577
v  -0.913708 0.900004 -3.091577
v  -0.913708 0.900004 -3.143156
v  -0.762505 0.900004 -3.143156
v  -0.762505 0.900004 -3.253876
v  0.124200 0.900004 -3.253876
v  0.124200 0.900004 -3.143156
v  1.579248 0.900004 -3.253876
v  2.396895 0.900004 -3.143156
v  2.396895 0.900004 -3.253876
v  1.665491 0.900004 -3.253876
v  1.665491 0.900004 -6.922638
v  2.478384 0.900004 -6.922638
v  2.478384 0.900004 -7.315236
v  3.259189 0.900004 -3.253876
v  3.259189 0.900004 -3.143156
v  3.361279 0.900004 -3.143156
v  3.460864 0.900004 -3.253876
v  3.361279 0.900004 -2.734932
v  -3.244867 2.100004 -6.922638
v  -1.448229 2.100004 -6.922638
v  1.131027 2.100004 -6.922638
v  3.879365 2.100004 -6.922638
v  4.663803 2.100004 -7.315236
v  3.590403 2.100004 -2.834481
v  3.361280 2.100004 -1.734928
v  3.361279 2.100004 -0.010948
v  0.473289 2.100004 -0.010948
v  -2.777954 2.100004 6.031004
v  -3.244857 2.100004 0.802626
v  -3.640436 2.100004 -4.805596
v  -3.244857 2.100004 -0.005755
v  -1.859495 2.100004 -0.005755
v  -1.012845 2.100004 -0.005755
v  -0.913708 2.100004 0.103064
v  -1.012845 2.100004 -0.388402
v  -1.012845 2.100004 -0.510562
v  -1.012845 2.100004 -1.522189
v  -1.012845 2.100004 -2.062569
v  -3.244857 2.100004 -3.687500
v  1.870927 2.100004 -1.629927
v  2.076338 2.100004 -1.522630
v  3.305743 2.100004 -1.629927
v  2.076338 2.100004 -0.506005
v  2.076338 2.100004 -0.010948
v  0.015615 2.100004 -6.922638
v  -0.913708 2.100004 -6.922638
v  -0.913708 2.100004 -3.253876
v  -1.012845 2.100004 -3.091577
v  0.124200 2.100004 -3.253876
v  1.579248 2.100004 -3.253876
v  2.478384 2.100004 -6.922638
v  3.259189 2.100004 -3.253876
v  -3.640426 2.100004 -7.315236
v  -2.563778 2.100004 -6.922638
v  -2.563778 2.100004 -7.315236
v  -1.012845 2.100004 -6.922638
v  -1.448229 2.100004 -7.315236
v  1.579248 2.100004 -6.922638
v  1.131027 2.100004 -7.315236
v  3.879365 2.100004 -7.315236
v  4.862818 2.100004 -6.922638
v  4.663803 2.100004 -7.667586
v  5.095472 2.100004 -7.667586
v  4.862818 2.100004 -3.041159
v  5.095472 2.100004 -2.834481
v  3.460864 2.100004 -3.041159
v  3.590403 2.100004 -2.734932
v  3.361279 2.100004 -1.629927
v  3.590403 2.100004 -1.734928
v  3.590403 2.100004 0.168364
v  2.573720 2.100004 -0.010948
v  0.473289 2.100004 -1.522630
v  0.303663 2.100004 6.031004
v  0.473289 2.100004 0.168364
v  0.473289 2.100004 6.415847
v  -1.084811 2.100004 6.031004
v  -1.084811 2.100004 6.415847
v  -3.244857 2.100004 6.031004
v  -2.777954 2.100004 6.415847
v  -3.640436 2.100004 6.415847
v  -3.244857 2.100004 1.913725
v  -3.640436 2.100004 1.913725
v  -3.244857 2.100004 0.103064
v  -3.640436 2.100004 0.802626
v  -3.244857 2.100004 -4.805596
v  -3.244857 2.100004 -2.062569
v  -1.748025 2.100004 -0.005755
v  -1.748025 2.100004 -0.388402
v  -1.859495 2.100004 -0.510562
v  -0.913708 2.100004 -0.640410
v  -1.012845 2.100004 -0.640410
v  -0.913708 2.100004 -1.522189
v  -0.913708 2.100004 -2.220652
v  -1.012845 2.100004 -2.220652
v  -1.012845 2.100004 -2.183753
v  -3.244857 2.100004 -2.183753
v  -3.640436 2.100004 -3.687500
v  0.303663 2.100004 -1.629927
v  0.985873 2.100004 -1.522630
v  0.985873 2.100004 -1.629927
v  1.870927 2.100004 -1.522630
v  1.950806 2.100004 -1.522630
v  2.427507 2.100004 -1.522630
v  2.427507 2.100004 -1.629927
v  3.305743 2.100004 -1.522630
v  3.361279 2.100004 -1.522630
v  1.950806 2.100004 -0.010948
v  2.076338 2.100004 -0.402788
v  2.464973 2.100004 -0.402788
v  2.573720 2.100004 -0.506005
v  2.464973 2.100004 -0.010948
v  0.015615 2.100004 -7.315236
v  -0.913708 2.100004 -3.091577
v  -0.913708 2.100004 -3.143156
v  -0.762505 2.100004 -3.143156
v  -0.762505 2.100004 -3.253876
v  0.124200 2.100004 -3.143156
v  2.396895 2.100004 -3.143156
v  2.396895 2.100004 -3.253876
v  1.665491 2.100004 -3.253876
v  1.665491 2.100004 -6.922638
v  2.478384 2.100004 -7.315236
v  3.259189 2.100004 -3.143156
v  3.361279 2.100004 -3.143156
v  3.460864 2.100004 -3.253876
v  3.361279 2.100004 -2.734932
v  -3.244867 2.400004 -6.922638
v  -1.448229 2.400004 -6.922638
v  1.131027 2.400004 -6.922638
v  3.879365 2.400004 -6.922638
v  4.663803 2.400004 -7.315236
v  3.590403 2.400004 -2.834481
v  3.361280 2.400004 -1.734928
v  3.361279 2.400004 -0.010948
v  0.473289 2.400004 -0.010948
v  -2.777954 2.400004 6.031004
v  -3.244857 2.400004 0.802626
v  -3.640436 2.400004 -4.805596
v  -3.244857 2.400004 -0.005755
v  -1.859495 2.400004 -0.005755
v  -1.012845 2.400004 -0.005755
v  -0.913708 2.400004 0.103064
v  -1.012845 2.400004 -0.388402
v  -1.012845 2.400004 -0.510562
v  -1.012845 2.400004 -1.522189
v  -1.012845 2.400004 -2.062569
v  -3.244857 2.400004 -3.687500
v  1.870927 2.400004 -1.629927
v  2.076338 2.400004 -1.522630
v  3.305743 2.400004 -1.629927
v  2.076338 2.400004 -0.506005
v  2.076338 2.400004 -0.010948
v  0.015615 2.400004 -6.922638
v  -0.913708 2.400004 -6.922638
v  -0.913708 2.400004 -3.253876
v  -1.012845 2.400004 -3.091577
v  0.124200 2.400004 -3.253876
v  1.579248 2.400004 -3.253876
v  2.478384 2.400004 -6.922638
v  3.259189 2.400004 -3.253876
v  -3.640426 2.400004 -7.315236
v  -2.563778 2.400004 -6.922638
v  -2.563778 2.400004 -7.315236
v  -1.012845 2.400004 -6.922638
v  -1.448229 2.400004 -7.315236
v  1.579248 2.400004 -6.922638
v  1.131027 2.400004 -7.315236
v  3.879365 2.400004 -7.315236
v  4.862818 2.400004 -6.922638
v  4.663803 2.400004 -7.667586
v  5.095472 2.400004 -7.667586
v  4.862818 2.400004 -3.041159
v  5.095472 2.400004 -2.834481
v  3.460864 2.400004 -3.041159
v  3.590403 2.400004 -2.734932
v  3.361279 2.400004 -1.629927
v  3.590403 2.400004 -1.734928
v  3.590403 2.400004 0.168364
v  2.573720 2.400004 -0.010948
v  0.473289 2.400004 -1.522630
v  0.303663 2.400004 6.031004
v  0.473289 2.400004 0.168364
v  0.473289 2.400004 6.415847
v  -1.084811 2.400004 6.031004
v  -1.084811 2.400004 6.415847
v  -3.244857 2.400004 6.031004
v  -2.777954 2.400004 6.415847
v  -3.640436 2.400004 6.415847
v  -3.244857 2.400004 1.913725
v  -3.640436 2.400004 1.913725
v  -3.244857 2.400004 0.103064
v  -3.640436 2.400004 0.802626
v  -3.244857 2.400004 -4.805596
v  -3.244857 2.400004 -2.062569
v  -1.748025 2.400004 -0.005755
v  -1.748025 2.400004 -0.388402
v  -1.859495 2.400004 -0.510562
v  -0.913708 2.400004 -0.640410
v  -1.012845 2.400004 -0.640410
v  -0.913708 2.400004 -1.522189
v  -0.913708 2.400004 -2.220652
v  -1.012845 2.400004 -2.220652
v  -1.012845 2.400004 -2.183753
v  -3.244857 2.400004 -2.183753
v  -3.640436 2.400004 -3.687500
v  0.303663 2.400004 -1.629927
v  0.985873 2.400004 -1.522630
v  0.985873 2.400004 -1.629927
v  1.870927 2.400004 -1.522630
v  1.950806 2.400004 -1.522630
v  2.427507 2.400004 -1.522630
v  2.427507 2.400004 -1.629927
v  3.305743 2.400004 -1.522630
v  3.361279 2.400004 -1.522630
v  1.950806 2.400004 -0.010948
v  2.076338 2.400004 -0.402788
v  2.464973 2.400004 -0.402788
v  2.573720 2.400004 -0.506005
v  2.464973 2.400004 -0.010948
v  0.015615 2.400004 -7.315236
v  -0.913708 2.400004 -3.091577
v  -0.913708 2.400004 -3.143156
v  -0.762505 2.400004 -3.143156
v  -0.762505 2.400004 -3.253876
v  0.124200 2.400004 -3.143156
v  2.396895 2.400004 -3.143156
v  2.396895 2.400004 -3.253876
v  1.665491 2.400004 -3.253876
v  1.665491 2.400004 -6.922638
v  2.478384 2.400004 -7.315236
v  3.259189 2.400004 -3.143156
v  3.361279 2.400004 -3.143156
v  3.460864 2.400004 -3.253876
v  3.361279 2.400004 -2.734932
v  -3.639375 0.000000 -2.834477
v  5.096875 0.000000 -2.834477
v  -3.639375 0.000000 -7.315239
v  5.096875 0.000000 -7.315239
v  3.591563 0.000000 -2.834477
v  3.591563 0.000000 -7.315239
v  -3.639375 0.000000 0.168354
v  3.591563 0.000000 0.168354
v  0.474687 0.000000 0.168354
v  0.474687 0.000000 -2.834477
v  0.474687 0.000000 -7.315239
v  -3.639375 0.000000 6.415854
v  0.474687 0.000000 6.415854
v  -0.962187 0.000000 6.415854
v  -0.962187 0.000000 0.168354
v  -0.962187 0.000000 -2.834477
v  -0.962188 0.000000 -7.315239
v  1.623437 0.000000 0.168354
v  1.623437 0.000000 -2.834477
v  1.623437 0.000000 -7.315239
v  5.096875 0.000000 -3.198516
v  3.591563 0.000000 -3.198516
v  1.623437 0.000000 -3.198516
v  0.474687 0.000000 -3.198516
v  -0.962187 0.000000 -3.198516
v  -3.639375 0.000000 -3.198516
v  -3.639375 0.000000 -2.123164
v  -0.962188 0.000000 -2.123164
v  0.474687 0.000000 -2.123164
v  1.623437 0.000000 -2.123164
v  3.591563 0.000000 -2.123164
v  -3.639375 0.000000 -1.576279
v  -0.962188 0.000000 -1.576279
v  0.474687 0.000000 -1.576279
v  1.623437 0.000000 -1.576279
v  3.591563 0.000000 -1.576279
v  0.389687 0.000000 6.415854
v  0.389687 0.000000 0.168354
v  0.389687 0.000000 -1.576279
v  0.389687 0.000000 -2.123164
v  0.389687 0.000000 -2.834477
v  0.389687 0.000000 -3.198516
v  0.389687 0.000000 -7.315239
v  2.014688 0.000000 0.168354
v  2.014688 0.000000 -1.576279
v  2.014688 0.000000 -2.123164
v  2.014688 0.000000 -2.834477
v  2.014688 0.000000 -3.198516
v  2.014688 0.000000 -7.315239
v  -3.639375 0.000000 0.048652
v  -0.962188 0.000000 0.048652
v  0.389687 0.000000 0.048652
v  0.474687 0.000000 0.048652
v  1.623437 0.000000 0.048652
v  2.014688 0.000000 0.048652
v  3.591563 0.000000 0.048652
v  -3.639375 0.000000 5.135205
v  -0.962188 0.000000 5.135205
v  0.389687 0.000000 5.135205
v  0.474687 0.000000 5.135205
v  -0.102812 0.000000 6.415854
v  -0.102812 0.000000 5.135205
v  -0.102812 0.000000 0.168354
v  -0.102812 0.000000 0.048652
v  -0.102812 0.000000 -1.576279
v  -0.102812 0.000000 -2.123164
v  -0.102812 0.000000 -2.834477
v  -0.102812 0.000000 -3.198516
v  -0.102812 0.000000 -7.315239
v  -3.639375 0.000000 7.667573
v  -0.962187 0.000000 7.667573
v  -0.102812 0.000000 7.667573
v  -5.096875 0.000000 6.415854
v  -5.096875 0.000000 5.135205
v  -5.096875 0.000000 7.667573
v  -3.640000 2.600377 -2.834482
v  5.095000 2.600377 -2.834482
v  -3.640000 2.600377 -7.315234
v  5.095000 2.600377 -7.315234
v  3.590312 2.600377 -2.834482
v  3.590312 2.600377 -7.315234
v  -3.640000 2.600377 0.168359
v  3.590312 2.600377 0.168359
v  0.473437 2.600377 0.168359
v  0.473437 2.600377 -2.834482
v  0.473437 2.600377 -7.315234
v  -3.640000 2.600377 6.415850
v  0.473437 2.600377 6.415850
# 628 vertices

vt 0.023905 0.177747 0.000000
vt 0.022402 0.177747 0.000000
vt 0.022402 0.169656 0.000000
vt 0.023905 0.169656 0.000000
vt 0.052165 0.548605 0.000000
vt 0.052165 0.567464 0.000000
vt 0.050662 0.567464 0.000000
vt 0.050662 0.548605 0.000000
vt 0.266539 0.914066 0.000000
vt 0.266539 0.922704 0.000000
vt 0.237121 0.922704 0.000000
vt 0.237121 0.914066 0.000000
vt 0.333529 0.914066 0.000000
vt 0.333529 0.922704 0.000000
vt 0.314724 0.922704 0.000000
vt 0.314724 0.914066 0.000000
vt 0.023905 0.161274 0.000000
vt 0.022402 0.161274 0.000000
vt 0.022402 0.150273 0.000000
vt 0.023905 0.150273 0.000000
vt 0.227216 0.919259 0.000000
vt 0.227216 0.927898 0.000000
vt 0.207856 0.927898 0.000000
vt 0.207856 0.919259 0.000000
vt 0.023905 0.141891 0.000000
vt 0.022402 0.141891 0.000000
vt 0.022402 0.131767 0.000000
vt 0.023905 0.131767 0.000000
vt 0.687007 0.899632 0.000000
vt 0.687007 0.857154 0.000000
vt 0.695646 0.857154 0.000000
vt 0.695646 0.899632 0.000000
vt 0.023905 0.121239 0.000000
vt 0.022402 0.121239 0.000000
vt 0.022402 0.115344 0.000000
vt 0.023905 0.115344 0.000000
vt 0.022402 0.183260 0.000000
vt 0.022402 0.181757 0.000000
vt 0.025646 0.181757 0.000000
vt 0.025646 0.183260 0.000000
vt 0.032627 0.183260 0.000000
vt 0.032627 0.181757 0.000000
vt 0.035275 0.181757 0.000000
vt 0.035275 0.183260 0.000000
vt 0.404917 0.070915 0.000000
vt 0.404917 0.107233 0.000000
vt 0.403414 0.107233 0.000000
vt 0.403414 0.070915 0.000000
vt 0.578062 0.766707 0.000000
vt 0.569423 0.766707 0.000000
vt 0.569423 0.599054 0.000000
vt 0.578062 0.599054 0.000000
vt 0.569423 0.172942 0.000000
vt 0.569423 0.171439 0.000000
vt 0.580733 0.171439 0.000000
vt 0.580733 0.172942 0.000000
vt 0.982730 0.695817 0.000000
vt 0.922175 0.695817 0.000000
vt 0.922175 0.687178 0.000000
vt 0.982730 0.687178 0.000000
vt 0.545364 0.194004 0.000000
vt 0.543861 0.194004 0.000000
vt 0.543861 0.193256 0.000000
vt 0.545364 0.193256 0.000000
vt 0.835265 0.475841 0.000000
vt 0.835265 0.467202 0.000000
vt 0.839800 0.467202 0.000000
vt 0.839800 0.475841 0.000000
vt 0.545364 0.185741 0.000000
vt 0.543861 0.185741 0.000000
vt 0.543861 0.171439 0.000000
vt 0.545364 0.171439 0.000000
vt 0.639227 0.105617 0.000000
vt 0.639227 0.114256 0.000000
vt 0.605210 0.114256 0.000000
vt 0.605210 0.105617 0.000000
vt 0.451839 0.929954 0.000000
vt 0.451839 0.599054 0.000000
vt 0.460478 0.599054 0.000000
vt 0.460478 0.929954 0.000000
vt 0.354705 0.778071 0.000000
vt 0.354705 0.769432 0.000000
vt 0.419999 0.769432 0.000000
vt 0.419999 0.778071 0.000000
vt 0.504466 0.257598 0.000000
vt 0.502963 0.257598 0.000000
vt 0.502963 0.210651 0.000000
vt 0.504466 0.210651 0.000000
vt 0.269298 0.214715 0.000000
vt 0.267795 0.214715 0.000000
vt 0.267795 0.203006 0.000000
vt 0.269298 0.203006 0.000000
vt 0.245760 0.713093 0.000000
vt 0.237121 0.713093 0.000000
vt 0.237121 0.653120 0.000000
vt 0.245760 0.653120 0.000000
vt 0.245760 0.806392 0.000000
vt 0.237121 0.806392 0.000000
vt 0.237121 0.786225 0.000000
vt 0.245760 0.786225 0.000000
vt 0.269298 0.190283 0.000000
vt 0.267795 0.190283 0.000000
vt 0.267795 0.183802 0.000000
vt 0.269298 0.183802 0.000000
vt 0.050662 0.464281 0.000000
vt 0.052165 0.464281 0.000000
vt 0.052165 0.498112 0.000000
vt 0.050662 0.498112 0.000000
vt 0.261097 0.179792 0.000000
vt 0.252458 0.179792 0.000000
vt 0.252458 0.001953 0.000000
vt 0.261097 0.001953 0.000000
vt 0.261097 0.258000 0.000000
vt 0.252458 0.258000 0.000000
vt 0.252458 0.227784 0.000000
vt 0.261097 0.227784 0.000000
vt 0.050662 0.506462 0.000000
vt 0.052165 0.506462 0.000000
vt 0.052165 0.540203 0.000000
vt 0.050662 0.540203 0.000000
vt 0.378680 0.206641 0.000000
vt 0.370042 0.206641 0.000000
vt 0.370042 0.115199 0.000000
vt 0.378680 0.115199 0.000000
vt 0.835265 0.243216 0.000000
vt 0.835265 0.234578 0.000000
vt 0.924106 0.234578 0.000000
vt 0.924106 0.243216 0.000000
vt 0.905281 0.847434 0.000000
vt 0.804591 0.847434 0.000000
vt 0.804591 0.838796 0.000000
vt 0.905281 0.838796 0.000000
vt 0.982013 0.803491 0.000000
vt 0.982013 0.812129 0.000000
vt 0.922175 0.812129 0.000000
vt 0.922175 0.803491 0.000000
vt 0.605210 0.126904 0.000000
vt 0.605210 0.118265 0.000000
vt 0.636964 0.118265 0.000000
vt 0.636964 0.126904 0.000000
vt 0.681726 0.878819 0.000000
vt 0.681726 0.910932 0.000000
vt 0.673087 0.910932 0.000000
vt 0.673087 0.878819 0.000000
vt 0.364929 0.894383 0.000000
vt 0.364929 0.885744 0.000000
vt 0.381457 0.885744 0.000000
vt 0.381457 0.894383 0.000000
vt 0.390491 0.894383 0.000000
vt 0.390491 0.885744 0.000000
vt 0.407019 0.885744 0.000000
vt 0.407019 0.894383 0.000000
vt 0.959316 0.221929 0.000000
vt 0.959316 0.230568 0.000000
vt 0.937512 0.230568 0.000000
vt 0.937512 0.221929 0.000000
vt 0.001953 0.356607 0.000000
vt 0.001953 0.347969 0.000000
vt 0.038523 0.347969 0.000000
vt 0.038523 0.356607 0.000000
vt 0.969267 0.105617 0.000000
vt 0.969267 0.114256 0.000000
vt 0.937512 0.114256 0.000000
vt 0.937512 0.105617 0.000000
vt 0.835265 0.359529 0.000000
vt 0.835265 0.350890 0.000000
vt 0.840874 0.350890 0.000000
vt 0.840874 0.359529 0.000000
vt 0.681726 0.810563 0.000000
vt 0.681726 0.840732 0.000000
vt 0.673087 0.840732 0.000000
vt 0.673087 0.810563 0.000000
vt 0.878960 0.359529 0.000000
vt 0.878960 0.350890 0.000000
vt 0.902301 0.350890 0.000000
vt 0.902301 0.359529 0.000000
vt 0.496264 0.206641 0.000000
vt 0.487626 0.206641 0.000000
vt 0.487626 0.205047 0.000000
vt 0.496264 0.205047 0.000000
vt 0.931673 0.221929 0.000000
vt 0.931673 0.230568 0.000000
vt 0.835265 0.230568 0.000000
vt 0.835265 0.221929 0.000000
vt 0.835265 0.010592 0.000000
vt 0.835265 0.001953 0.000000
vt 0.931673 0.001953 0.000000
vt 0.931673 0.010592 0.000000
vt 0.378680 0.066905 0.000000
vt 0.370042 0.066905 0.000000
vt 0.370042 0.001953 0.000000
vt 0.378680 0.001953 0.000000
vt 0.813230 0.731122 0.000000
vt 0.804591 0.731122 0.000000
vt 0.804591 0.701655 0.000000
vt 0.813230 0.701655 0.000000
vt 0.928978 0.570866 0.000000
vt 0.928978 0.579505 0.000000
vt 0.906838 0.579505 0.000000
vt 0.906838 0.570866 0.000000
vt 0.970657 0.570866 0.000000
vt 0.970657 0.579505 0.000000
vt 0.967206 0.579505 0.000000
vt 0.967206 0.570866 0.000000
vt 0.813230 0.663427 0.000000
vt 0.804591 0.663427 0.000000
vt 0.804591 0.639386 0.000000
vt 0.813230 0.639386 0.000000
vt 0.017121 0.219008 0.000000
vt 0.017121 0.227647 0.000000
vt 0.001953 0.227647 0.000000
vt 0.001953 0.219008 0.000000
vt 0.057454 0.219008 0.000000
vt 0.057454 0.227647 0.000000
vt 0.055055 0.227647 0.000000
vt 0.055055 0.219008 0.000000
vt 0.813230 0.601452 0.000000
vt 0.804591 0.601452 0.000000
vt 0.804591 0.599054 0.000000
vt 0.813230 0.599054 0.000000
vt 0.804591 0.860083 0.000000
vt 0.804591 0.851444 0.000000
vt 0.869885 0.851444 0.000000
vt 0.869885 0.860083 0.000000
vt 0.941458 0.963746 0.000000
vt 0.876164 0.963746 0.000000
vt 0.876164 0.955108 0.000000
vt 0.941458 0.955108 0.000000
vt 0.001953 0.240295 0.000000
vt 0.001953 0.231656 0.000000
vt 0.045864 0.231656 0.000000
vt 0.045864 0.240295 0.000000
vt 0.964661 0.919803 0.000000
vt 0.964661 0.928441 0.000000
vt 0.947737 0.928441 0.000000
vt 0.947737 0.919803 0.000000
vt 0.356154 0.989408 0.000000
vt 0.356154 0.998047 0.000000
vt 0.339368 0.998047 0.000000
vt 0.339368 0.989408 0.000000
vt 0.932400 0.243216 0.000000
vt 0.932400 0.234578 0.000000
vt 0.953883 0.234578 0.000000
vt 0.953883 0.243216 0.000000
vt 0.023336 0.567945 0.000000
vt 0.023336 0.576583 0.000000
vt 0.001953 0.576583 0.000000
vt 0.001953 0.567945 0.000000
vt 0.963074 0.243216 0.000000
vt 0.963074 0.234578 0.000000
vt 0.979998 0.234578 0.000000
vt 0.979998 0.243216 0.000000
vt 0.537838 0.171439 0.000000
vt 0.537838 0.194863 0.000000
vt 0.536335 0.194863 0.000000
vt 0.536335 0.171439 0.000000
vt 0.911950 0.359529 0.000000
vt 0.911950 0.350890 0.000000
vt 0.975769 0.350890 0.000000
vt 0.975769 0.359529 0.000000
vt 0.443064 0.873096 0.000000
vt 0.443064 0.881735 0.000000
vt 0.426278 0.881735 0.000000
vt 0.426278 0.873096 0.000000
vt 0.159678 0.919259 0.000000
vt 0.159678 0.927898 0.000000
vt 0.119537 0.927898 0.000000
vt 0.119537 0.919259 0.000000
vt 0.010592 0.811586 0.000000
vt 0.001953 0.811586 0.000000
vt 0.001953 0.653120 0.000000
vt 0.010592 0.653120 0.000000
vt 0.673087 0.770717 0.000000
vt 0.681726 0.770717 0.000000
vt 0.681726 0.772945 0.000000
vt 0.673087 0.772945 0.000000
vt 0.496264 0.167429 0.000000
vt 0.487626 0.167429 0.000000
vt 0.487626 0.001953 0.000000
vt 0.496264 0.001953 0.000000
vt 0.394017 0.217182 0.000000
vt 0.385379 0.217182 0.000000
vt 0.385379 0.210651 0.000000
vt 0.394017 0.210651 0.000000
vt 0.109632 0.919259 0.000000
vt 0.109632 0.927898 0.000000
vt 0.103101 0.927898 0.000000
vt 0.103101 0.919259 0.000000
vt 0.385379 0.353647 0.000000
vt 0.385379 0.255482 0.000000
vt 0.394017 0.255482 0.000000
vt 0.394017 0.353647 0.000000
vt 0.064801 0.919259 0.000000
vt 0.064801 0.927898 0.000000
vt 0.001953 0.927898 0.000000
vt 0.001953 0.919259 0.000000
vt 0.432253 0.756784 0.000000
vt 0.432253 0.765422 0.000000
vt 0.400661 0.765422 0.000000
vt 0.400661 0.756784 0.000000
vt 0.128176 0.811586 0.000000
vt 0.119537 0.811586 0.000000
vt 0.119537 0.653120 0.000000
vt 0.128176 0.653120 0.000000
vt 0.695646 0.757519 0.000000
vt 0.687007 0.757519 0.000000
vt 0.687007 0.599054 0.000000
vt 0.695646 0.599054 0.000000
vt 0.695646 0.796641 0.000000
vt 0.687007 0.796641 0.000000
vt 0.687007 0.761529 0.000000
vt 0.695646 0.761529 0.000000
vt 0.394017 0.395302 0.000000
vt 0.385379 0.395302 0.000000
vt 0.385379 0.390892 0.000000
vt 0.394017 0.390892 0.000000
vt 0.363416 0.756784 0.000000
vt 0.363416 0.765422 0.000000
vt 0.354705 0.765422 0.000000
vt 0.354705 0.756784 0.000000
vt 0.425241 0.989408 0.000000
vt 0.425241 0.998047 0.000000
vt 0.416053 0.998047 0.000000
vt 0.416053 0.989408 0.000000
vt 0.882994 0.467202 0.000000
vt 0.900626 0.467202 0.000000
vt 0.900626 0.475841 0.000000
vt 0.882994 0.475841 0.000000
vt 0.035177 0.177747 0.000000
vt 0.035177 0.169656 0.000000
vt 0.041940 0.169656 0.000000
vt 0.041940 0.177747 0.000000
vt 0.039390 0.548605 0.000000
vt 0.039390 0.567464 0.000000
vt 0.032627 0.567464 0.000000
vt 0.032627 0.548605 0.000000
vt 0.266539 0.849276 0.000000
vt 0.237121 0.849276 0.000000
vt 0.237121 0.810402 0.000000
vt 0.266539 0.810402 0.000000
vt 0.333529 0.849276 0.000000
vt 0.314724 0.849276 0.000000
vt 0.314724 0.810402 0.000000
vt 0.333529 0.810402 0.000000
vt 0.035177 0.161274 0.000000
vt 0.035177 0.150273 0.000000
vt 0.041940 0.150273 0.000000
vt 0.041940 0.161274 0.000000
vt 0.227216 0.854469 0.000000
vt 0.207856 0.854469 0.000000
vt 0.207856 0.815595 0.000000
vt 0.227216 0.815595 0.000000
vt 0.035177 0.141891 0.000000
vt 0.035177 0.131767 0.000000
vt 0.041940 0.131767 0.000000
vt 0.041940 0.141891 0.000000
vt 0.760436 0.899632 0.000000
vt 0.760436 0.857154 0.000000
vt 0.799310 0.857154 0.000000
vt 0.799310 0.899632 0.000000
vt 0.035177 0.121239 0.000000
vt 0.035177 0.115344 0.000000
vt 0.041940 0.115344 0.000000
vt 0.041940 0.121239 0.000000
vt 0.022402 0.194532 0.000000
vt 0.025646 0.194532 0.000000
vt 0.025646 0.201295 0.000000
vt 0.022402 0.201295 0.000000
vt 0.032627 0.194532 0.000000
vt 0.035275 0.194532 0.000000
vt 0.035275 0.201295 0.000000
vt 0.032627 0.201295 0.000000
vt 0.392142 0.070915 0.000000
vt 0.392142 0.107233 0.000000
vt 0.385379 0.107233 0.000000
vt 0.385379 0.070915 0.000000
vt 0.642852 0.766707 0.000000
vt 0.642852 0.599054 0.000000
vt 0.681726 0.599054 0.000000
vt 0.681726 0.766707 0.000000
vt 0.569423 0.184214 0.000000
vt 0.580733 0.184214 0.000000
vt 0.580733 0.190977 0.000000
vt 0.569423 0.190977 0.000000
vt 0.982730 0.622388 0.000000
vt 0.922175 0.622388 0.000000
vt 0.922175 0.583514 0.000000
vt 0.982730 0.583514 0.000000
vt 0.855386 0.531682 0.000000
vt 0.845490 0.531682 0.000000
vt 0.845490 0.492808 0.000000
vt 0.855386 0.492808 0.000000
vt 0.556636 0.194004 0.000000
vt 0.556636 0.193256 0.000000
vt 0.563399 0.193256 0.000000
vt 0.563399 0.194004 0.000000
vt 0.835265 0.540631 0.000000
vt 0.839800 0.540631 0.000000
vt 0.839800 0.579505 0.000000
vt 0.835265 0.579505 0.000000
vt 0.556636 0.185741 0.000000
vt 0.556636 0.171439 0.000000
vt 0.563399 0.171439 0.000000
vt 0.563399 0.185741 0.000000
vt 0.860827 0.544640 0.000000
vt 0.870723 0.544640 0.000000
vt 0.870723 0.583514 0.000000
vt 0.860827 0.583514 0.000000
vt 0.639227 0.040827 0.000000
vt 0.605210 0.040827 0.000000
vt 0.605210 0.001953 0.000000
vt 0.639227 0.001953 0.000000
vt 0.525268 0.929954 0.000000
vt 0.525268 0.599054 0.000000
vt 0.564142 0.599054 0.000000
vt 0.564142 0.929954 0.000000
vt 0.354705 0.842861 0.000000
vt 0.419999 0.842861 0.000000
vt 0.419999 0.881735 0.000000
vt 0.354705 0.881735 0.000000
vt 0.515738 0.257598 0.000000
vt 0.515738 0.210651 0.000000
vt 0.522501 0.210651 0.000000
vt 0.522501 0.257598 0.000000
vt 0.280570 0.214715 0.000000
vt 0.280570 0.203006 0.000000
vt 0.287333 0.203006 0.000000
vt 0.287333 0.214715 0.000000
vt 0.310549 0.713093 0.000000
vt 0.310549 0.653120 0.000000
vt 0.349423 0.653120 0.000000
vt 0.349423 0.713093 0.000000
vt 0.978411 0.174417 0.000000
vt 0.995033 0.174417 0.000000
vt 0.995033 0.213291 0.000000
vt 0.978411 0.213291 0.000000
vt 0.310549 0.806392 0.000000
vt 0.310549 0.786225 0.000000
vt 0.349423 0.786225 0.000000
vt 0.349423 0.806392 0.000000
vt 0.280570 0.190283 0.000000
vt 0.280570 0.183802 0.000000
vt 0.287333 0.183802 0.000000
vt 0.287333 0.190283 0.000000
vt 0.978411 0.066743 0.000000
vt 0.995033 0.066743 0.000000
vt 0.995033 0.105617 0.000000
vt 0.978411 0.105617 0.000000
vt 0.039390 0.464281 0.000000
vt 0.039390 0.498112 0.000000
vt 0.032627 0.498112 0.000000
vt 0.032627 0.464281 0.000000
vt 0.325886 0.179792 0.000000
vt 0.325886 0.001953 0.000000
vt 0.364760 0.001953 0.000000
vt 0.364760 0.179792 0.000000
vt 0.325886 0.258000 0.000000
vt 0.325886 0.227784 0.000000
vt 0.364760 0.227784 0.000000
vt 0.364760 0.258000 0.000000
vt 0.039390 0.506462 0.000000
vt 0.039390 0.540203 0.000000
vt 0.032627 0.540203 0.000000
vt 0.032627 0.506462 0.000000
vt 0.443470 0.206641 0.000000
vt 0.443470 0.115199 0.000000
vt 0.482344 0.115199 0.000000
vt 0.482344 0.206641 0.000000
vt 0.835265 0.308006 0.000000
vt 0.924106 0.308006 0.000000
vt 0.924106 0.346880 0.000000
vt 0.835265 0.346880 0.000000
vt 0.905281 0.774006 0.000000
vt 0.804591 0.774006 0.000000
vt 0.804591 0.735132 0.000000
vt 0.905281 0.735132 0.000000
vt 0.982013 0.738701 0.000000
vt 0.922175 0.738701 0.000000
vt 0.922175 0.699827 0.000000
vt 0.982013 0.699827 0.000000
vt 0.605210 0.191694 0.000000
vt 0.636964 0.191694 0.000000
vt 0.636964 0.230568 0.000000
vt 0.605210 0.230568 0.000000
vt 0.608297 0.878819 0.000000
vt 0.608297 0.910932 0.000000
vt 0.569423 0.910932 0.000000
vt 0.569423 0.878819 0.000000
vt 0.364929 0.959173 0.000000
vt 0.381457 0.959173 0.000000
vt 0.381457 0.998047 0.000000
vt 0.364929 0.998047 0.000000
vt 0.390491 0.959173 0.000000
vt 0.407019 0.959173 0.000000
vt 0.407019 0.998047 0.000000
vt 0.390491 0.998047 0.000000
vt 0.959316 0.157139 0.000000
vt 0.937512 0.157139 0.000000
vt 0.937512 0.118265 0.000000
vt 0.959316 0.118265 0.000000
vt 0.001953 0.421397 0.000000
vt 0.038523 0.421397 0.000000
vt 0.038523 0.460271 0.000000
vt 0.001953 0.460271 0.000000
vt 0.969267 0.040827 0.000000
vt 0.937512 0.040827 0.000000
vt 0.937512 0.001953 0.000000
vt 0.969267 0.001953 0.000000
vt 0.742413 0.942516 0.000000
vt 0.738130 0.942516 0.000000
vt 0.738130 0.903642 0.000000
vt 0.742413 0.903642 0.000000
vt 0.835265 0.424318 0.000000
vt 0.840874 0.424318 0.000000
vt 0.840874 0.463192 0.000000
vt 0.835265 0.463192 0.000000
vt 0.732188 0.942516 0.000000
vt 0.727906 0.942516 0.000000
vt 0.727906 0.903642 0.000000
vt 0.732188 0.903642 0.000000
vt 0.608297 0.810563 0.000000
vt 0.608297 0.840732 0.000000
vt 0.569423 0.840732 0.000000
vt 0.569423 0.810563 0.000000
vt 0.878960 0.424318 0.000000
vt 0.902301 0.424318 0.000000
vt 0.902301 0.463192 0.000000
vt 0.878960 0.463192 0.000000
vt 0.762862 0.942516 0.000000
vt 0.758580 0.942516 0.000000
vt 0.758580 0.903642 0.000000
vt 0.762862 0.903642 0.000000
vt 0.561054 0.206641 0.000000
vt 0.561054 0.205047 0.000000
vt 0.599928 0.205047 0.000000
vt 0.599928 0.206641 0.000000
vt 0.931673 0.157139 0.000000
vt 0.835265 0.157139 0.000000
vt 0.835265 0.118265 0.000000
vt 0.931673 0.118265 0.000000
vt 0.835265 0.075382 0.000000
vt 0.931673 0.075382 0.000000
vt 0.931673 0.114256 0.000000
vt 0.835265 0.114256 0.000000
vt 0.443470 0.066905 0.000000
vt 0.443470 0.001953 0.000000
vt 0.482344 0.001953 0.000000
vt 0.482344 0.066905 0.000000
vt 0.878020 0.731122 0.000000
vt 0.878020 0.701655 0.000000
vt 0.916893 0.701655 0.000000
vt 0.916893 0.731122 0.000000
vt 0.928978 0.506076 0.000000
vt 0.906838 0.506076 0.000000
vt 0.906838 0.467202 0.000000
vt 0.928978 0.467202 0.000000
vt 0.717681 0.955474 0.000000
vt 0.722316 0.955474 0.000000
vt 0.722316 0.994348 0.000000
vt 0.717681 0.994348 0.000000
vt 0.691642 0.942516 0.000000
vt 0.687007 0.942516 0.000000
vt 0.687007 0.903642 0.000000
vt 0.691642 0.903642 0.000000
vt 0.970657 0.506076 0.000000
vt 0.967206 0.506076 0.000000
vt 0.967206 0.467202 0.000000
vt 0.970657 0.467202 0.000000
vt 0.878020 0.663427 0.000000
vt 0.878020 0.639386 0.000000
vt 0.916893 0.639386 0.000000
vt 0.916893 0.663427 0.000000
vt 0.017121 0.154218 0.000000
vt 0.001953 0.154218 0.000000
vt 0.001953 0.115344 0.000000
vt 0.017121 0.115344 0.000000
vt 0.697232 0.955474 0.000000
vt 0.701866 0.955474 0.000000
vt 0.701866 0.994348 0.000000
vt 0.697232 0.994348 0.000000
vt 0.712091 0.942516 0.000000
vt 0.707456 0.942516 0.000000
vt 0.707456 0.903642 0.000000
vt 0.712091 0.903642 0.000000
vt 0.057454 0.154218 0.000000
vt 0.055055 0.154218 0.000000
vt 0.055055 0.115344 0.000000
vt 0.057454 0.115344 0.000000
vt 0.878020 0.601452 0.000000
vt 0.878020 0.599054 0.000000
vt 0.916893 0.599054 0.000000
vt 0.916893 0.601452 0.000000
vt 0.804591 0.924873 0.000000
vt 0.869885 0.924873 0.000000
vt 0.869885 0.963746 0.000000
vt 0.804591 0.963746 0.000000
vt 0.941458 0.890318 0.000000
vt 0.876164 0.890318 0.000000
vt 0.876164 0.851444 0.000000
vt 0.941458 0.851444 0.000000
vt 0.001953 0.305085 0.000000
vt 0.045864 0.305085 0.000000
vt 0.045864 0.343959 0.000000
vt 0.001953 0.343959 0.000000
vt 0.964661 0.855013 0.000000
vt 0.947737 0.855013 0.000000
vt 0.947737 0.816139 0.000000
vt 0.964661 0.816139 0.000000
vt 0.356154 0.924618 0.000000
vt 0.339368 0.924618 0.000000
vt 0.339368 0.885744 0.000000
vt 0.356154 0.885744 0.000000
vt 0.932400 0.308006 0.000000
vt 0.953883 0.308006 0.000000
vt 0.953883 0.346880 0.000000
vt 0.932400 0.346880 0.000000
vt 0.023336 0.503155 0.000000
vt 0.001953 0.503155 0.000000
vt 0.001953 0.464281 0.000000
vt 0.023336 0.464281 0.000000
vt 0.963074 0.308006 0.000000
vt 0.979998 0.308006 0.000000
vt 0.979998 0.346880 0.000000
vt 0.963074 0.346880 0.000000
vt 0.525063 0.171439 0.000000
vt 0.525063 0.194863 0.000000
vt 0.518300 0.194863 0.000000
vt 0.518300 0.171439 0.000000
vt 0.911950 0.424318 0.000000
vt 0.975769 0.424318 0.000000
vt 0.975769 0.463192 0.000000
vt 0.911950 0.463192 0.000000
vt 0.443064 0.808306 0.000000
vt 0.426278 0.808306 0.000000
vt 0.426278 0.769432 0.000000
vt 0.443064 0.769432 0.000000
vt 0.159678 0.854469 0.000000
vt 0.119537 0.854469 0.000000
vt 0.119537 0.815595 0.000000
vt 0.159678 0.815595 0.000000
vt 0.075382 0.811586 0.000000
vt 0.075382 0.653120 0.000000
vt 0.114256 0.653120 0.000000
vt 0.114256 0.811586 0.000000
vt 0.752637 0.942516 0.000000
vt 0.748355 0.942516 0.000000
vt 0.748355 0.903642 0.000000
vt 0.752637 0.903642 0.000000
vt 0.608297 0.770717 0.000000
vt 0.608297 0.772945 0.000000
vt 0.569423 0.772945 0.000000
vt 0.569423 0.770717 0.000000
vt 0.561054 0.167429 0.000000
vt 0.561054 0.001953 0.000000
vt 0.599928 0.001953 0.000000
vt 0.599928 0.167429 0.000000
vt 0.458807 0.217182 0.000000
vt 0.458807 0.210651 0.000000
vt 0.497681 0.210651 0.000000
vt 0.497681 0.217182 0.000000
vt 0.972968 0.157139 0.000000
vt 0.968186 0.157139 0.000000
vt 0.968186 0.118265 0.000000
vt 0.972968 0.118265 0.000000
vt 0.109632 0.854469 0.000000
vt 0.103101 0.854469 0.000000
vt 0.103101 0.815595 0.000000
vt 0.109632 0.815595 0.000000
vt 0.446397 0.691994 0.000000
vt 0.441615 0.691994 0.000000
vt 0.441615 0.653120 0.000000
vt 0.446397 0.653120 0.000000
vt 0.458807 0.353647 0.000000
vt 0.458807 0.255482 0.000000
vt 0.497681 0.255482 0.000000
vt 0.497681 0.353647 0.000000
vt 0.064801 0.854469 0.000000
vt 0.001953 0.854469 0.000000
vt 0.001953 0.815595 0.000000
vt 0.064801 0.815595 0.000000
vt 0.507745 0.300482 0.000000
vt 0.502963 0.300482 0.000000
vt 0.502963 0.261608 0.000000
vt 0.507745 0.261608 0.000000
vt 0.432253 0.691994 0.000000
vt 0.400661 0.691994 0.000000
vt 0.400661 0.653120 0.000000
vt 0.432253 0.653120 0.000000
vt 0.192966 0.811586 0.000000
vt 0.192966 0.653120 0.000000
vt 0.231840 0.653120 0.000000
vt 0.231840 0.811586 0.000000
vt 0.760436 0.757519 0.000000
vt 0.760436 0.599054 0.000000
vt 0.799310 0.599054 0.000000
vt 0.799310 0.757519 0.000000
vt 0.760436 0.796641 0.000000
vt 0.760436 0.761529 0.000000
vt 0.799310 0.761529 0.000000
vt 0.799310 0.796641 0.000000
vt 0.436172 0.924618 0.000000
vt 0.431390 0.924618 0.000000
vt 0.431390 0.885744 0.000000
vt 0.436172 0.885744 0.000000
vt 0.458807 0.395302 0.000000
vt 0.458807 0.390892 0.000000
vt 0.497681 0.390892 0.000000
vt 0.497681 0.395302 0.000000
vt 0.363416 0.691994 0.000000
vt 0.354705 0.691994 0.000000
vt 0.354705 0.653120 0.000000
vt 0.363416 0.653120 0.000000
vt 0.425241 0.924618 0.000000
vt 0.416053 0.924618 0.000000
vt 0.416053 0.885744 0.000000
vt 0.425241 0.885744 0.000000
vt 0.882994 0.540631 0.000000
vt 0.900626 0.540631 0.000000
vt 0.900626 0.579505 0.000000
vt 0.882994 0.579505 0.000000
vt 0.026160 0.177747 0.000000
vt 0.026160 0.169656 0.000000
vt 0.048408 0.548605 0.000000
vt 0.048408 0.567464 0.000000
vt 0.266539 0.901108 0.000000
vt 0.237121 0.901108 0.000000
vt 0.078638 0.944866 0.000000
vt 0.095596 0.944866 0.000000
vt 0.095596 0.996698 0.000000
vt 0.078638 0.996698 0.000000
vt 0.333529 0.901108 0.000000
vt 0.314724 0.901108 0.000000
vt 0.026160 0.161274 0.000000
vt 0.026160 0.150273 0.000000
vt 0.001953 0.944866 0.000000
vt 0.018911 0.944866 0.000000
vt 0.018911 0.996698 0.000000
vt 0.001953 0.996698 0.000000
vt 0.227216 0.906301 0.000000
vt 0.207856 0.906301 0.000000
vt 0.026160 0.141891 0.000000
vt 0.026160 0.131767 0.000000
vt 0.073526 0.828553 0.000000
vt 0.090484 0.828553 0.000000
vt 0.090484 0.880385 0.000000
vt 0.073526 0.880385 0.000000
vt 0.708604 0.899632 0.000000
vt 0.708604 0.857154 0.000000
vt 0.026160 0.121239 0.000000
vt 0.026160 0.115344 0.000000
vt 0.104200 0.944866 0.000000
vt 0.121158 0.944866 0.000000
vt 0.121158 0.996698 0.000000
vt 0.104200 0.996698 0.000000
vt 0.022402 0.185514 0.000000
vt 0.025646 0.185514 0.000000
vt 0.032627 0.185514 0.000000
vt 0.035275 0.185514 0.000000
vt 0.401159 0.070915 0.000000
vt 0.401159 0.107233 0.000000
vt 0.591020 0.766707 0.000000
vt 0.591020 0.599054 0.000000
vt 0.569423 0.175196 0.000000
vt 0.580733 0.175196 0.000000
vt 0.982730 0.674220 0.000000
vt 0.922175 0.674220 0.000000
vt 0.855386 0.583514 0.000000
vt 0.845490 0.583514 0.000000
vt 0.547619 0.194004 0.000000
vt 0.547619 0.193256 0.000000
vt 0.835265 0.488799 0.000000
vt 0.839800 0.488799 0.000000
vt 0.547619 0.185741 0.000000
vt 0.547619 0.171439 0.000000
vt 0.860827 0.492808 0.000000
vt 0.870723 0.492808 0.000000
vt 0.639227 0.092659 0.000000
vt 0.605210 0.092659 0.000000
vt 0.473436 0.929954 0.000000
vt 0.473436 0.599054 0.000000
vt 0.354705 0.791029 0.000000
vt 0.419999 0.791029 0.000000
vt 0.506720 0.257598 0.000000
vt 0.506720 0.210651 0.000000
vt 0.271552 0.214715 0.000000
vt 0.271552 0.203006 0.000000
vt 0.258718 0.713093 0.000000
vt 0.258718 0.653120 0.000000
vt 0.978411 0.122585 0.000000
vt 0.995033 0.122585 0.000000
vt 0.258718 0.806392 0.000000
vt 0.258718 0.786225 0.000000
vt 0.271552 0.190283 0.000000
vt 0.271552 0.183802 0.000000
vt 0.978411 0.014911 0.000000
vt 0.995033 0.014911 0.000000
vt 0.048408 0.464281 0.000000
vt 0.048408 0.498112 0.000000
vt 0.274055 0.179792 0.000000
vt 0.274055 0.001953 0.000000
vt 0.001953 0.593551 0.000000
vt 0.019040 0.593551 0.000000
vt 0.019040 0.645383 0.000000
vt 0.001953 0.645383 0.000000
vt 0.274055 0.258000 0.000000
vt 0.274055 0.227784 0.000000
vt 0.048408 0.506462 0.000000
vt 0.048408 0.540203 0.000000
vt 0.303581 0.730060 0.000000
vt 0.320668 0.730060 0.000000
vt 0.320668 0.781892 0.000000
vt 0.303581 0.781892 0.000000
vt 0.269544 0.768934 0.000000
vt 0.252458 0.768934 0.000000
vt 0.252458 0.717102 0.000000
vt 0.269544 0.717102 0.000000
vt 0.391638 0.206641 0.000000
vt 0.391638 0.115199 0.000000
vt 0.835265 0.256174 0.000000
vt 0.924106 0.256174 0.000000
vt 0.905281 0.825838 0.000000
vt 0.804591 0.825838 0.000000
vt 0.982013 0.790533 0.000000
vt 0.922175 0.790533 0.000000
vt 0.605210 0.139862 0.000000
vt 0.636964 0.139862 0.000000
vt 0.660129 0.878819 0.000000
vt 0.660129 0.910932 0.000000
vt 0.364929 0.907341 0.000000
vt 0.381457 0.907341 0.000000
vt 0.390491 0.907341 0.000000
vt 0.407019 0.907341 0.000000
vt 0.959316 0.208971 0.000000
vt 0.937512 0.208971 0.000000
vt 0.001953 0.369565 0.000000
vt 0.038523 0.369565 0.000000
vt 0.969267 0.092659 0.000000
vt 0.937512 0.092659 0.000000
vt 0.742413 0.994348 0.000000
vt 0.738130 0.994348 0.000000
vt 0.835265 0.372487 0.000000
vt 0.840874 0.372487 0.000000
vt 0.732188 0.994348 0.000000
vt 0.727906 0.994348 0.000000
vt 0.660129 0.810563 0.000000
vt 0.660129 0.840732 0.000000
vt 0.878960 0.372487 0.000000
vt 0.902301 0.372487 0.000000
vt 0.762862 0.994348 0.000000
vt 0.758580 0.994348 0.000000
vt 0.509222 0.206641 0.000000
vt 0.509222 0.205047 0.000000
vt 0.931673 0.208971 0.000000
vt 0.835265 0.208971 0.000000
vt 0.835265 0.023550 0.000000
vt 0.931673 0.023550 0.000000
vt 0.278020 0.730060 0.000000
vt 0.295106 0.730060 0.000000
vt 0.295106 0.781892 0.000000
vt 0.278020 0.781892 0.000000
vt 0.391638 0.066905 0.000000
vt 0.391638 0.001953 0.000000
vt 0.826188 0.731122 0.000000
vt 0.826188 0.701655 0.000000
vt 0.928978 0.557908 0.000000
vt 0.906838 0.557908 0.000000
vt 0.717681 0.903642 0.000000
vt 0.722316 0.903642 0.000000
vt 0.691642 0.994348 0.000000
vt 0.687007 0.994348 0.000000
vt 0.970657 0.557908 0.000000
vt 0.967206 0.557908 0.000000
vt 0.826188 0.663427 0.000000
vt 0.826188 0.639386 0.000000
vt 0.017121 0.206050 0.000000
vt 0.001953 0.206050 0.000000
vt 0.697232 0.903642 0.000000
vt 0.701866 0.903642 0.000000
vt 0.712091 0.994348 0.000000
vt 0.707456 0.994348 0.000000
vt 0.057454 0.206050 0.000000
vt 0.055055 0.206050 0.000000
vt 0.826188 0.601452 0.000000
vt 0.826188 0.599054 0.000000
vt 0.804591 0.873041 0.000000
vt 0.869885 0.873041 0.000000
vt 0.941458 0.942150 0.000000
vt 0.876164 0.942150 0.000000
vt 0.001953 0.253253 0.000000
vt 0.045864 0.253253 0.000000
vt 0.964661 0.906845 0.000000
vt 0.947737 0.906845 0.000000
vt 0.356154 0.976450 0.000000
vt 0.339368 0.976450 0.000000
vt 0.932400 0.256174 0.000000
vt 0.953883 0.256174 0.000000
vt 0.023336 0.554987 0.000000
vt 0.001953 0.554987 0.000000
vt 0.963074 0.256174 0.000000
vt 0.979998 0.256174 0.000000
vt 0.534080 0.171439 0.000000
vt 0.534080 0.194863 0.000000
vt 0.911950 0.372487 0.000000
vt 0.975769 0.372487 0.000000
vt 0.443064 0.860138 0.000000
vt 0.426278 0.860138 0.000000
vt 0.027515 0.944866 0.000000
vt 0.044472 0.944866 0.000000
vt 0.044472 0.996698 0.000000
vt 0.027515 0.996698 0.000000
vt 0.159678 0.906301 0.000000
vt 0.119537 0.906301 0.000000
vt 0.023550 0.811586 0.000000
vt 0.023550 0.653120 0.000000
vt 0.752637 0.994348 0.000000
vt 0.748355 0.994348 0.000000
vt 0.660129 0.770717 0.000000
vt 0.660129 0.772945 0.000000
vt 0.509222 0.167429 0.000000
vt 0.509222 0.001953 0.000000
vt 0.406975 0.217182 0.000000
vt 0.406975 0.210651 0.000000
vt 0.972968 0.208971 0.000000
vt 0.968186 0.208971 0.000000
vt 0.109632 0.906301 0.000000
vt 0.103101 0.906301 0.000000
vt 0.446397 0.743826 0.000000
vt 0.441615 0.743826 0.000000
vt 0.406975 0.353647 0.000000
vt 0.406975 0.255482 0.000000
vt 0.064801 0.906301 0.000000
vt 0.001953 0.906301 0.000000
vt 0.507745 0.352314 0.000000
vt 0.502963 0.352314 0.000000
vt 0.432253 0.743826 0.000000
vt 0.400661 0.743826 0.000000
vt 0.141134 0.811586 0.000000
vt 0.141134 0.653120 0.000000
vt 0.708604 0.757519 0.000000
vt 0.708604 0.599054 0.000000
vt 0.053077 0.944866 0.000000
vt 0.070034 0.944866 0.000000
vt 0.070034 0.996698 0.000000
vt 0.053077 0.996698 0.000000
vt 0.708604 0.796641 0.000000
vt 0.708604 0.761529 0.000000
vt 0.436172 0.976450 0.000000
vt 0.431390 0.976450 0.000000
vt 0.406975 0.395302 0.000000
vt 0.406975 0.390892 0.000000
vt 0.363416 0.743826 0.000000
vt 0.354705 0.743826 0.000000
vt 0.425241 0.976450 0.000000
vt 0.416053 0.976450 0.000000
vt 0.882994 0.488799 0.000000
vt 0.900626 0.488799 0.000000
vt 0.078638 0.931908 0.000000
vt 0.095596 0.931908 0.000000
vt 0.001953 0.931908 0.000000
vt 0.018911 0.931908 0.000000
vt 0.073526 0.815595 0.000000
vt 0.090484 0.815595 0.000000
vt 0.104200 0.931908 0.000000
vt 0.121158 0.931908 0.000000
vt 0.978411 0.109627 0.000000
vt 0.995033 0.109627 0.000000
vt 0.978411 0.001953 0.000000
vt 0.995033 0.001953 0.000000
vt 0.001953 0.580593 0.000000
vt 0.019040 0.580593 0.000000
vt 0.303581 0.717102 0.000000
vt 0.320668 0.717102 0.000000
vt 0.269544 0.781892 0.000000
vt 0.252458 0.781892 0.000000
vt 0.278020 0.717102 0.000000
vt 0.295106 0.717102 0.000000
vt 0.027515 0.931908 0.000000
vt 0.044472 0.931908 0.000000
vt 0.053077 0.931908 0.000000
vt 0.070034 0.931908 0.000000
vt 0.320539 0.310194 0.000000
vt 0.303581 0.310194 0.000000
vt 0.303581 0.262010 0.000000
vt 0.320539 0.262010 0.000000
vt 0.294977 0.310194 0.000000
vt 0.278020 0.310194 0.000000
vt 0.278020 0.262010 0.000000
vt 0.294977 0.262010 0.000000
vt 0.371662 0.310188 0.000000
vt 0.354705 0.310188 0.000000
vt 0.354705 0.262010 0.000000
vt 0.371662 0.262010 0.000000
vt 0.346101 0.310188 0.000000
vt 0.329143 0.310188 0.000000
vt 0.329143 0.262010 0.000000
vt 0.346101 0.262010 0.000000
vt 0.254078 0.987227 0.000000
vt 0.237121 0.987227 0.000000
vt 0.237121 0.926714 0.000000
vt 0.254078 0.926714 0.000000
vt 0.146719 0.992421 0.000000
vt 0.129762 0.992421 0.000000
vt 0.129762 0.931908 0.000000
vt 0.146719 0.931908 0.000000
vt 0.860499 0.419690 0.000000
vt 0.850602 0.419690 0.000000
vt 0.850602 0.376496 0.000000
vt 0.860499 0.376496 0.000000
vt 0.032627 0.571474 0.000000
vt 0.049250 0.571474 0.000000
vt 0.049250 0.644606 0.000000
vt 0.032627 0.644606 0.000000
vt 0.243983 0.049945 0.000000
vt 0.226896 0.049945 0.000000
vt 0.226896 0.001953 0.000000
vt 0.243983 0.001953 0.000000
vt 0.269544 0.310002 0.000000
vt 0.252458 0.310002 0.000000
vt 0.252458 0.262010 0.000000
vt 0.269544 0.262010 0.000000
vt 0.571172 0.258945 0.000000
vt 0.554086 0.258945 0.000000
vt 0.554086 0.210651 0.000000
vt 0.571172 0.210651 0.000000
vt 0.545611 0.258945 0.000000
vt 0.528524 0.258945 0.000000
vt 0.528524 0.210651 0.000000
vt 0.545611 0.210651 0.000000
vt 0.374324 0.248738 0.000000
vt 0.370042 0.248738 0.000000
vt 0.370042 0.210651 0.000000
vt 0.374324 0.210651 0.000000
vt 0.389661 0.436929 0.000000
vt 0.385379 0.436929 0.000000
vt 0.385379 0.399311 0.000000
vt 0.389661 0.399311 0.000000
vt 0.415723 0.109214 0.000000
vt 0.410941 0.109214 0.000000
vt 0.410941 0.070915 0.000000
vt 0.415723 0.070915 0.000000
vt 0.436024 0.109143 0.000000
vt 0.431390 0.109143 0.000000
vt 0.431390 0.070915 0.000000
vt 0.436024 0.070915 0.000000
vt 0.507597 0.394257 0.000000
vt 0.502963 0.394257 0.000000
vt 0.502963 0.356323 0.000000
vt 0.507597 0.356323 0.000000
vt 0.425948 0.108160 0.000000
vt 0.421165 0.108160 0.000000
vt 0.421165 0.070915 0.000000
vt 0.425948 0.070915 0.000000
vt 0.180544 0.649110 0.000000
vt 0.064907 0.649110 0.000000
vt 0.064907 0.471295 0.000000
vt 0.180544 0.471295 0.000000
vt 0.377235 0.471295 0.000000
vt 0.377235 0.455571 0.000000
vt 0.442255 0.455571 0.000000
vt 0.442255 0.471295 0.000000
vt 0.377235 0.424847 0.000000
vt 0.309125 0.455571 0.000000
vt 0.309125 0.424847 0.000000
vt 0.242607 0.471295 0.000000
vt 0.242607 0.455571 0.000000
vt 0.292226 0.455571 0.000000
vt 0.292226 0.471295 0.000000
vt 0.242607 0.424847 0.000000
vt 0.238936 0.455571 0.000000
vt 0.238936 0.424847 0.000000
vt 0.242607 0.111334 0.000000
vt 0.242607 0.325869 0.000000
vt 0.238936 0.325869 0.000000
vt 0.238936 0.111334 0.000000
vt 0.180544 0.455571 0.000000
vt 0.217663 0.455571 0.000000
vt 0.217663 0.471295 0.000000
vt 0.180544 0.424847 0.000000
vt 0.064907 0.455571 0.000000
vt 0.064907 0.424847 0.000000
vt 0.180544 0.111334 0.000000
vt 0.180544 0.325869 0.000000
vt 0.064907 0.325869 0.000000
vt 0.064907 0.111334 0.000000
vt 0.292226 0.424847 0.000000
vt 0.309125 0.471295 0.000000
vt 0.442255 0.649110 0.000000
vt 0.377235 0.649110 0.000000
vt 0.292226 0.649110 0.000000
vt 0.242607 0.649110 0.000000
vt 0.238936 0.471295 0.000000
vt 0.238936 0.649110 0.000000
vt 0.309125 0.649110 0.000000
vt 0.292226 0.401226 0.000000
vt 0.309125 0.401226 0.000000
vt 0.217663 0.424847 0.000000
vt 0.180544 0.401226 0.000000
vt 0.217663 0.401226 0.000000
vt 0.064907 0.401226 0.000000
vt 0.242607 0.401226 0.000000
vt 0.292226 0.331039 0.000000
vt 0.309125 0.331039 0.000000
vt 0.180544 0.331039 0.000000
vt 0.217663 0.331039 0.000000
vt 0.064907 0.331039 0.000000
vt 0.242607 0.331039 0.000000
vt 0.217663 0.325869 0.000000
vt 0.217663 0.111334 0.000000
vt 0.217663 0.649110 0.000000
vt 0.238936 0.401226 0.000000
vt 0.238936 0.331039 0.000000
vt 0.377235 0.401226 0.000000
vt 0.309125 0.325869 0.000000
vt 0.377235 0.325869 0.000000
vt 0.377235 0.331039 0.000000
vt 0.292226 0.325869 0.000000
vt 0.238936 0.056019 0.000000
vt 0.242607 0.056019 0.000000
vt 0.064907 0.056019 0.000000
vt 0.180544 0.056019 0.000000
vt 0.217663 0.056019 0.000000
vt 0.064907 0.001953 0.000000
vt 0.180544 0.001953 0.000000
vt 0.217663 0.001953 0.000000
vt 0.001953 0.111334 0.000000
vt 0.001953 0.056019 0.000000
vt 0.001953 0.001953 0.000000
vt 0.651460 0.595044 0.000000
vt 0.651460 0.401505 0.000000
vt 0.829133 0.401505 0.000000
vt 0.829133 0.595044 0.000000
vt 0.516832 0.595044 0.000000
vt 0.451839 0.595044 0.000000
vt 0.451839 0.401505 0.000000
vt 0.516832 0.401505 0.000000
vt 0.516832 0.271803 0.000000
vt 0.651460 0.271803 0.000000
vt 0.829133 0.271803 0.000000
vt 0.829133 0.001953 0.000000
vt 0.651460 0.001953 0.000000
# 1140 texture coords

o d_7
g d_7
f 467/1 1/2 2/3 469/4 
f 44/5 1/6 467/7 444/8 
f 468/9 3/10 46/11 433/12 
f 470/13 88/14 5/15 434/16 
f 471/17 4/18 6/19 526/20 
f 472/21 102/22 9/23 435/24 
f 473/25 8/26 10/27 536/28 
f 17/29 13/30 436/31 475/32 
f 474/33 12/34 14/35 437/36 
f 476/37 16/38 15/39 477/40 
f 437/41 14/42 16/43 476/44 
f 15/45 18/46 479/47 477/48 
f 478/49 19/50 17/51 475/52 
f 479/53 18/54 20/55 438/56 
f 108/57 19/58 478/59 480/60 
f 438/61 20/62 22/63 481/64 
f 482/65 78/66 23/67 439/68 
f 483/69 24/70 25/71 484/72 
f 485/73 87/74 26/75 440/76 
f 31/77 29/78 512/79 487/80 
f 486/81 67/82 28/83 441/84 
f 488/85 27/86 30/87 489/88 
f 489/89 30/90 32/91 491/92 
f 490/93 33/94 31/95 487/96 
f 492/97 37/98 35/99 442/100 
f 493/101 34/102 36/103 494/104 
f 494/105 36/106 38/107 496/108 
f 495/109 39/110 37/111 492/112 
f 497/113 47/114 41/115 443/116 
f 498/117 40/118 42/119 511/120 
f 433/121 46/122 45/123 499/124 
f 500/125 65/126 48/127 445/128 
f 49/129 47/130 497/131 448/132 
f 445/133 48/134 50/135 446/136 
f 501/137 51/138 52/139 447/140 
f 57/141 49/142 448/143 504/144 
f 447/145 52/146 56/147 449/148 
f 502/149 55/150 51/151 501/152 
f 446/153 50/154 53/155 503/156 
f 503/157 53/158 54/159 450/160 
f 449/161 56/162 55/163 502/164 
f 450/165 54/166 58/167 505/168 
f 63/169 59/170 506/171 507/172 
f 451/173 60/174 61/175 452/176 
f 509/177 62/178 64/179 508/180 
f 510/181 66/182 62/183 509/184 
f 452/185 61/186 65/187 500/188 
f 453/189 43/190 66/191 510/192 
f 512/193 29/194 68/195 514/196 
f 513/197 69/198 67/199 486/200 
f 516/201 72/202 71/203 515/204 
f 454/205 70/206 74/207 518/208 
f 517/209 75/210 73/211 455/212 
f 520/213 79/214 77/215 519/216 
f 456/217 76/218 78/219 482/220 
f 440/221 26/222 79/223 520/224 
f 82/225 72/226 516/227 521/228 
f 455/229 73/230 80/231 457/232 
f 522/233 81/234 83/235 458/236 
f 523/237 84/238 81/239 522/240 
f 457/241 80/242 85/243 524/244 
f 524/245 85/246 87/247 485/248 
f 525/249 86/250 84/251 523/252 
f 25/253 27/254 488/255 484/256 
f 441/257 28/258 82/259 521/260 
f 458/261 83/262 86/263 525/264 
f 459/265 7/266 89/267 460/268 
f 460/269 89/270 93/271 461/272 
f 528/273 92/274 91/275 527/276 
f 462/277 90/278 88/279 470/280 
f 529/281 94/282 92/283 528/284 
f 461/285 93/286 95/287 530/288 
f 100/289 96/290 531/291 532/292 
f 463/293 97/294 98/295 464/296 
f 534/297 99/298 101/299 533/300 
f 535/301 103/302 99/303 534/304 
f 464/305 98/306 102/307 472/308 
f 465/309 11/310 103/311 535/312 
f 538/313 106/314 104/315 537/316 
f 466/317 105/318 107/319 539/320 
f 539/321 107/322 108/323 480/324 
f 21/325 106/326 538/327 540/328 
f 217/329 220/330 110/331 109/332 
f 260/333 217/334 109/335 152/336 
f 219/337 218/338 154/339 111/340 
f 222/341 221/342 113/343 196/344 
f 223/345 303/346 114/347 112/348 
f 225/349 224/350 117/351 210/352 
f 226/353 319/354 118/355 116/356 
f 230/357 227/358 121/359 125/360 
f 229/361 228/362 122/363 120/364 
f 231/365 232/366 123/367 124/368 
f 228/369 231/370 124/371 122/372 
f 232/373 234/374 126/375 123/376 
f 233/377 230/378 125/379 127/380 
f 234/381 235/382 128/383 126/384 
f 236/385 233/386 127/387 216/388 
f 237/389 324/390 129/391 130/392 
f 235/393 237/394 130/395 128/396 
f 239/397 238/398 131/399 186/400 
f 240/401 241/402 133/403 132/404 
f 238/405 240/406 132/407 131/408 
f 243/409 242/410 134/411 195/412 
f 246/413 283/414 137/415 139/416 
f 245/417 244/418 136/419 175/420 
f 247/421 248/422 138/423 135/424 
f 248/425 250/426 140/427 138/428 
f 249/429 246/430 139/431 141/432 
f 250/433 249/434 141/435 140/436 
f 252/437 251/438 143/439 145/440 
f 253/441 254/442 144/443 142/444 
f 251/445 253/446 142/447 143/448 
f 254/449 256/450 146/451 144/452 
f 255/453 252/454 145/455 147/456 
f 258/457 257/458 149/459 155/460 
f 259/461 282/462 150/463 148/464 
f 218/465 261/466 153/467 154/468 
f 263/469 262/470 156/471 173/472 
f 267/473 258/474 155/475 157/476 
f 262/477 264/478 158/479 156/480 
f 266/481 265/482 160/483 159/484 
f 272/485 267/486 157/487 165/488 
f 265/489 268/490 164/491 160/492 
f 269/493 266/494 159/495 163/496 
f 264/497 270/498 161/499 158/500 
f 270/501 271/502 162/503 161/504 
f 268/505 269/506 163/507 164/508 
f 273/509 272/510 165/511 166/512 
f 271/513 273/514 166/515 162/516 
f 275/517 274/518 168/519 167/520 
f 277/521 275/522 167/523 171/524 
f 274/525 276/526 169/527 168/528 
f 278/529 277/530 171/531 172/532 
f 279/533 278/534 172/535 170/536 
f 280/537 279/538 170/539 174/540 
f 276/541 263/542 173/543 169/544 
f 281/545 280/546 174/547 151/548 
f 283/549 285/550 176/551 137/552 
f 284/553 245/554 175/555 177/556 
f 285/557 284/558 177/559 176/560 
f 287/561 286/562 178/563 179/564 
f 288/565 287/566 179/567 180/568 
f 286/569 291/570 182/571 178/572 
f 290/573 289/574 181/575 183/576 
f 291/577 290/578 183/579 182/580 
f 293/581 292/582 184/583 185/584 
f 294/585 293/586 185/587 187/588 
f 292/589 239/590 186/591 184/592 
f 242/593 294/594 187/595 134/596 
f 296/597 288/598 180/599 190/600 
f 289/601 295/602 188/603 181/604 
f 298/605 297/606 191/607 189/608 
f 299/609 298/610 189/611 192/612 
f 295/613 300/614 193/615 188/616 
f 300/617 243/618 195/619 193/620 
f 301/621 299/622 192/623 194/624 
f 241/625 247/626 135/627 133/628 
f 244/629 296/630 190/631 136/632 
f 297/633 301/634 194/635 191/636 
f 302/637 304/638 197/639 115/640 
f 304/641 305/642 201/643 197/644 
f 307/645 306/646 198/647 199/648 
f 308/649 307/650 199/651 200/652 
f 306/653 222/654 196/655 198/656 
f 309/657 308/658 200/659 202/660 
f 310/661 309/662 202/663 203/664 
f 305/665 310/666 203/667 201/668 
f 312/669 311/670 205/671 204/672 
f 314/673 312/674 204/675 208/676 
f 311/677 313/678 206/679 205/680 
f 315/681 314/682 208/683 209/684 
f 316/685 315/686 209/687 207/688 
f 317/689 316/690 207/691 211/692 
f 313/693 225/694 210/695 206/696 
f 318/697 317/698 211/699 119/700 
f 321/701 320/702 213/703 212/704 
f 322/705 321/706 212/707 214/708 
f 320/709 323/710 215/711 213/712 
f 323/713 236/714 216/715 215/716 
f 324/717 322/718 214/719 129/720 
f 359/721 361/722 220/330 217/329 
f 336/723 359/724 217/334 260/333 
f 360/725 325/726 218/338 219/337 
f 361/727 360/728 219/729 220/730 
f 362/731 326/732 221/342 222/341 
f 363/733 418/734 303/346 223/345 
f 326/735 363/736 223/737 221/738 
f 364/739 327/740 224/350 225/349 
f 365/741 428/742 319/354 226/353 
f 327/743 365/744 226/745 224/746 
f 367/747 328/748 227/358 230/357 
f 366/749 329/750 228/362 229/361 
f 328/751 366/752 229/753 227/754 
f 368/755 369/756 232/366 231/365 
f 329/757 368/758 231/370 228/369 
f 369/759 371/760 234/374 232/373 
f 370/761 367/762 230/378 233/377 
f 371/763 330/764 235/382 234/381 
f 372/765 370/766 233/386 236/385 
f 373/767 432/768 324/390 237/389 
f 330/769 373/770 237/394 235/393 
f 374/771 331/772 238/398 239/397 
f 375/773 376/774 241/402 240/401 
f 331/775 375/776 240/406 238/405 
f 377/777 332/778 242/410 243/409 
f 379/779 404/780 283/414 246/413 
f 378/781 333/782 244/418 245/417 
f 380/783 381/784 248/422 247/421 
f 381/785 383/786 250/426 248/425 
f 382/787 379/788 246/430 249/429 
f 383/789 382/790 249/434 250/433 
f 384/791 334/792 251/438 252/437 
f 385/793 386/794 254/442 253/441 
f 334/795 385/796 253/446 251/445 
f 386/797 388/798 256/450 254/449 
f 387/799 384/800 252/454 255/453 
f 388/801 387/802 255/803 256/804 
f 389/805 335/806 257/458 258/457 
f 390/807 403/808 282/462 259/461 
f 335/809 390/810 259/811 257/812 
f 391/813 336/814 260/815 261/816 
f 325/817 391/818 261/466 218/465 
f 392/819 337/820 262/470 263/469 
f 340/821 389/822 258/474 267/473 
f 337/823 338/824 264/478 262/477 
f 393/825 339/826 265/482 266/481 
f 396/827 340/828 267/486 272/485 
f 339/829 341/830 268/490 265/489 
f 394/831 393/832 266/494 269/493 
f 338/833 395/834 270/498 264/497 
f 395/835 342/836 271/502 270/501 
f 341/837 394/838 269/506 268/505 
f 397/839 396/840 272/510 273/509 
f 342/841 397/842 273/514 271/513 
f 398/843 343/844 274/518 275/517 
f 399/845 398/846 275/522 277/521 
f 343/847 344/848 276/526 274/525 
f 400/849 399/850 277/530 278/529 
f 401/851 400/852 278/534 279/533 
f 402/853 401/854 279/538 280/537 
f 344/855 392/856 263/542 276/541 
f 403/857 345/858 281/859 282/860 
f 345/861 402/862 280/546 281/545 
f 404/863 406/864 285/550 283/549 
f 405/865 378/866 245/554 284/553 
f 406/867 405/868 284/558 285/557 
f 407/869 346/870 286/562 287/561 
f 408/871 407/872 287/566 288/565 
f 346/873 410/874 291/570 286/569 
f 409/875 347/876 289/574 290/573 
f 410/877 409/878 290/578 291/577 
f 411/879 348/880 292/582 293/581 
f 412/881 411/882 293/586 294/585 
f 348/883 374/884 239/590 292/589 
f 332/885 412/886 294/594 242/593 
f 413/887 408/888 288/598 296/597 
f 347/889 349/890 295/602 289/601 
f 414/891 350/892 297/606 298/605 
f 415/893 414/894 298/610 299/609 
f 349/895 416/896 300/614 295/613 
f 416/897 377/898 243/618 300/617 
f 417/899 415/900 299/622 301/621 
f 376/901 380/902 247/626 241/625 
f 333/903 413/904 296/630 244/629 
f 350/905 417/906 301/634 297/633 
f 418/907 351/908 302/909 303/910 
f 351/911 352/912 304/638 302/637 
f 352/913 353/914 305/642 304/641 
f 419/915 354/916 306/646 307/645 
f 420/917 419/918 307/650 308/649 
f 354/919 362/920 222/654 306/653 
f 421/921 420/922 308/658 309/657 
f 422/923 421/924 309/662 310/661 
f 353/925 422/926 310/666 305/665 
f 423/927 355/928 311/670 312/669 
f 424/929 423/930 312/674 314/673 
f 355/931 356/932 313/678 311/677 
f 425/933 424/934 314/682 315/681 
f 426/935 425/936 315/686 316/685 
f 427/937 426/938 316/690 317/689 
f 356/939 364/940 225/694 313/693 
f 428/941 357/942 318/943 319/944 
f 357/945 427/946 317/698 318/697 
f 429/947 358/948 320/702 321/701 
f 430/949 429/950 321/706 322/705 
f 358/951 431/952 323/710 320/709 
f 431/953 372/954 236/714 323/713 
f 432/955 430/956 322/718 324/717 
f 467/1 469/4 361/722 359/721 
f 444/8 467/7 359/724 336/723 
f 468/9 433/12 325/726 360/725 
f 469/957 468/958 360/728 361/727 
f 470/13 434/16 326/732 362/731 
f 471/17 526/20 418/734 363/733 
f 434/959 471/960 363/736 326/735 
f 472/21 435/24 327/740 364/739 
f 473/25 536/28 428/742 365/741 
f 435/961 473/962 365/744 327/743 
f 475/32 436/31 328/748 367/747 
f 474/33 437/36 329/750 366/749 
f 436/963 474/964 366/752 328/751 
f 476/37 477/40 369/756 368/755 
f 437/41 476/44 368/758 329/757 
f 477/48 479/47 371/760 369/759 
f 478/49 475/52 367/762 370/761 
f 479/53 438/56 330/764 371/763 
f 480/60 478/59 370/766 372/765 
f 438/61 481/64 373/770 330/769 
f 482/65 439/68 331/772 374/771 
f 483/69 484/72 376/774 375/773 
f 485/73 440/76 332/778 377/777 
f 487/80 512/79 404/780 379/779 
f 486/81 441/84 333/782 378/781 
f 488/85 489/88 381/784 380/783 
f 489/89 491/92 383/786 381/785 
f 490/93 487/96 379/788 382/787 
f 491/965 490/966 382/790 383/789 
f 492/97 442/100 334/792 384/791 
f 493/101 494/104 386/794 385/793 
f 442/967 493/968 385/796 334/795 
f 494/105 496/108 388/798 386/797 
f 495/109 492/112 384/800 387/799 
f 496/969 495/970 387/802 388/801 
f 497/113 443/116 335/806 389/805 
f 498/117 511/120 403/808 390/807 
f 443/971 498/972 390/810 335/809 
f 499/973 444/974 336/814 391/813 
f 433/121 499/124 391/818 325/817 
f 500/125 445/128 337/820 392/819 
f 448/132 497/131 389/822 340/821 
f 445/133 446/136 338/824 337/823 
f 501/137 447/140 339/826 393/825 
f 504/144 448/143 340/828 396/827 
f 447/145 449/148 341/830 339/829 
f 502/149 501/152 393/832 394/831 
f 446/153 503/156 395/834 338/833 
f 503/157 450/160 342/836 395/835 
f 449/161 502/164 394/838 341/837 
f 450/165 505/168 397/842 342/841 
f 507/172 506/171 398/846 399/845 
f 451/173 452/176 344/848 343/847 
f 509/177 508/180 400/852 401/851 
f 510/181 509/184 401/854 402/853 
f 452/185 500/188 392/856 344/855 
f 511/975 453/976 345/858 403/857 
f 453/189 510/192 402/862 345/861 
f 512/193 514/196 406/864 404/863 
f 513/197 486/200 378/866 405/865 
f 516/201 515/204 407/872 408/871 
f 454/205 518/208 410/874 346/873 
f 517/209 455/212 347/876 409/875 
f 520/213 519/216 411/882 412/881 
f 456/217 482/220 374/884 348/883 
f 440/221 520/224 412/886 332/885 
f 521/228 516/227 408/888 413/887 
f 455/229 457/232 349/890 347/889 
f 522/233 458/236 350/892 414/891 
f 523/237 522/240 414/894 415/893 
f 457/241 524/244 416/896 349/895 
f 524/245 485/248 377/898 416/897 
f 525/249 523/252 415/900 417/899 
f 484/256 488/255 380/902 376/901 
f 441/257 521/260 413/904 333/903 
f 458/261 525/264 417/906 350/905 
f 526/977 459/978 351/908 418/907 
f 459/265 460/268 352/912 351/911 
f 460/269 461/272 353/914 352/913 
f 528/273 527/276 419/918 420/917 
f 462/277 470/280 362/920 354/919 
f 529/281 528/284 420/922 421/921 
f 461/285 530/288 422/926 353/925 
f 532/292 531/291 423/930 424/929 
f 463/293 464/296 356/932 355/931 
f 534/297 533/300 425/936 426/935 
f 535/301 534/304 426/938 427/937 
f 464/305 472/308 364/940 356/939 
f 536/979 465/980 357/942 428/941 
f 465/309 535/312 427/946 357/945 
f 538/313 537/316 429/950 430/949 
f 466/317 539/320 431/952 358/951 
f 539/321 480/324 372/954 431/953 
f 540/328 538/327 430/956 432/955 
f 434/16 5/15 3/10 468/9 
f 471/981 434/982 468/983 469/984 
f 4/18 471/17 469/4 2/3 
f 223/345 112/348 110/331 220/330 
f 221/985 223/986 220/987 219/988 
f 113/343 221/342 219/337 111/340 
f 526/20 6/19 8/26 473/25 
f 459/989 526/990 473/991 435/992 
f 7/266 459/265 435/24 9/23 
f 302/637 115/640 117/351 224/350 
f 303/993 302/994 224/995 226/996 
f 114/347 303/346 226/353 116/356 
f 536/28 10/27 12/34 474/33 
f 465/997 536/998 474/999 436/1000 
f 11/310 465/309 436/31 13/30 
f 318/697 119/700 121/359 227/358 
f 319/1001 318/1002 227/1003 229/1004 
f 118/355 319/354 229/361 120/364 
f 375/1005 331/1006 432/1007 373/1008 
f 483/69 375/773 373/770 481/64 
f 24/70 483/69 481/64 22/63 
f 439/68 23/67 21/325 540/328 
f 331/772 439/68 540/328 432/955 
f 34/102 493/101 491/92 32/91 
f 442/100 35/99 33/94 490/93 
f 493/1009 442/1010 490/1011 491/1012 
f 443/116 41/115 39/110 495/109 
f 498/1013 443/1014 495/1015 496/1016 
f 40/118 498/117 496/108 38/107 
f 259/461 148/464 146/451 256/450 
f 257/1017 259/1018 256/1019 255/1020 
f 149/459 257/458 255/453 147/456 
f 511/120 42/119 44/5 444/8 
f 453/1021 511/1022 444/1023 499/1024 
f 43/190 453/189 499/124 45/123 
f 281/545 151/548 153/467 261/466 
f 282/1025 281/1026 261/1027 260/1028 
f 150/463 282/462 260/333 152/336 
f 343/1029 398/1030 396/1031 397/1032 
f 451/173 343/847 397/842 505/168 
f 60/174 451/173 505/168 58/167 
f 506/171 59/170 57/141 504/144 
f 398/846 506/171 504/144 396/827 
f 354/1033 419/1034 399/1035 400/1036 
f 462/277 354/919 400/852 508/180 
f 90/278 462/277 508/180 64/179 
f 527/276 91/275 63/169 507/172 
f 419/918 527/276 507/172 399/845 
f 355/1037 423/1038 421/1039 422/1040 
f 463/293 355/931 422/926 530/288 
f 97/294 463/293 530/288 95/287 
f 531/291 96/290 94/282 529/281 
f 423/930 531/291 529/281 421/921 
f 346/1041 407/1042 405/1043 406/1044 
f 454/205 346/873 406/864 514/196 
f 70/206 454/205 514/196 68/195 
f 515/204 71/203 69/198 513/197 
f 407/872 515/204 513/197 405/865 
f 348/1045 411/1046 409/1047 410/1048 
f 456/217 348/883 410/874 518/208 
f 76/218 456/217 518/208 74/207 
f 519/216 77/215 75/210 517/209 
f 411/882 519/216 517/209 409/875 
f 358/1049 429/1050 424/1051 425/1052 
f 466/317 358/951 425/936 533/300 
f 105/318 466/317 533/300 101/299 
f 537/316 104/315 100/289 532/292 
f 429/950 537/316 532/292 424/929 
f 557/1053 543/1054 566/1055 565/1056 
f 562/1057 545/1058 542/1059 561/1060 
f 571/1061 545/1058 587/1062 586/1063 
f 564/1064 550/1065 559/1066 563/1067 
f 569/1068 550/1065 581/1069 580/1070 
f 600/1071 549/1072 578/1073 599/1074 
f 565/1056 556/1075 607/1076 608/1077 
f 568/1078 556/1075 541/1079 567/1080 
f 598/1081 555/1082 547/1083 597/1084 
f 570/1085 559/1066 550/1065 569/1068 
f 563/1067 559/1066 587/1062 588/1086 
f 565/1056 566/1055 541/1079 556/1075 
f 562/1057 561/1060 544/1087 546/1088 
f 564/1064 563/1067 560/1089 551/1090 
f 582/1091 564/1064 551/1090 583/1092 
f 588/1086 562/1057 546/1088 589/1093 
f 586/1063 570/1085 575/1094 585/1095 
f 606/1096 568/1078 573/1097 605/1098 
f 568/1078 567/1080 572/1099 573/1097 
f 570/1085 569/1068 574/1100 575/1094 
f 585/1095 575/1094 594/1101 595/1102 
f 605/1098 573/1097 591/1103 604/1104 
f 573/1097 572/1099 590/1105 591/1103 
f 575/1094 574/1100 593/1106 594/1101 
f 580/1070 581/1069 607/1076 606/1096 
f 599/1074 578/1073 603/1107 602/1108 
f 582/1091 581/1069 550/1065 564/1064 
f 582/1091 583/1092 609/1109 608/1077 
f 580/1070 579/1110 574/1100 569/1068 
f 592/1111 578/1073 549/1072 593/1106 
f 586/1063 587/1062 559/1066 570/1085 
f 588/1086 587/1062 545/1058 562/1057 
f 588/1086 589/1093 560/1089 563/1067 
f 586/1063 585/1095 576/1112 571/1061 
f 595/1102 584/1113 548/1114 596/1115 
f 595/1102 594/1101 558/1116 584/1113 
f 604/1104 591/1103 555/1082 603/1107 
f 591/1103 590/1105 547/1083 555/1082 
f 594/1101 593/1106 549/1072 558/1116 
f 592/1111 593/1106 574/1100 579/1110 
f 595/1102 596/1115 576/1112 585/1095 
f 600/1071 599/1074 577/1117 553/1118 
f 598/1081 597/1084 552/1119 554/1120 
f 602/1108 598/1081 554/1120 601/1121 
f 608/1077 607/1076 581/1069 582/1091 
f 606/1096 605/1098 579/1110 580/1070 
f 605/1098 604/1104 592/1111 579/1110 
f 606/1096 607/1076 556/1075 568/1078 
f 602/1108 603/1107 555/1082 598/1081 
f 608/1077 609/1109 557/1053 565/1056 
f 604/1104 603/1107 578/1073 592/1111 
f 602/1108 601/1121 577/1117 599/1074 
f 610/1122 611/1123 554/1120 552/1119 
f 611/1123 612/1124 601/1121 554/1120 
f 614/1125 613/1126 552/1119 597/1084 
f 613/1126 615/1127 610/1122 552/1119 
f 626/1128 625/1129 616/1130 618/1131 
f 621/1132 619/1133 617/1134 620/1135 
f 623/1136 624/1137 625/1129 620/1135 
f 626/1128 621/1132 620/1135 625/1129 
f 624/1137 622/1138 616/1130 625/1129 
f 627/1139 622/1138 624/1137 628/1140 
# 512 polygons

