# 3ds Max Wavefront OBJ Exporter v0.99 - (c)2007 guruware
# File Created: 07.02.2022 18:28:42

#
# object 100_ceil
#

v  -3.603594 2.600373 9.854649
v  1.594531 2.600373 4.838750
v  -2.651094 2.600373 -10.162930
v  1.594531 2.600373 -10.162930
v  3.348281 2.600373 10.185273
v  3.602656 2.600373 4.838828
# 6 vertices

vt 0.283255 0.794419 0.000000
vt 0.283255 0.009853 0.000000
vt 0.449282 0.001953 0.000000
vt 0.477196 0.588598 0.000000
vt 0.555724 0.584865 0.000000
vt 0.555725 0.794413 0.000000
# 6 texture coords

o 100_ceil
g 100_ceil
f 1/1 3/2 4/3 2/4 
f 2/4 6/5 5/6 1/1 
# 2 polygons

