# 3ds Max Wavefront OBJ Exporter v0.99 - (c)2007 guruware
# File Created: 07.02.2022 18:22:31

#
# object 4_floor
#

v  -3.017656 0.000009 0.092559
v  3.017344 0.000009 0.092559
v  -3.017656 0.000009 -7.344472
v  3.017344 0.000009 -7.344472
v  -3.017656 0.000009 1.680254
v  3.017344 0.000009 1.680254
v  -0.077969 0.000009 1.680254
v  -0.077969 0.000009 0.092559
v  -0.077969 0.000009 -7.344472
v  0.146406 0.000009 1.680254
v  0.146406 0.000009 0.092559
v  0.146406 0.000009 -7.344472
v  3.017344 0.000009 -4.375156
v  0.146406 0.000009 -4.375156
v  -0.077969 0.000009 -4.375156
v  -3.017656 0.000009 -4.375156
v  1.244531 0.000009 -7.344472
v  1.244531 0.000009 -4.375156
v  1.244531 0.000009 0.092559
v  1.244531 0.000009 1.680254
v  -3.017656 0.000009 7.344512
v  3.017344 0.000009 7.073960
v  -0.077969 0.000009 7.212723
v  0.146406 0.000009 7.202665
v  1.244531 0.000009 7.153435
# 25 vertices

vt 0.346814 0.171630 0.000000
vt 0.178830 0.171630 0.000000
vt 0.178830 0.001953 0.000000
vt 0.346814 0.001953 0.000000
vt 0.103258 0.426931 0.000000
vt 0.103258 0.517657 0.000000
vt 0.001953 0.517657 0.000000
vt 0.001953 0.426931 0.000000
vt 0.166008 0.426931 0.000000
vt 0.166008 0.171630 0.000000
vt 0.178830 0.426931 0.000000
vt 0.346814 0.426931 0.000000
vt 0.346814 0.517657 0.000000
vt 0.178830 0.517657 0.000000
vt 0.166008 0.517657 0.000000
vt 0.103258 0.171630 0.000000
vt 0.166008 0.001953 0.000000
vt 0.001953 0.001953 0.000000
vt 0.103258 0.001953 0.000000
vt 0.001953 0.171630 0.000000
vt 0.346814 0.841332 0.000000
vt 0.178830 0.833802 0.000000
vt 0.166008 0.833227 0.000000
vt 0.103258 0.830414 0.000000
vt 0.001953 0.825872 0.000000
# 25 texture coords

o 4_floor
g 4_floor
f 16/1 15/2 9/3 3/4 
f 19/5 20/6 6/7 2/8 
f 11/9 14/10 15/2 8/11 
f 1/12 5/13 7/14 8/11 
f 8/11 7/14 10/15 11/9 
f 19/5 18/16 14/10 11/9 
f 1/12 8/11 15/2 16/1 
f 12/17 9/3 15/2 14/10 
f 4/18 17/19 18/16 13/20 
f 11/9 10/15 20/6 19/5 
f 2/8 13/20 18/16 19/5 
f 12/17 14/10 18/16 17/19 
f 7/14 5/13 21/21 23/22 
f 10/15 7/14 23/22 24/23 
f 20/6 10/15 24/23 25/24 
f 6/7 20/6 25/24 22/25 
# 16 polygons

