# 3ds Max Wavefront OBJ Exporter v0.99 - (c)2007 guruware
# File Created: 09.02.2022 00:38:04

#
# object b19_050
#

v  -3.794513 2.600000 -3.482956
v  5.763312 2.600000 -3.225481
v  6.032180 2.600000 -3.482956
v  5.763312 2.600000 -2.434735
v  6.032181 2.600000 -2.434735
v  5.763313 2.600000 -1.434732
v  6.032182 2.600000 -1.434732
v  5.763312 2.600000 -0.390421
v  5.763312 2.600000 -0.277640
v  5.763312 2.600000 2.987410
v  6.032180 2.600000 3.253245
v  4.656894 2.600000 2.987410
v  4.002672 2.600000 2.987410
v  0.253098 2.600000 2.987410
v  0.253098 2.600000 3.253245
v  0.253098 2.600000 3.483005
v  -0.143942 2.600000 3.483005
v  0.253098 2.600000 2.725403
v  -0.143942 2.600000 2.725403
v  0.253098 2.600000 1.561808
v  -0.143942 2.600000 1.561808
v  -0.143942 2.600000 0.782062
v  -1.741073 2.600000 0.782062
v  -1.741073 2.600000 0.399429
v  -2.904144 2.600000 0.782062
v  -2.904144 2.600000 0.399429
v  -3.437767 2.600000 0.399429
v  -3.794513 2.600000 0.782062
v  -3.437767 2.600000 -0.694852
v  -3.794513 2.600000 -0.694852
v  -3.437767 2.600000 -2.284543
v  -3.794513 2.600000 -2.284543
v  -3.437674 2.600000 -3.225481
v  0.140773 2.600000 0.399429
v  0.253098 2.600000 0.328842
v  0.253098 2.600000 0.216827
v  0.253098 2.600000 -0.406090
v  0.140773 2.600000 -0.406090
v  2.489585 2.600000 0.216827
v  2.944773 2.600000 0.328842
v  2.489585 2.600000 -0.560249
v  2.842826 2.600000 -0.560249
v  2.944773 2.600000 -1.563514
v  2.842826 2.600000 -1.563514
v  4.656894 2.600000 2.620089
v  4.128599 2.600000 2.620089
v  4.128599 2.600000 -0.277640
v  4.002672 2.600000 -0.277640
v  3.948543 2.600000 -0.277640
v  3.948543 2.600000 -0.390421
v  2.944773 2.600000 -0.277640
v  2.944773 2.600000 -0.390421
v  3.013299 2.600000 -0.277640
v  3.013299 2.600000 -0.390421
v  4.740939 2.600000 -0.277640
v  4.740939 2.600000 -0.390421
v  5.686092 2.600000 -0.390421
v  5.686092 2.600000 -0.277640
v  -3.794513 0.000000 -3.482956
v  5.763312 0.000000 -3.225481
v  6.032180 0.000000 -3.482956
v  5.763312 0.000000 -2.434735
v  6.032181 0.000000 -2.434735
v  5.763313 0.000000 -1.434732
v  6.032182 0.000000 -1.434732
v  5.763312 0.000000 -0.390421
v  5.763312 0.000000 -0.277640
v  5.763312 0.000000 2.987410
v  6.032180 0.000000 3.253245
v  4.656894 0.000000 2.987410
v  4.002672 0.000000 2.987410
v  0.253098 0.000000 2.987410
v  0.253098 0.000000 3.253245
v  0.253098 0.000000 3.483005
v  -0.143942 0.000000 3.483005
v  0.253098 0.000000 2.725403
v  -0.143942 0.000000 2.725403
v  0.253098 0.000000 1.561808
v  -0.143942 0.000000 1.561808
v  -0.143942 0.000000 0.782062
v  -1.741073 0.000000 0.782062
v  -1.741073 0.000000 0.399429
v  -2.904144 0.000000 0.782062
v  -2.904144 0.000000 0.399429
v  -3.437767 0.000000 0.399429
v  -3.794513 0.000000 0.782062
v  -3.437767 0.000000 -0.694852
v  -3.794513 0.000000 -0.694852
v  -3.437767 0.000000 -2.284543
v  -3.794513 0.000000 -2.284543
v  -3.437674 0.000000 -3.225481
v  0.140773 0.000000 0.399429
v  0.253098 0.000000 0.328842
v  0.253098 0.000000 0.216827
v  0.253098 0.000000 -0.406090
v  0.140773 0.000000 -0.406090
v  2.489585 0.000000 0.216827
v  2.944773 0.000000 0.328842
v  2.489585 0.000000 -0.560249
v  2.842826 0.000000 -0.560249
v  2.944773 0.000000 -1.563514
v  2.842826 0.000000 -1.563514
v  4.656894 0.000000 2.620089
v  4.128599 0.000000 2.620089
v  4.128599 0.000000 -0.277640
v  4.002672 0.000000 -0.277640
v  3.948543 0.000000 -0.277640
v  3.948543 0.000000 -0.390421
v  2.944773 0.000000 -0.277640
v  2.944773 0.000000 -0.390421
v  3.013299 0.000000 -0.277640
v  3.013299 0.000000 -0.390421
v  4.740939 0.000000 -0.277640
v  4.740939 0.000000 -0.390421
v  5.686092 0.000000 -0.390421
v  5.686092 0.000000 -0.277640
v  -3.794513 0.900000 -3.482956
v  -3.437674 0.900000 -3.225481
v  5.763312 0.900000 -3.225481
v  6.032180 0.900000 -3.482956
v  5.763312 0.900000 -2.434735
v  6.032181 0.900000 -2.434735
v  6.032182 0.900000 -1.434732
v  5.763313 0.900000 -1.434732
v  5.763312 0.900000 -0.390421
v  5.763312 0.900000 -0.277640
v  5.763312 0.900000 2.987410
v  6.032180 0.900000 3.253245
v  4.656894 0.900000 2.987410
v  4.002672 0.900000 2.987410
v  0.253098 0.900000 2.987410
v  0.253098 0.900000 3.253245
v  -0.143942 0.900000 3.483005
v  0.253098 0.900000 3.483005
v  0.253098 0.900000 2.725403
v  -0.143942 0.900000 2.725403
v  -0.143942 0.900000 0.782062
v  -0.143942 0.900000 1.561808
v  0.140773 0.900000 0.399429
v  -1.741073 0.900000 0.399429
v  -1.741073 0.900000 0.782062
v  -2.904144 0.900000 0.782062
v  -2.904144 0.900000 0.399429
v  -3.437767 0.900000 0.399429
v  -3.794513 0.900000 0.782062
v  -3.437767 0.900000 -0.694852
v  -3.794513 0.900000 -0.694852
v  -3.794513 0.900000 -2.284543
v  -3.437767 0.900000 -2.284543
v  0.253098 0.900000 1.561808
v  0.253098 0.900000 0.328842
v  0.253098 0.900000 0.216827
v  0.253098 0.900000 -0.406090
v  0.140773 0.900000 -0.406090
v  2.489585 0.900000 0.216827
v  2.944773 0.900000 0.328842
v  2.944773 0.900000 -0.277640
v  2.944773 0.900000 -1.563514
v  2.842826 0.900000 -1.563514
v  2.842826 0.900000 -0.560249
v  4.656894 0.900000 2.620089
v  4.128599 0.900000 2.620089
v  4.128599 0.900000 -0.277640
v  4.002672 0.900000 -0.277640
v  3.948543 0.900000 -0.390421
v  3.948543 0.900000 -0.277640
v  2.489585 0.900000 -0.560249
v  2.944773 0.900000 -0.390421
v  3.013299 0.900000 -0.277640
v  3.013299 0.900000 -0.390421
v  4.740939 0.900000 -0.277640
v  4.740939 0.900000 -0.390421
v  5.686092 0.900000 -0.390421
v  5.686092 0.900000 -0.277640
v  -3.437674 2.100000 -3.225481
v  6.032182 2.100000 -1.434732
v  5.763312 2.100000 -0.277640
v  4.002672 2.100000 2.987410
v  0.253098 2.100000 3.253245
v  -0.143942 2.100000 0.782062
v  0.140773 2.100000 0.399429
v  -2.904144 2.100000 0.782062
v  -3.794513 2.100000 -2.284543
v  0.253098 2.100000 1.561808
v  0.253098 2.100000 0.216827
v  2.489585 2.100000 0.216827
v  2.944773 2.100000 0.328842
v  4.002672 2.100000 -0.277640
v  2.944773 2.100000 -0.390421
v  -3.794513 2.100000 -3.482956
v  5.763312 2.100000 -3.225481
v  6.032180 2.100000 -3.482956
v  5.763312 2.100000 -2.434735
v  6.032181 2.100000 -2.434735
v  5.763313 2.100000 -1.434732
v  5.763312 2.100000 -0.390421
v  5.763312 2.100000 2.987410
v  6.032180 2.100000 3.253245
v  4.656894 2.100000 2.987410
v  0.253098 2.100000 2.987410
v  -0.143942 2.100000 3.483005
v  0.253098 2.100000 3.483005
v  0.253098 2.100000 2.725403
v  -0.143942 2.100000 2.725403
v  -0.143942 2.100000 1.561808
v  -1.741073 2.100000 0.399429
v  -1.741073 2.100000 0.782062
v  -2.904144 2.100000 0.399429
v  -3.437767 2.100000 0.399429
v  -3.794513 2.100000 0.782062
v  -3.437767 2.100000 -0.694852
v  -3.794513 2.100000 -0.694852
v  -3.437767 2.100000 -2.284543
v  0.253098 2.100000 0.328842
v  0.253098 2.100000 -0.406090
v  0.140773 2.100000 -0.406090
v  2.944773 2.100000 -0.277640
v  2.944773 2.100000 -1.563514
v  2.842826 2.100000 -1.563514
v  2.842826 2.100000 -0.560249
v  4.656894 2.100000 2.620089
v  4.128599 2.100000 2.620089
v  4.128599 2.100000 -0.277640
v  3.948543 2.100000 -0.390421
v  3.948543 2.100000 -0.277640
v  2.489585 2.100000 -0.560249
v  3.013299 2.100000 -0.277640
v  3.013299 2.100000 -0.390421
v  4.740939 2.100000 -0.277640
v  4.740939 2.100000 -0.390421
v  5.686092 2.100000 -0.390421
v  5.686092 2.100000 -0.277640
v  -3.437674 2.400000 -3.225481
v  6.032182 2.400000 -1.434732
v  5.763312 2.400000 -0.277640
v  4.002672 2.400000 2.987410
v  0.253098 2.400000 3.253245
v  -0.143942 2.400000 0.782062
v  0.140773 2.400000 0.399429
v  -2.904144 2.400000 0.782062
v  -3.794513 2.400000 -2.284543
v  0.253098 2.400000 1.561808
v  0.253098 2.400000 0.216827
v  2.489585 2.400000 0.216827
v  2.944773 2.400000 0.328842
v  4.002672 2.400000 -0.277640
v  2.944773 2.400000 -0.390421
v  -3.794513 2.400000 -3.482956
v  5.763312 2.400000 -3.225481
v  6.032180 2.400000 -3.482956
v  5.763312 2.400000 -2.434735
v  6.032181 2.400000 -2.434735
v  5.763313 2.400000 -1.434732
v  5.763312 2.400000 -0.390421
v  5.763312 2.400000 2.987410
v  6.032180 2.400000 3.253245
v  4.656894 2.400000 2.987410
v  0.253098 2.400000 2.987410
v  -0.143942 2.400000 3.483005
v  0.253098 2.400000 3.483005
v  0.253098 2.400000 2.725403
v  -0.143942 2.400000 2.725403
v  -0.143942 2.400000 1.561808
v  -1.741073 2.400000 0.399429
v  -1.741073 2.400000 0.782062
v  -2.904144 2.400000 0.399429
v  -3.437767 2.400000 0.399429
v  -3.794513 2.400000 0.782062
v  -3.437767 2.400000 -0.694852
v  -3.794513 2.400000 -0.694852
v  -3.437767 2.400000 -2.284543
v  0.253098 2.400000 0.328842
v  0.253098 2.400000 -0.406090
v  0.140773 2.400000 -0.406090
v  2.944773 2.400000 -0.277640
v  2.944773 2.400000 -1.563514
v  2.842826 2.400000 -1.563514
v  2.842826 2.400000 -0.560249
v  4.656894 2.400000 2.620089
v  4.128599 2.400000 2.620089
v  4.128599 2.400000 -0.277640
v  3.948543 2.400000 -0.390421
v  3.948543 2.400000 -0.277640
v  2.489585 2.400000 -0.560249
v  3.013299 2.400000 -0.277640
v  3.013299 2.400000 -0.390421
v  4.740939 2.400000 -0.277640
v  4.740939 2.400000 -0.390421
v  5.686092 2.400000 -0.390421
v  5.686092 2.400000 -0.277640
# 290 vertices

vt 0.414017 0.653420 0.000000
vt 0.412043 0.653420 0.000000
vt 0.412043 0.556421 0.000000
vt 0.414017 0.556421 0.000000
vt 0.803192 0.590457 0.000000
vt 0.803192 0.602287 0.000000
vt 0.801218 0.602287 0.000000
vt 0.801218 0.590457 0.000000
vt 0.001953 0.827335 0.000000
vt 0.001953 0.816135 0.000000
vt 0.517235 0.816135 0.000000
vt 0.517235 0.827335 0.000000
vt 0.806511 0.849280 0.000000
vt 0.808485 0.849280 0.000000
vt 0.808485 0.859627 0.000000
vt 0.806511 0.859627 0.000000
vt 0.896472 0.760981 0.000000
vt 0.896472 0.772182 0.000000
vt 0.852188 0.772182 0.000000
vt 0.852188 0.760981 0.000000
vt 0.796185 0.760981 0.000000
vt 0.796185 0.772182 0.000000
vt 0.737700 0.772182 0.000000
vt 0.737700 0.760981 0.000000
vt 0.806511 0.793134 0.000000
vt 0.808485 0.793134 0.000000
vt 0.808485 0.839409 0.000000
vt 0.806511 0.839409 0.000000
vt 0.774752 0.188957 0.000000
vt 0.785953 0.188957 0.000000
vt 0.785953 0.371809 0.000000
vt 0.774752 0.371809 0.000000
vt 0.990970 0.807794 0.000000
vt 0.988995 0.807794 0.000000
vt 0.988995 0.750749 0.000000
vt 0.990970 0.750749 0.000000
vt 0.790631 0.910741 0.000000
vt 0.801832 0.910741 0.000000
vt 0.801832 0.972703 0.000000
vt 0.790631 0.972703 0.000000
vt 0.735961 0.556421 0.000000
vt 0.735961 0.567622 0.000000
vt 0.525974 0.567622 0.000000
vt 0.525974 0.556421 0.000000
vt 0.808485 0.882961 0.000000
vt 0.808485 0.890440 0.000000
vt 0.806511 0.890440 0.000000
vt 0.806511 0.882961 0.000000
vt 0.515388 0.027618 0.000000
vt 0.515388 0.025643 0.000000
vt 0.519307 0.025643 0.000000
vt 0.519307 0.027618 0.000000
vt 0.515388 0.057434 0.000000
vt 0.515388 0.055459 0.000000
vt 0.517656 0.055459 0.000000
vt 0.517656 0.057434 0.000000
vt 0.473722 0.831487 0.000000
vt 0.473722 0.842687 0.000000
vt 0.459049 0.842687 0.000000
vt 0.459049 0.831487 0.000000
vt 0.806511 0.863779 0.000000
vt 0.808485 0.863779 0.000000
vt 0.808485 0.871476 0.000000
vt 0.806511 0.871476 0.000000
vt 0.877400 0.756830 0.000000
vt 0.877400 0.651441 0.000000
vt 0.888601 0.651441 0.000000
vt 0.888601 0.756830 0.000000
vt 0.858641 0.606222 0.000000
vt 0.856667 0.606222 0.000000
vt 0.856667 0.590457 0.000000
vt 0.858641 0.590457 0.000000
vt 0.888601 0.586306 0.000000
vt 0.877400 0.586306 0.000000
vt 0.877400 0.556421 0.000000
vt 0.888601 0.556421 0.000000
vt 0.858641 0.626492 0.000000
vt 0.856667 0.626492 0.000000
vt 0.856667 0.617703 0.000000
vt 0.858641 0.617703 0.000000
vt 0.801218 0.617978 0.000000
vt 0.803192 0.617978 0.000000
vt 0.803192 0.632557 0.000000
vt 0.801218 0.632557 0.000000
vt 0.728980 0.706180 0.000000
vt 0.728980 0.717381 0.000000
vt 0.667697 0.717381 0.000000
vt 0.667697 0.706180 0.000000
vt 0.578670 0.706180 0.000000
vt 0.578670 0.717381 0.000000
vt 0.525974 0.717381 0.000000
vt 0.525974 0.706180 0.000000
vt 0.393885 0.842687 0.000000
vt 0.324835 0.842687 0.000000
vt 0.324835 0.831487 0.000000
vt 0.393885 0.831487 0.000000
vt 0.928253 0.147561 0.000000
vt 0.928253 0.136360 0.000000
vt 0.973365 0.136360 0.000000
vt 0.973365 0.147561 0.000000
vt 0.928253 0.447079 0.000000
vt 0.928253 0.435879 0.000000
vt 0.963138 0.435879 0.000000
vt 0.963138 0.447079 0.000000
vt 0.981185 0.147561 0.000000
vt 0.981185 0.136360 0.000000
vt 0.987475 0.136360 0.000000
vt 0.987475 0.147561 0.000000
vt 0.316782 0.842687 0.000000
vt 0.166041 0.842687 0.000000
vt 0.166041 0.831487 0.000000
vt 0.316782 0.831487 0.000000
vt 0.483629 0.855939 0.000000
vt 0.494830 0.855939 0.000000
vt 0.494830 0.981189 0.000000
vt 0.483629 0.981189 0.000000
vt 0.928253 0.297320 0.000000
vt 0.928253 0.286119 0.000000
vt 0.971772 0.286119 0.000000
vt 0.971772 0.297320 0.000000
vt 0.978097 0.853113 0.000000
vt 0.944133 0.853113 0.000000
vt 0.944133 0.841912 0.000000
vt 0.978097 0.841912 0.000000
vt 0.782738 0.976437 0.000000
vt 0.771537 0.976437 0.000000
vt 0.771537 0.910741 0.000000
vt 0.782738 0.910741 0.000000
vt 0.986478 0.957553 0.000000
vt 0.986478 0.946353 0.000000
vt 0.992187 0.946353 0.000000
vt 0.992187 0.957553 0.000000
vt 0.957973 0.692153 0.000000
vt 0.957973 0.703353 0.000000
vt 0.901787 0.703353 0.000000
vt 0.901787 0.692153 0.000000
vt 0.637130 0.867140 0.000000
vt 0.637130 0.855939 0.000000
vt 0.657701 0.855939 0.000000
vt 0.657701 0.867140 0.000000
vt 0.994891 0.451231 0.000000
vt 0.994891 0.462431 0.000000
vt 0.965305 0.462431 0.000000
vt 0.965305 0.451231 0.000000
vt 0.920360 0.184806 0.000000
vt 0.909159 0.184806 0.000000
vt 0.909159 0.001953 0.000000
vt 0.920360 0.001953 0.000000
vt 0.920360 0.538242 0.000000
vt 0.909159 0.538242 0.000000
vt 0.909159 0.375961 0.000000
vt 0.920360 0.375961 0.000000
vt 0.102544 0.842687 0.000000
vt 0.058167 0.842687 0.000000
vt 0.058167 0.831487 0.000000
vt 0.102544 0.831487 0.000000
vt 0.899526 0.542394 0.000000
vt 0.899526 0.553594 0.000000
vt 0.896494 0.553594 0.000000
vt 0.896494 0.542394 0.000000
vt 0.985088 0.600990 0.000000
vt 0.985088 0.612190 0.000000
vt 0.965305 0.612190 0.000000
vt 0.965305 0.600990 0.000000
vt 0.955740 0.542394 0.000000
vt 0.955740 0.553594 0.000000
vt 0.951902 0.553594 0.000000
vt 0.951902 0.542394 0.000000
vt 0.005791 0.831487 0.000000
vt 0.005791 0.842687 0.000000
vt 0.001953 0.842687 0.000000
vt 0.001953 0.831487 0.000000
vt 0.479901 0.001953 0.000000
vt 0.479901 0.013154 0.000000
vt 0.445608 0.013154 0.000000
vt 0.445608 0.001953 0.000000
vt 0.159800 0.831487 0.000000
vt 0.159800 0.842687 0.000000
vt 0.155475 0.842687 0.000000
vt 0.155475 0.831487 0.000000
vt 0.392677 0.001953 0.000000
vt 0.392677 0.013154 0.000000
vt 0.388353 0.013154 0.000000
vt 0.388353 0.001953 0.000000
vt 0.388353 0.653420 0.000000
vt 0.388353 0.556421 0.000000
vt 0.397236 0.556421 0.000000
vt 0.397236 0.653420 0.000000
vt 0.826882 0.590457 0.000000
vt 0.826882 0.602287 0.000000
vt 0.817998 0.602287 0.000000
vt 0.817998 0.590457 0.000000
vt 0.001953 0.681728 0.000000
vt 0.517235 0.681728 0.000000
vt 0.517235 0.732130 0.000000
vt 0.001953 0.732130 0.000000
vt 0.832175 0.849280 0.000000
vt 0.832175 0.859627 0.000000
vt 0.823292 0.859627 0.000000
vt 0.823292 0.849280 0.000000
vt 0.896472 0.906589 0.000000
vt 0.852188 0.906589 0.000000
vt 0.852188 0.856186 0.000000
vt 0.896472 0.856186 0.000000
vt 0.451870 0.556421 0.000000
vt 0.466928 0.556421 0.000000
vt 0.466928 0.606824 0.000000
vt 0.451870 0.606824 0.000000
vt 0.599256 0.839139 0.000000
vt 0.584199 0.839139 0.000000
vt 0.584199 0.788736 0.000000
vt 0.599256 0.788736 0.000000
vt 0.796185 0.906589 0.000000
vt 0.737700 0.906589 0.000000
vt 0.737700 0.856186 0.000000
vt 0.796185 0.856186 0.000000
vt 0.832175 0.793134 0.000000
vt 0.832175 0.839409 0.000000
vt 0.823292 0.839409 0.000000
vt 0.823292 0.793134 0.000000
vt 0.920360 0.188957 0.000000
vt 0.920360 0.371809 0.000000
vt 0.869957 0.371809 0.000000
vt 0.869957 0.188957 0.000000
vt 0.965305 0.807794 0.000000
vt 0.965305 0.750749 0.000000
vt 0.974189 0.750749 0.000000
vt 0.974189 0.807794 0.000000
vt 0.936239 0.910741 0.000000
vt 0.936239 0.972703 0.000000
vt 0.885836 0.972703 0.000000
vt 0.885836 0.910741 0.000000
vt 0.735961 0.702029 0.000000
vt 0.525974 0.702029 0.000000
vt 0.525974 0.651626 0.000000
vt 0.735961 0.651626 0.000000
vt 0.832175 0.882961 0.000000
vt 0.832175 0.890440 0.000000
vt 0.823292 0.890440 0.000000
vt 0.823292 0.882961 0.000000
vt 0.515388 0.001953 0.000000
vt 0.519307 0.001953 0.000000
vt 0.519307 0.010837 0.000000
vt 0.515388 0.010837 0.000000
vt 0.515388 0.031769 0.000000
vt 0.517656 0.031769 0.000000
vt 0.517656 0.040653 0.000000
vt 0.515388 0.040653 0.000000
vt 0.473722 0.977095 0.000000
vt 0.459049 0.977095 0.000000
vt 0.459049 0.926692 0.000000
vt 0.473722 0.926692 0.000000
vt 0.404232 0.846839 0.000000
vt 0.426467 0.846839 0.000000
vt 0.426467 0.897242 0.000000
vt 0.404232 0.897242 0.000000
vt 0.832175 0.863779 0.000000
vt 0.832175 0.871476 0.000000
vt 0.823292 0.871476 0.000000
vt 0.823292 0.863779 0.000000
vt 0.398939 0.034106 0.000000
vt 0.421174 0.034106 0.000000
vt 0.421174 0.084509 0.000000
vt 0.398939 0.084509 0.000000
vt 0.742993 0.756830 0.000000
vt 0.742993 0.651441 0.000000
vt 0.793396 0.651441 0.000000
vt 0.793396 0.756830 0.000000
vt 0.832977 0.606222 0.000000
vt 0.832977 0.590457 0.000000
vt 0.841860 0.590457 0.000000
vt 0.841860 0.606222 0.000000
vt 0.742993 0.586306 0.000000
vt 0.742993 0.556421 0.000000
vt 0.793396 0.556421 0.000000
vt 0.793396 0.586306 0.000000
vt 0.832977 0.626492 0.000000
vt 0.832977 0.617703 0.000000
vt 0.841860 0.617703 0.000000
vt 0.841860 0.626492 0.000000
vt 0.826882 0.617978 0.000000
vt 0.826882 0.632557 0.000000
vt 0.817998 0.632557 0.000000
vt 0.817998 0.617978 0.000000
vt 0.728980 0.851788 0.000000
vt 0.667697 0.851788 0.000000
vt 0.667697 0.801385 0.000000
vt 0.728980 0.801385 0.000000
vt 0.990577 0.435879 0.000000
vt 0.970598 0.435879 0.000000
vt 0.970598 0.385476 0.000000
vt 0.990577 0.385476 0.000000
vt 0.133088 0.998047 0.000000
vt 0.113109 0.998047 0.000000
vt 0.113109 0.947644 0.000000
vt 0.133088 0.947644 0.000000
vt 0.578670 0.851788 0.000000
vt 0.525974 0.851788 0.000000
vt 0.525974 0.801385 0.000000
vt 0.578670 0.801385 0.000000
vt 0.393885 0.977095 0.000000
vt 0.324835 0.977095 0.000000
vt 0.324835 0.926692 0.000000
vt 0.393885 0.926692 0.000000
vt 0.928253 0.001953 0.000000
vt 0.973365 0.001953 0.000000
vt 0.973365 0.052356 0.000000
vt 0.928253 0.052356 0.000000
vt 0.928253 0.301471 0.000000
vt 0.963138 0.301471 0.000000
vt 0.963138 0.351874 0.000000
vt 0.928253 0.351874 0.000000
vt 0.981185 0.001953 0.000000
vt 0.987475 0.001953 0.000000
vt 0.987475 0.052356 0.000000
vt 0.981185 0.052356 0.000000
vt 0.316782 0.977095 0.000000
vt 0.166041 0.977095 0.000000
vt 0.166041 0.926692 0.000000
vt 0.316782 0.926692 0.000000
vt 0.629237 0.855939 0.000000
vt 0.629237 0.981189 0.000000
vt 0.578834 0.981189 0.000000
vt 0.578834 0.855939 0.000000
vt 0.928253 0.151712 0.000000
vt 0.971772 0.151712 0.000000
vt 0.971772 0.202115 0.000000
vt 0.928253 0.202115 0.000000
vt 0.978097 0.987520 0.000000
vt 0.944133 0.987520 0.000000
vt 0.944133 0.937117 0.000000
vt 0.978097 0.937117 0.000000
vt 0.637130 0.976437 0.000000
vt 0.637130 0.910741 0.000000
vt 0.687533 0.910741 0.000000
vt 0.687533 0.976437 0.000000
vt 0.986478 0.811945 0.000000
vt 0.992187 0.811945 0.000000
vt 0.992187 0.862348 0.000000
vt 0.986478 0.862348 0.000000
vt 0.957973 0.837761 0.000000
vt 0.901787 0.837761 0.000000
vt 0.901787 0.787358 0.000000
vt 0.957973 0.787358 0.000000
vt 0.637130 0.721532 0.000000
vt 0.657701 0.721532 0.000000
vt 0.657701 0.771935 0.000000
vt 0.637130 0.771935 0.000000
vt 0.994891 0.596838 0.000000
vt 0.965305 0.596838 0.000000
vt 0.965305 0.546436 0.000000
vt 0.994891 0.546436 0.000000
vt 0.774752 0.184806 0.000000
vt 0.774752 0.001953 0.000000
vt 0.825155 0.001953 0.000000
vt 0.825155 0.184806 0.000000
vt 0.774752 0.538242 0.000000
vt 0.774752 0.375961 0.000000
vt 0.825155 0.375961 0.000000
vt 0.825155 0.538242 0.000000
vt 0.102544 0.977095 0.000000
vt 0.058167 0.977095 0.000000
vt 0.058167 0.926692 0.000000
vt 0.102544 0.926692 0.000000
vt 0.504802 0.556421 0.000000
vt 0.511118 0.556421 0.000000
vt 0.511118 0.606824 0.000000
vt 0.504802 0.606824 0.000000
vt 0.899526 0.688001 0.000000
vt 0.896494 0.688001 0.000000
vt 0.896494 0.637599 0.000000
vt 0.899526 0.637599 0.000000
vt 0.985088 0.746597 0.000000
vt 0.965305 0.746597 0.000000
vt 0.965305 0.696195 0.000000
vt 0.985088 0.696195 0.000000
vt 0.955740 0.688001 0.000000
vt 0.951902 0.688001 0.000000
vt 0.951902 0.637599 0.000000
vt 0.955740 0.637599 0.000000
vt 0.473043 0.556421 0.000000
vt 0.479359 0.556421 0.000000
vt 0.479359 0.606824 0.000000
vt 0.473043 0.606824 0.000000
vt 0.005791 0.977095 0.000000
vt 0.001953 0.977095 0.000000
vt 0.001953 0.926692 0.000000
vt 0.005791 0.926692 0.000000
vt 0.479901 0.147561 0.000000
vt 0.445608 0.147561 0.000000
vt 0.445608 0.097158 0.000000
vt 0.479901 0.097158 0.000000
vt 0.981185 0.151712 0.000000
vt 0.987501 0.151712 0.000000
vt 0.987501 0.202115 0.000000
vt 0.981185 0.202115 0.000000
vt 0.159800 0.977095 0.000000
vt 0.155475 0.977095 0.000000
vt 0.155475 0.926692 0.000000
vt 0.159800 0.926692 0.000000
vt 0.488922 0.556421 0.000000
vt 0.495238 0.556421 0.000000
vt 0.495238 0.606824 0.000000
vt 0.488922 0.606824 0.000000
vt 0.392677 0.147561 0.000000
vt 0.388353 0.147561 0.000000
vt 0.388353 0.097158 0.000000
vt 0.392677 0.097158 0.000000
vt 0.409082 0.556421 0.000000
vt 0.409082 0.653420 0.000000
vt 0.806153 0.602287 0.000000
vt 0.806153 0.590457 0.000000
vt 0.517235 0.799334 0.000000
vt 0.001953 0.799334 0.000000
vt 0.811446 0.859627 0.000000
vt 0.811446 0.849280 0.000000
vt 0.852188 0.788983 0.000000
vt 0.896472 0.788983 0.000000
vt 0.466928 0.674027 0.000000
vt 0.451870 0.674027 0.000000
vt 0.584199 0.721532 0.000000
vt 0.599256 0.721532 0.000000
vt 0.737700 0.788983 0.000000
vt 0.796185 0.788983 0.000000
vt 0.811446 0.839409 0.000000
vt 0.811446 0.793134 0.000000
vt 0.802754 0.371809 0.000000
vt 0.802754 0.188957 0.000000
vt 0.986034 0.750749 0.000000
vt 0.986034 0.807794 0.000000
vt 0.818633 0.972703 0.000000
vt 0.818633 0.910741 0.000000
vt 0.525974 0.584423 0.000000
vt 0.735961 0.584423 0.000000
vt 0.811446 0.890440 0.000000
vt 0.811446 0.882961 0.000000
vt 0.519307 0.022682 0.000000
vt 0.515388 0.022682 0.000000
vt 0.517656 0.052498 0.000000
vt 0.515388 0.052498 0.000000
vt 0.459049 0.859488 0.000000
vt 0.473722 0.859488 0.000000
vt 0.426467 0.964445 0.000000
vt 0.404232 0.964445 0.000000
vt 0.811446 0.871476 0.000000
vt 0.811446 0.863779 0.000000
vt 0.421174 0.151712 0.000000
vt 0.398939 0.151712 0.000000
vt 0.860599 0.651441 0.000000
vt 0.860599 0.756830 0.000000
vt 0.420111 0.556421 0.000000
vt 0.441540 0.556421 0.000000
vt 0.441540 0.623625 0.000000
vt 0.420111 0.623625 0.000000
vt 0.853706 0.590457 0.000000
vt 0.853706 0.606222 0.000000
vt 0.949682 0.535235 0.000000
vt 0.928253 0.535235 0.000000
vt 0.928253 0.468031 0.000000
vt 0.949682 0.468031 0.000000
vt 0.860599 0.556421 0.000000
vt 0.860599 0.586306 0.000000
vt 0.853706 0.617703 0.000000
vt 0.853706 0.626492 0.000000
vt 0.806153 0.632557 0.000000
vt 0.806153 0.617978 0.000000
vt 0.667697 0.734182 0.000000
vt 0.728980 0.734182 0.000000
vt 0.970598 0.318272 0.000000
vt 0.990577 0.318272 0.000000
vt 0.113109 0.880441 0.000000
vt 0.133088 0.880441 0.000000
vt 0.525974 0.734182 0.000000
vt 0.578670 0.734182 0.000000
vt 0.324835 0.859488 0.000000
vt 0.393885 0.859488 0.000000
vt 0.973365 0.119559 0.000000
vt 0.928253 0.119559 0.000000
vt 0.963138 0.419078 0.000000
vt 0.928253 0.419078 0.000000
vt 0.987475 0.119559 0.000000
vt 0.981185 0.119559 0.000000
vt 0.166041 0.859488 0.000000
vt 0.316782 0.859488 0.000000
vt 0.511631 0.981189 0.000000
vt 0.511631 0.855939 0.000000
vt 0.971772 0.269318 0.000000
vt 0.928253 0.269318 0.000000
vt 0.944133 0.869914 0.000000
vt 0.978097 0.869914 0.000000
vt 0.754736 0.910741 0.000000
vt 0.754736 0.976437 0.000000
vt 0.992187 0.929552 0.000000
vt 0.986478 0.929552 0.000000
vt 0.901787 0.720154 0.000000
vt 0.957973 0.720154 0.000000
vt 0.657701 0.839139 0.000000
vt 0.637130 0.839139 0.000000
vt 0.965305 0.479232 0.000000
vt 0.994891 0.479232 0.000000
vt 0.892358 0.001953 0.000000
vt 0.892358 0.184806 0.000000
vt 0.892358 0.375961 0.000000
vt 0.892358 0.538242 0.000000
vt 0.058167 0.859488 0.000000
vt 0.102544 0.859488 0.000000
vt 0.511118 0.674027 0.000000
vt 0.504802 0.674027 0.000000
vt 0.896494 0.570395 0.000000
vt 0.899526 0.570395 0.000000
vt 0.965305 0.628991 0.000000
vt 0.985088 0.628991 0.000000
vt 0.951902 0.570395 0.000000
vt 0.955740 0.570395 0.000000
vt 0.479359 0.674027 0.000000
vt 0.473043 0.674027 0.000000
vt 0.001953 0.859488 0.000000
vt 0.005791 0.859488 0.000000
vt 0.445608 0.029955 0.000000
vt 0.479901 0.029955 0.000000
vt 0.987501 0.269318 0.000000
vt 0.981185 0.269318 0.000000
vt 0.155475 0.859488 0.000000
vt 0.159800 0.859488 0.000000
vt 0.495238 0.674027 0.000000
vt 0.488922 0.674027 0.000000
vt 0.388353 0.029955 0.000000
vt 0.392677 0.029955 0.000000
vt 0.426467 0.981246 0.000000
vt 0.404232 0.981246 0.000000
vt 0.421174 0.168513 0.000000
vt 0.398939 0.168513 0.000000
vt 0.441540 0.640426 0.000000
vt 0.420111 0.640426 0.000000
vt 0.928253 0.451231 0.000000
vt 0.949682 0.451231 0.000000
vt 0.970598 0.301471 0.000000
vt 0.990577 0.301471 0.000000
vt 0.113109 0.863640 0.000000
vt 0.133088 0.863640 0.000000
vt 0.693133 0.881519 0.000000
vt 0.693133 0.896577 0.000000
vt 0.637130 0.896577 0.000000
vt 0.637130 0.881519 0.000000
vt 0.430698 0.173948 0.000000
vt 0.430698 0.151712 0.000000
vt 0.495862 0.151712 0.000000
vt 0.495862 0.173948 0.000000
vt 0.388353 0.199528 0.000000
vt 0.388353 0.178099 0.000000
vt 0.453488 0.178099 0.000000
vt 0.453488 0.199528 0.000000
vt 0.663596 0.877368 0.000000
vt 0.663596 0.855939 0.000000
vt 0.728731 0.855939 0.000000
vt 0.728731 0.877368 0.000000
vt 0.488922 0.001953 0.000000
vt 0.508901 0.001953 0.000000
vt 0.508901 0.090981 0.000000
vt 0.488922 0.090981 0.000000
vt 0.511118 0.148063 0.000000
vt 0.504802 0.148063 0.000000
vt 0.504802 0.095132 0.000000
vt 0.511118 0.095132 0.000000
vt 0.913397 0.626923 0.000000
vt 0.907081 0.626923 0.000000
vt 0.907081 0.574547 0.000000
vt 0.913397 0.574547 0.000000
# 568 texture coords

o b19_050
g b19_050
f 3/1 250/2 248/3 1/4 
f 248/5 241/6 32/7 1/8 
f 33/9 233/10 249/11 2/12 
f 5/13 252/14 250/15 3/16 
f 2/17 249/18 251/19 4/20 
f 6/21 253/22 254/23 8/24 
f 11/25 256/26 234/27 7/28 
f 9/29 235/30 255/31 10/32 
f 15/33 237/34 256/35 11/36 
f 10/37 255/38 257/39 12/40 
f 13/41 236/42 258/43 14/44 
f 262/45 259/46 17/47 19/48 
f 17/49 259/50 260/51 16/52 
f 16/53 260/54 237/55 15/56 
f 14/57 258/58 261/59 18/60 
f 22/61 238/62 263/63 21/64 
f 239/65 264/66 24/67 34/68 
f 23/69 265/70 238/71 22/72 
f 26/73 266/74 267/75 27/76 
f 28/77 268/78 240/79 25/80 
f 30/81 270/82 268/83 28/84 
f 27/85 267/86 269/87 29/88 
f 31/89 271/90 233/91 33/92 
f 242/93 272/94 35/95 20/96 
f 38/97 274/98 239/99 34/100 
f 36/101 243/102 273/103 37/104 
f 37/105 273/106 274/107 38/108 
f 272/109 245/110 40/111 35/112 
f 39/113 244/114 243/115 36/116 
f 41/117 284/118 244/119 39/120 
f 245/121 275/122 51/123 40/124 
f 52/125 247/126 276/127 43/128 
f 43/129 276/130 277/131 44/132 
f 44/133 277/134 278/135 42/136 
f 12/137 257/138 279/139 45/140 
f 45/141 279/142 280/143 46/144 
f 48/145 246/146 236/147 13/148 
f 46/149 280/150 281/151 47/152 
f 288/153 282/154 50/155 56/156 
f 49/157 283/158 246/159 48/160 
f 42/161 278/162 284/163 41/164 
f 51/165 275/166 285/167 53/168 
f 54/169 286/170 247/171 52/172 
f 47/173 281/174 287/175 55/176 
f 8/177 254/178 289/179 57/180 
f 58/181 290/182 235/183 9/184 
f 61/185 59/186 117/187 120/188 
f 59/189 90/190 148/191 117/192 
f 91/193 60/194 119/195 118/196 
f 63/197 61/198 120/199 122/200 
f 60/201 62/202 121/203 119/204 
f 62/205 63/206 122/207 121/208 
f 65/209 64/210 124/211 123/212 
f 64/213 66/214 125/215 124/216 
f 69/217 65/218 123/219 128/220 
f 67/221 68/222 127/223 126/224 
f 73/225 69/226 128/227 132/228 
f 68/229 70/230 129/231 127/232 
f 71/233 72/234 131/235 130/236 
f 77/237 75/238 133/239 136/240 
f 75/241 74/242 134/243 133/244 
f 74/245 73/246 132/247 134/248 
f 72/249 76/250 135/251 131/252 
f 76/253 77/254 136/255 135/256 
f 80/257 79/258 138/259 137/260 
f 79/261 78/262 150/263 138/264 
f 92/265 82/266 140/267 139/268 
f 81/269 80/270 137/271 141/272 
f 84/273 85/274 144/275 143/276 
f 86/277 83/278 142/279 145/280 
f 88/281 86/282 145/283 147/284 
f 85/285 87/286 146/287 144/288 
f 87/289 88/290 147/291 146/292 
f 90/293 89/294 149/295 148/296 
f 89/297 91/298 118/299 149/300 
f 78/301 93/302 151/303 150/304 
f 96/305 92/306 139/307 154/308 
f 94/309 95/310 153/311 152/312 
f 95/313 96/314 154/315 153/316 
f 93/317 98/318 156/319 151/320 
f 97/321 94/322 152/323 155/324 
f 99/325 97/326 155/327 167/328 
f 98/329 109/330 157/331 156/332 
f 110/333 101/334 158/335 168/336 
f 101/337 102/338 159/339 158/340 
f 102/341 100/342 160/343 159/344 
f 70/345 103/346 161/347 129/348 
f 103/349 104/350 162/351 161/352 
f 106/353 71/354 130/355 164/356 
f 104/357 105/358 163/359 162/360 
f 114/361 108/362 165/363 172/364 
f 108/365 107/366 166/367 165/368 
f 107/369 106/370 164/371 166/372 
f 100/373 99/374 167/375 160/376 
f 109/377 111/378 169/379 157/380 
f 111/381 112/382 170/383 169/384 
f 112/385 110/386 168/387 170/388 
f 105/389 113/390 171/391 163/392 
f 113/393 114/394 172/395 171/396 
f 66/397 115/398 173/399 125/400 
f 115/401 116/402 174/403 173/404 
f 116/405 67/406 126/407 174/408 
f 120/188 117/187 190/409 192/410 
f 117/192 148/191 183/411 190/412 
f 118/196 119/195 191/413 175/414 
f 122/200 120/199 192/415 194/416 
f 119/204 121/203 193/417 191/418 
f 121/208 122/207 194/419 193/420 
f 123/212 124/211 195/421 176/422 
f 124/216 125/215 196/423 195/424 
f 128/220 123/219 176/425 198/426 
f 126/224 127/223 197/427 177/428 
f 132/228 128/227 198/429 179/430 
f 127/232 129/231 199/431 197/432 
f 130/236 131/235 200/433 178/434 
f 136/240 133/239 201/435 204/436 
f 133/244 134/243 202/437 201/438 
f 134/248 132/247 179/439 202/440 
f 131/252 135/251 203/441 200/442 
f 135/256 136/255 204/443 203/444 
f 137/260 138/259 205/445 180/446 
f 138/264 150/263 184/447 205/448 
f 139/268 140/267 206/449 181/450 
f 140/451 141/452 207/453 206/454 
f 141/272 137/271 180/455 207/456 
f 142/457 143/458 208/459 182/460 
f 143/276 144/275 209/461 208/462 
f 145/280 142/279 182/463 210/464 
f 147/284 145/283 210/465 212/466 
f 144/288 146/287 211/467 209/468 
f 146/292 147/291 212/469 211/470 
f 148/296 149/295 213/471 183/472 
f 149/300 118/299 175/473 213/474 
f 150/304 151/303 214/475 184/476 
f 154/308 139/307 181/477 216/478 
f 152/312 153/311 215/479 185/480 
f 153/316 154/315 216/481 215/482 
f 151/320 156/319 187/483 214/484 
f 155/324 152/323 185/485 186/486 
f 167/328 155/327 186/487 226/488 
f 156/332 157/331 217/489 187/490 
f 168/336 158/335 218/491 189/492 
f 158/340 159/339 219/493 218/494 
f 159/344 160/343 220/495 219/496 
f 129/348 161/347 221/497 199/498 
f 161/352 162/351 222/499 221/500 
f 164/356 130/355 178/501 188/502 
f 162/360 163/359 223/503 222/504 
f 172/364 165/363 224/505 230/506 
f 165/368 166/367 225/507 224/508 
f 166/372 164/371 188/509 225/510 
f 160/376 167/375 226/511 220/512 
f 157/380 169/379 227/513 217/514 
f 169/384 170/383 228/515 227/516 
f 170/388 168/387 189/517 228/518 
f 163/392 171/391 229/519 223/520 
f 171/396 172/395 230/521 229/522 
f 125/400 173/399 231/523 196/524 
f 173/404 174/403 232/525 231/526 
f 174/408 126/407 177/527 232/528 
f 192/410 190/409 248/3 250/2 
f 190/412 183/411 241/6 248/5 
f 175/414 191/413 249/11 233/10 
f 194/416 192/415 250/15 252/14 
f 191/418 193/417 251/19 249/18 
f 195/424 196/423 254/23 253/22 
f 198/426 176/425 234/27 256/26 
f 177/428 197/427 255/31 235/30 
f 179/430 198/429 256/35 237/34 
f 197/432 199/431 257/39 255/38 
f 178/434 200/433 258/43 236/42 
f 204/436 201/435 259/46 262/45 
f 201/438 202/437 260/51 259/50 
f 202/440 179/439 237/55 260/54 
f 200/442 203/441 261/59 258/58 
f 203/444 204/443 262/529 261/530 
f 180/446 205/445 263/63 238/62 
f 205/448 184/447 242/531 263/532 
f 181/450 206/449 264/66 239/65 
f 206/454 207/453 265/533 264/534 
f 207/456 180/455 238/71 265/70 
f 182/460 208/459 266/535 240/536 
f 208/462 209/461 267/75 266/74 
f 210/464 182/463 240/79 268/78 
f 212/466 210/465 268/83 270/82 
f 209/468 211/467 269/87 267/86 
f 211/470 212/469 270/537 269/538 
f 183/472 213/471 271/539 241/540 
f 213/474 175/473 233/91 271/90 
f 184/476 214/475 272/94 242/93 
f 216/478 181/477 239/99 274/98 
f 185/480 215/479 273/103 243/102 
f 215/482 216/481 274/107 273/106 
f 214/484 187/483 245/110 272/109 
f 186/486 185/485 243/115 244/114 
f 226/488 186/487 244/119 284/118 
f 187/490 217/489 275/122 245/121 
f 189/492 218/491 276/127 247/126 
f 218/494 219/493 277/131 276/130 
f 219/496 220/495 278/135 277/134 
f 199/498 221/497 279/139 257/138 
f 221/500 222/499 280/143 279/142 
f 188/502 178/501 236/147 246/146 
f 222/504 223/503 281/151 280/150 
f 230/506 224/505 282/154 288/153 
f 225/510 188/509 246/159 283/158 
f 220/512 226/511 284/163 278/162 
f 217/514 227/513 285/167 275/166 
f 228/518 189/517 247/171 286/170 
f 223/520 229/519 287/175 281/174 
f 196/524 231/523 289/179 254/178 
f 232/528 177/527 235/183 290/182 
f 193/541 194/542 176/543 195/544 
f 194/416 252/14 234/27 176/425 
f 252/14 5/13 7/28 234/27 
f 4/20 251/19 253/22 6/21 
f 251/19 193/417 195/424 253/22 
f 18/60 261/59 242/93 20/96 
f 261/545 262/546 263/547 242/548 
f 262/45 19/48 21/64 263/63 
f 265/70 23/69 25/80 240/79 
f 24/67 264/66 266/74 26/73 
f 264/549 265/550 240/551 266/552 
f 81/269 141/272 142/279 83/278 
f 141/553 140/554 143/555 142/556 
f 140/267 82/266 84/273 143/276 
f 29/88 269/87 271/90 31/89 
f 269/557 270/558 241/559 271/560 
f 270/82 30/81 32/7 241/6 
f 229/561 230/562 231/563 232/564 
f 230/506 288/153 289/179 231/523 
f 288/153 56/156 57/180 289/179 
f 55/176 287/175 290/182 58/181 
f 287/175 229/519 232/528 290/182 
f 224/565 225/566 227/567 228/568 
f 225/510 283/158 285/167 227/513 
f 283/158 49/157 53/168 285/167 
f 50/155 282/154 286/170 54/169 
f 282/154 224/505 228/518 286/170 
# 239 polygons

